e_bin_left,e_bin_right,bin_center,dfluxdEN,EdfluxdE,errdfluxdE
9.9999997e-06,1.1748975e-05,1.087448735e-05,0.0,0.0,0.0
1.1748975e-05,1.3803842e-05,1.27764085e-05,0.0,0.0,0.0
1.3803842e-05,1.62181e-05,1.5010971e-05,0.0,0.0,0.0
1.62181e-05,1.9054607e-05,1.7636353500000002e-05,0.0,0.0,0.0
1.9054607e-05,2.238721e-05,2.07209085e-05,0.0,0.0,0.0
2.238721e-05,2.630268e-05,2.4344945e-05,0.0,0.0,0.0
2.630268e-05,3.0902953000000004e-05,2.8602816500000002e-05,1.6083884184628347e-06,4.600443879401768e-11,1.078870762365454e-06
3.0902953000000004e-05,3.6307803e-05,3.3605378e-05,4.8314702350380055e-06,1.6236338354420103e-10,2.480457492787572e-06
3.6307803e-05,4.265795e-05,3.94828765e-05,4.127391679346571e-06,1.6296129594276828e-10,2.010696003118796e-06
4.265795e-05,5.0118720999999996e-05,4.63883355e-05,4.500916733918364e-06,2.0879003551056928e-10,2.419155876788156e-06
5.0118720999999996e-05,5.8884361e-05,5.4501541e-05,2.6718733090063462e-06,1.4562121269761503e-10,1.7556299716972648e-06
5.8884361e-05,6.9183094e-05,6.40337275e-05,3.3581873756547424e-06,2.1503725530661588e-10,3.324605501898195e-06
6.9183094e-05,8.1283048e-05,7.5233071e-05,2.791756294895458e-06,2.1003239954856692e-10,2.196120293071149e-06
8.1283048e-05,9.549924999999999e-05,8.8391149e-05,2.399942943083448e-06,2.121337142735876e-10,2.1201441550982986e-06
9.549924999999999e-05,0.00011220184,0.000103850545,4.950324885816088e-06,5.140939373190634e-10,3.29591640832658e-06
0.00011220184,0.00013182567,0.00012201375499999999,2.7251410677576807e-06,3.3250469458182403e-10,1.684892588978229e-06
0.00013182567,0.00015488165,0.00014335366,0.0,0.0,0.0
0.00015488165,0.00018197006999999999,0.00016842586,4.218646779808785e-06,7.105292119255253e-10,2.300326841507015e-06
0.00018197006999999999,0.00021379618999999998,0.00019788312999999998,9.258260075187242e-07,1.832053482032087e-10,6.164089379369178e-07
0.00021379618999999998,0.00025118861,0.0002324924,3.3122400774750498e-06,7.700706449883602e-10,2.271647192519031e-06
0.00025118861,0.0002951209,0.00027315475499999997,2.794849334096602e-06,7.634263851170704e-10,2.7669008407556358e-06
0.0002951209,0.00034673681000000007,0.000320928855,3.432007375664171e-06,1.1014301974234574e-09,1.6131718236380102e-06
0.00034673681000000007,0.00040738023,0.00037705852000000003,0.0,0.0,0.0
0.00040738023,0.00047863004,0.000443005135,2.2586255972238126e-06,1.0005827376125908e-09,1.1610604917316037e-06
0.00047863004,0.0005623412400000001,0.00052048564,2.6261557794530234e-06,1.366876371608306e-09,1.258870620436088e-06
0.0005623412400000001,0.00066069339,0.000611517315,1.2618696933897364e-06,7.716551667815648e-10,6.855038968376299e-07
0.00066069339,0.00077624706,0.000718470225,2.343717114114292e-06,1.683890962314046e-09,1.1310813948472285e-06
0.00077624706,0.00091201073,0.000844128895,4.206984816940265e-06,3.5512374448055633e-09,1.3673933301607221e-06
0.00091201073,0.0010715192,0.000991764965,2.7399603407717844e-06,2.7173966714669167e-09,8.985061526801667e-07
0.0010715192,0.0012589253,0.00116522225,2.6886753406564036e-06,3.1329043299591706e-09,8.990174821384289e-07
0.0012589253,0.0014791082,0.00136901675,1.5625903895516025e-06,2.139212416685169e-09,8.433408151146879e-07
0.0014791082,0.0017378007,0.00160845445,3.569672525106041e-06,5.741655658049548e-09,1.2774351565548924e-06
0.0017378007,0.0020417378,0.00188976925,2.0759466850702315e-06,3.923060210085158e-09,1.0953332026062855e-06
0.0020417378,0.0023988327,0.0022202852499999997,1.334762263670905e-06,2.9635529662851207e-09,4.4163038760871784e-07
0.0023988327,0.0028183826,0.0026086076499999998,9.892207783080068e-07,2.58048888983322e-09,3.827540518026698e-07
0.0028183826,0.0033113109000000003,0.00306484675,1.7024312711401054e-06,5.217690948452121e-09,7.413577456433817e-07
0.0033113109000000003,0.0038904509999999996,0.00360088095,1.1467647701876067e-06,4.12936341509968e-09,4.215988936413121e-07
0.0038904509999999996,0.0045708814,0.0042306662,5.487930447994324e-07,2.321760185428044e-09,4.041485400505176e-07
0.0045708814,0.0053703169999999995,0.0049705992,6.470941689005321e-07,3.21644575826165e-09,2.7226752465099136e-07
0.0053703169999999995,0.0063095726000000005,0.0058399448,3.357404876906194e-07,1.9607059152382963e-09,1.504130478732995e-07
0.0063095726000000005,0.0074131014,0.006861337,6.938350525666897e-08,4.760636118072773e-10,4.6196106744633294e-08
0.0074131014,0.0087096347,0.00806136805,0.0,0.0,0.0
0.0087096347,0.010232928,0.00947128135,0.0,0.0,0.0
0.010232928,0.012022642,0.011127785000000001,0.0,0.0,0.0
0.012022642,0.014125373,0.0130740075,0.0,0.0,0.0
0.014125373,0.016595867,0.01536062,0.0,0.0,0.0
0.016595867,0.019498443,0.018047155000000002,0.0,0.0,0.0
0.019498443,0.022908672999999997,0.021203557999999997,0.0,0.0,0.0
0.022908672999999997,0.026915342999999998,0.024912008,0.0,0.0,0.0
0.026915342999999998,0.031622771,0.029269057,0.0,0.0,0.0
0.031622771,0.037153516,0.034388143499999996,0.0,0.0,0.0
0.037153516,0.043651577000000004,0.0404025465,0.0,0.0,0.0
0.043651577000000004,0.051286127,0.047468852000000006,0.0,0.0,0.0
0.051286127,0.060255948,0.055771037499999995,0.0,0.0,0.0
0.060255948,0.070794567,0.0655252575,0.0,0.0,0.0
0.070794567,0.08317636,0.0769854635,0.0,0.0,0.0
0.08317636,0.0977237,0.09045003,0.0,0.0,0.0
0.0977237,0.1148153,0.10626949999999999,0.0,0.0,0.0
0.1148153,0.1348963,0.12485579999999999,0.0,0.0,0.0
0.1348963,0.15848929999999997,0.14669279999999998,0.0,0.0,0.0
0.15848929999999997,0.18620870000000003,0.172349,0.0,0.0,0.0
0.18620870000000003,0.2187761,0.20249240000000002,0.0,0.0,0.0
0.2187761,0.2570395,0.2379078,0.0,0.0,0.0
0.2570395,0.30199509999999996,0.27951729999999997,0.0,0.0,0.0
0.30199509999999996,0.3548133,0.3284042,0.0,0.0,0.0
0.3548133,0.4168693,0.3858413,0.0,0.0,0.0
0.4168693,0.4897787,0.453324,0.0,0.0,0.0
0.4897787,0.5754398000000001,0.53260925,0.0,0.0,0.0
0.5754398000000001,0.6760828000000001,0.6257613000000001,0.0,0.0,0.0
0.6760828000000001,0.7943279999999999,0.7352054,0.0,0.0,0.0
0.7943279999999999,0.9332541,0.8637910499999999,0.0,0.0,0.0
0.9332541,1.096478,1.01486605,0.0,0.0,0.0
1.096478,1.288249,1.1923635,0.0,0.0,0.0
1.288249,1.5135610000000002,1.400905,0.0,0.0,0.0
1.5135610000000002,1.7782790000000002,1.6459200000000003,0.0,0.0,0.0
1.7782790000000002,2.089296,1.9337875000000002,0.0,0.0,0.0
2.089296,2.454708,2.272002,0.0,0.0,0.0
2.454708,2.8840310000000002,2.6693695,0.0,0.0,0.0
2.8840310000000002,3.3884410000000003,3.1362360000000002,0.0,0.0,0.0
3.3884410000000003,3.981071,3.684756,0.0,0.0,0.0
3.981071,4.67735,4.3292105,0.0,0.0,0.0
4.67735,5.495407,5.0863785,0.0,0.0,0.0
5.495407,6.4565410000000005,5.975974000000001,0.0,0.0,0.0
6.4565410000000005,7.585774000000001,7.021157500000001,0.0,0.0,0.0
7.585774000000001,8.912507000000002,8.249140500000001,0.0,0.0,0.0
8.912507000000002,10.47128,9.6918935,0.0,0.0,0.0
10.47128,12.30268,11.386980000000001,0.0,0.0,0.0
12.30268,14.45439,13.378535,0.0,0.0,0.0
14.45439,16.982429999999997,15.718409999999999,0.0,0.0,0.0
16.982429999999997,19.95262,18.467525,0.0,0.0,0.0
19.95262,23.44228,21.69745,0.0,0.0,0.0
23.44228,27.542279999999998,25.49228,0.0,0.0,0.0
27.542279999999998,32.359359999999995,29.950819999999997,0.0,0.0,0.0
32.359359999999995,38.01893,35.189144999999996,0.0,0.0,0.0
38.01893,44.66835,41.34363999999999,0.0,0.0,0.0
44.66835,52.48073,48.57454,0.0,0.0,0.0
52.48073,61.65948,57.070105,0.0,0.0,0.0
61.65948,72.44357,67.051525,0.0,0.0,0.0
72.44357,85.11378,78.77867499999999,0.0,0.0,0.0
85.11378,99.99996999999999,92.55687499999999,0.0,0.0,0.0
