e_bin_left,e_bin_right,bin_center,dfluxdEN,EdfluxdE,errdfluxdE
9.9999997e-06,1.1748975e-05,1.087448735e-05,0.0,0.0,0.0
1.1748975e-05,1.3803842e-05,1.27764085e-05,0.0,0.0,0.0
1.3803842e-05,1.62181e-05,1.5010971e-05,0.0,0.0,0.0
1.62181e-05,1.9054607e-05,1.7636353500000002e-05,0.0,0.0,0.0
1.9054607e-05,2.238721e-05,2.07209085e-05,0.0,0.0,0.0
2.238721e-05,2.630268e-05,2.4344945e-05,0.0,0.0,0.0
2.630268e-05,3.0902953000000004e-05,2.8602816500000002e-05,0.0,0.0,0.0
3.0902953000000004e-05,3.6307803e-05,3.3605378e-05,0.0,0.0,0.0
3.6307803e-05,4.265795e-05,3.94828765e-05,1.6723398107495255e-05,6.602878621385689e-10,1.4414599211570675e-05
4.265795e-05,5.0118720999999996e-05,4.63883355e-05,0.0,0.0,0.0
5.0118720999999996e-05,5.8884361e-05,5.4501541e-05,1.403362841125153e-05,7.648543742345901e-10,7.604212773221316e-06
5.8884361e-05,6.9183094e-05,6.40337275e-05,6.96329830997517e-05,4.458859464821605e-09,3.649107427054685e-05
6.9183094e-05,8.1283048e-05,7.5233071e-05,5.099131077176279e-05,3.836232903675095e-09,2.0601947903280236e-05
8.1283048e-05,9.549924999999999e-05,8.8391149e-05,4.359535849438939e-05,3.853443828385988e-09,1.351854138949125e-05
9.549924999999999e-05,0.00011220184,0.000103850545,5.77894911299424e-05,6.0014701491171845e-09,1.5937347674390678e-05
0.00011220184,0.00013182567,0.00012201375499999999,0.00010328129890780994,1.2601739101019287e-08,2.8704547952122094e-05
0.00013182567,0.00015488165,0.00014335366,0.00010778590171681761,1.545150350750609e-08,2.9097321540783155e-05
0.00015488165,0.00018197006999999999,0.00016842586,8.437083349064027e-05,1.4210230189577888e-08,3.0786883392401235e-05
0.00018197006999999999,0.00021379618999999998,0.00019788312999999998,3.9218502444475195e-05,7.760680017625402e-09,1.026646269590494e-05
0.00021379618999999998,0.00025118861,0.0002324924,2.490738172741999e-05,5.7907769555240184e-09,7.089089172494822e-06
0.00025118861,0.0002951209,0.00027315475499999997,4.187502655651516e-05,1.1438362619663391e-08,1.0743067375592554e-05
0.0002951209,0.00034673681000000007,0.000320928855,4.8878918981876696e-05,1.5686655502491453e-08,1.5215088555381358e-05
0.00034673681000000007,0.00040738023,0.00037705852000000003,3.220573026532794e-05,1.214344498936376e-08,1.2952626200457624e-05
0.00040738023,0.00047863004,0.000443005135,1.3659361499619025e-05,6.0511672851525285e-09,4.622011034284286e-06
0.00047863004,0.0005623412400000001,0.00052048564,4.403945316866064e-05,2.2921902967740364e-08,1.3180730884825166e-05
0.0005623412400000001,0.00066069339,0.000611517315,5.501163935793117e-06,3.3640569993910395e-09,1.7981032925402216e-06
0.00066069339,0.00077624706,0.000718470225,3.29664804366099e-06,2.368543461674921e-09,1.632608900606363e-06
0.00077624706,0.00091201073,0.000844128895,4.84850069523056e-06,4.092759534271704e-09,1.8430794784307043e-06
0.00091201073,0.0010715192,0.000991764965,3.8139913254781865e-06,3.7825829734231775e-09,1.482934748821006e-06
0.0010715192,0.0012589253,0.00116522225,2.8217711144741337e-06,3.2879904869925573e-09,1.1479419198830206e-06
0.0012589253,0.0014791082,0.00136901675,2.2132799684024125e-06,3.030017349182374e-09,9.150199590648431e-07
0.0014791082,0.0017378007,0.00160845445,1.8427648864756042e-06,2.9640033819554304e-09,7.030630846304687e-07
0.0017378007,0.0020417378,0.00188976925,1.3425719664693918e-06,2.5371512181458876e-09,6.406088850868535e-07
0.0020417378,0.0023988327,0.0022202852499999997,1.372280359594349e-06,3.0468538412720287e-09,5.431241397370426e-07
0.0023988327,0.0028183826,0.0026086076499999998,1.2927524020633334e-06,3.372283805578287e-09,5.975600604763923e-07
0.0028183826,0.0033113109000000003,0.00306484675,1.9947230164144886e-06,6.113520354008142e-09,6.775385907319353e-07
0.0033113109000000003,0.0038904509999999996,0.00360088095,6.77733165915561e-07,2.440436446328533e-09,3.6781215983413455e-07
0.0038904509999999996,0.0045708814,0.0042306662,1.804863449439774e-06,7.63577479116026e-09,8.730934888628986e-07
0.0045708814,0.0053703169999999995,0.0049705992,1.164758240191191e-06,5.789546376887742e-09,6.40665369572123e-07
0.0053703169999999995,0.0063095726000000005,0.0058399448,6.977433701167193e-07,4.07478276604761e-09,2.8349682931828465e-07
0.0063095726000000005,0.0074131014,0.006861337,3.085002990384132e-07,2.1167245163033294e-09,1.5266384098155107e-07
0.0074131014,0.0087096347,0.00806136805,1.5274212928479934e-06,1.2313105209054506e-08,6.744510481704164e-07
0.0087096347,0.010232928,0.00947128135,4.089295922062273e-09,3.873087220125946e-11,3.859472993016859e-09
0.010232928,0.012022642,0.011127785000000001,5.148349987755101e-09,5.72897317684914e-11,4.8590070552582784e-09
0.012022642,0.014125373,0.0130740075,0.0,0.0,0.0
0.014125373,0.016595867,0.01536062,0.0,0.0,0.0
0.016595867,0.019498443,0.018047155000000002,0.0,0.0,0.0
0.019498443,0.022908672999999997,0.021203557999999997,0.0,0.0,0.0
0.022908672999999997,0.026915342999999998,0.024912008,0.0,0.0,0.0
0.026915342999999998,0.031622771,0.029269057,0.0,0.0,0.0
0.031622771,0.037153516,0.034388143499999996,0.0,0.0,0.0
0.037153516,0.043651577000000004,0.0404025465,0.0,0.0,0.0
0.043651577000000004,0.051286127,0.047468852000000006,0.0,0.0,0.0
0.051286127,0.060255948,0.055771037499999995,0.0,0.0,0.0
0.060255948,0.070794567,0.0655252575,0.0,0.0,0.0
0.070794567,0.08317636,0.0769854635,0.0,0.0,0.0
0.08317636,0.0977237,0.09045003,0.0,0.0,0.0
0.0977237,0.1148153,0.10626949999999999,0.0,0.0,0.0
0.1148153,0.1348963,0.12485579999999999,0.0,0.0,0.0
0.1348963,0.15848929999999997,0.14669279999999998,0.0,0.0,0.0
0.15848929999999997,0.18620870000000003,0.172349,0.0,0.0,0.0
0.18620870000000003,0.2187761,0.20249240000000002,0.0,0.0,0.0
0.2187761,0.2570395,0.2379078,0.0,0.0,0.0
0.2570395,0.30199509999999996,0.27951729999999997,0.0,0.0,0.0
0.30199509999999996,0.3548133,0.3284042,0.0,0.0,0.0
0.3548133,0.4168693,0.3858413,0.0,0.0,0.0
0.4168693,0.4897787,0.453324,0.0,0.0,0.0
0.4897787,0.5754398000000001,0.53260925,0.0,0.0,0.0
0.5754398000000001,0.6760828000000001,0.6257613000000001,0.0,0.0,0.0
0.6760828000000001,0.7943279999999999,0.7352054,0.0,0.0,0.0
0.7943279999999999,0.9332541,0.8637910499999999,0.0,0.0,0.0
0.9332541,1.096478,1.01486605,0.0,0.0,0.0
1.096478,1.288249,1.1923635,0.0,0.0,0.0
1.288249,1.5135610000000002,1.400905,0.0,0.0,0.0
1.5135610000000002,1.7782790000000002,1.6459200000000003,0.0,0.0,0.0
1.7782790000000002,2.089296,1.9337875000000002,0.0,0.0,0.0
2.089296,2.454708,2.272002,0.0,0.0,0.0
2.454708,2.8840310000000002,2.6693695,0.0,0.0,0.0
2.8840310000000002,3.3884410000000003,3.1362360000000002,0.0,0.0,0.0
3.3884410000000003,3.981071,3.684756,0.0,0.0,0.0
3.981071,4.67735,4.3292105,0.0,0.0,0.0
4.67735,5.495407,5.0863785,0.0,0.0,0.0
5.495407,6.4565410000000005,5.975974000000001,0.0,0.0,0.0
6.4565410000000005,7.585774000000001,7.021157500000001,0.0,0.0,0.0
7.585774000000001,8.912507000000002,8.249140500000001,0.0,0.0,0.0
8.912507000000002,10.47128,9.6918935,0.0,0.0,0.0
10.47128,12.30268,11.386980000000001,0.0,0.0,0.0
12.30268,14.45439,13.378535,0.0,0.0,0.0
14.45439,16.982429999999997,15.718409999999999,0.0,0.0,0.0
16.982429999999997,19.95262,18.467525,0.0,0.0,0.0
19.95262,23.44228,21.69745,0.0,0.0,0.0
23.44228,27.542279999999998,25.49228,0.0,0.0,0.0
27.542279999999998,32.359359999999995,29.950819999999997,0.0,0.0,0.0
32.359359999999995,38.01893,35.189144999999996,0.0,0.0,0.0
38.01893,44.66835,41.34363999999999,0.0,0.0,0.0
44.66835,52.48073,48.57454,0.0,0.0,0.0
52.48073,61.65948,57.070105,0.0,0.0,0.0
61.65948,72.44357,67.051525,0.0,0.0,0.0
72.44357,85.11378,78.77867499999999,0.0,0.0,0.0
85.11378,99.99996999999999,92.55687499999999,0.0,0.0,0.0
