e_bin_left,e_bin_right,bin_center,dfluxdEN,EdfluxdE,errdfluxdE
9.9999997e-06,1.1748975e-05,1.087448735e-05,0.0,0.0,0.0
1.1748975e-05,1.3803842e-05,1.27764085e-05,0.0,0.0,0.0
1.3803842e-05,1.62181e-05,1.5010971e-05,0.0,0.0,0.0
1.62181e-05,1.9054607e-05,1.7636353500000002e-05,0.0,0.0,0.0
1.9054607e-05,2.238721e-05,2.07209085e-05,0.0,0.0,0.0
2.238721e-05,2.630268e-05,2.4344945e-05,0.0,0.0,0.0
2.630268e-05,3.0902953000000004e-05,2.8602816500000002e-05,0.0,0.0,0.0
3.0902953000000004e-05,3.6307803e-05,3.3605378e-05,0.0,0.0,0.0
3.6307803e-05,4.265795e-05,3.94828765e-05,0.0,0.0,0.0
4.265795e-05,5.0118720999999996e-05,4.63883355e-05,0.0,0.0,0.0
5.0118720999999996e-05,5.8884361e-05,5.4501541e-05,1.5003286826153349e-05,8.177022520903567e-10,5.437846789432277e-06
5.8884361e-05,6.9183094e-05,6.40337275e-05,1.503999604925846e-05,9.630670086192926e-10,6.029114800257943e-06
6.9183094e-05,8.1283048e-05,7.5233071e-05,1.8914577652544842e-05,1.4230017634689193e-09,7.678406844290353e-06
8.1283048e-05,9.549924999999999e-05,8.8391149e-05,1.6504018708432298e-05,1.4588091767558267e-09,5.603089595484702e-06
9.549924999999999e-05,0.00011220184,0.000103850545,1.269692457122969e-05,1.3185825365460945e-09,5.098227865397286e-06
0.00011220184,0.00013182567,0.00012201375499999999,1.839256447611624e-05,2.24414585581055e-09,5.204814340504412e-06
0.00013182567,0.00015488165,0.00014335366,2.718670352729136e-05,3.897313453972126e-09,8.677843520371648e-06
0.00015488165,0.00018197006999999999,0.00016842586,1.9882524307680737e-05,3.3487312554920324e-09,6.433400319750841e-06
0.00018197006999999999,0.00021379618999999998,0.00019788312999999998,1.540625246011138e-05,3.04863745837704e-09,4.169092140731725e-06
0.00021379618999999998,0.00025118861,0.0002324924,6.058212020305788e-06,1.4084882523097412e-09,2.5276157006088095e-06
0.00025118861,0.0002951209,0.00027315475499999997,7.798416419212513e-06,2.1301745263779713e-09,2.3514331076358913e-06
0.0002951209,0.00034673681000000007,0.000320928855,7.337719012524145e-06,2.354885761001105e-09,2.8159355223685876e-06
0.00034673681000000007,0.00040738023,0.00037705852000000003,5.273016448522922e-06,1.9882357780157095e-09,1.7392733647482394e-06
0.00040738023,0.00047863004,0.000443005135,2.454758453505879e-06,1.0874706000877632e-09,1.5039512157650038e-06
0.00047863004,0.0005623412400000001,0.00052048564,6.657074517694201e-06,3.4649116908697577e-09,1.9987267102670243e-06
0.0005623412400000001,0.00066069339,0.000611517315,1.5916898481844412e-06,9.73345902274507e-10,6.125747307615525e-07
0.00066069339,0.00077624706,0.000718470225,1.2976068457745011e-06,9.32291882445146e-10,5.289973292271596e-07
0.00077624706,0.00091201073,0.000844128895,8.565545570247163e-07,7.230424517284883e-10,4.0902946975054434e-07
0.00091201073,0.0010715192,0.000991764965,1.5592366215285827e-06,1.546396253377013e-09,5.492846026351839e-07
0.0010715192,0.0012589253,0.00116522225,1.0785176434843608e-06,1.2567127552055447e-09,4.444697395363339e-07
0.0012589253,0.0014791082,0.00136901675,3.6481759653092414e-07,4.99441400345577e-10,2.4333092908998934e-07
0.0014791082,0.0017378007,0.00160845445,1.9612835219247498e-07,3.154635208551536e-10,1.4534018971733047e-07
0.0017378007,0.0020417378,0.00188976925,5.783166996042456e-07,1.0928851156735905e-09,3.5227086087331364e-07
0.0020417378,0.0023988327,0.0022202852499999997,8.67703729812597e-07,1.9265497926728938e-09,2.7072781544980637e-07
0.0023988327,0.0028183826,0.0026086076499999998,6.463716541697884e-07,1.6861300418104643e-09,2.3540403184705776e-07
0.0028183826,0.0033113109000000003,0.00306484675,2.9174665092630456e-07,8.94158774914869e-10,1.3017522589276532e-07
0.0033113109000000003,0.0038904509999999996,0.00360088095,2.3233869093768343e-07,8.366239661454419e-10,1.0596763235619717e-07
0.0038904509999999996,0.0045708814,0.0042306662,3.0324646700373564e-07,1.2829345782221196e-09,1.2349594102605003e-07
0.0045708814,0.0053703169999999995,0.0049705992,1.3005496015283372e-07,6.464510808917072e-10,6.482944538859214e-08
0.0053703169999999995,0.0063095726000000005,0.0058399448,4.911189884720483e-07,2.868107782908598e-09,1.5254234360979974e-07
0.0063095726000000005,0.0074131014,0.006861337,9.889056824260558e-08,6.785215148340146e-10,6.495981003249856e-08
0.0074131014,0.0087096347,0.00806136805,7.639791118716596e-07,6.1587168033095734e-09,2.172474685870719e-07
0.0087096347,0.010232928,0.00947128135,5.090660540959602e-08,4.821507824077159e-10,2.979654228381284e-08
0.010232928,0.012022642,0.011127785000000001,0.0,0.0,0.0
0.012022642,0.014125373,0.0130740075,0.0,0.0,0.0
0.014125373,0.016595867,0.01536062,0.0,0.0,0.0
0.016595867,0.019498443,0.018047155000000002,0.0,0.0,0.0
0.019498443,0.022908672999999997,0.021203557999999997,0.0,0.0,0.0
0.022908672999999997,0.026915342999999998,0.024912008,0.0,0.0,0.0
0.026915342999999998,0.031622771,0.029269057,0.0,0.0,0.0
0.031622771,0.037153516,0.034388143499999996,0.0,0.0,0.0
0.037153516,0.043651577000000004,0.0404025465,0.0,0.0,0.0
0.043651577000000004,0.051286127,0.047468852000000006,0.0,0.0,0.0
0.051286127,0.060255948,0.055771037499999995,0.0,0.0,0.0
0.060255948,0.070794567,0.0655252575,0.0,0.0,0.0
0.070794567,0.08317636,0.0769854635,0.0,0.0,0.0
0.08317636,0.0977237,0.09045003,0.0,0.0,0.0
0.0977237,0.1148153,0.10626949999999999,0.0,0.0,0.0
0.1148153,0.1348963,0.12485579999999999,0.0,0.0,0.0
0.1348963,0.15848929999999997,0.14669279999999998,0.0,0.0,0.0
0.15848929999999997,0.18620870000000003,0.172349,0.0,0.0,0.0
0.18620870000000003,0.2187761,0.20249240000000002,0.0,0.0,0.0
0.2187761,0.2570395,0.2379078,0.0,0.0,0.0
0.2570395,0.30199509999999996,0.27951729999999997,0.0,0.0,0.0
0.30199509999999996,0.3548133,0.3284042,0.0,0.0,0.0
0.3548133,0.4168693,0.3858413,0.0,0.0,0.0
0.4168693,0.4897787,0.453324,0.0,0.0,0.0
0.4897787,0.5754398000000001,0.53260925,0.0,0.0,0.0
0.5754398000000001,0.6760828000000001,0.6257613000000001,0.0,0.0,0.0
0.6760828000000001,0.7943279999999999,0.7352054,0.0,0.0,0.0
0.7943279999999999,0.9332541,0.8637910499999999,0.0,0.0,0.0
0.9332541,1.096478,1.01486605,0.0,0.0,0.0
1.096478,1.288249,1.1923635,0.0,0.0,0.0
1.288249,1.5135610000000002,1.400905,0.0,0.0,0.0
1.5135610000000002,1.7782790000000002,1.6459200000000003,0.0,0.0,0.0
1.7782790000000002,2.089296,1.9337875000000002,0.0,0.0,0.0
2.089296,2.454708,2.272002,0.0,0.0,0.0
2.454708,2.8840310000000002,2.6693695,0.0,0.0,0.0
2.8840310000000002,3.3884410000000003,3.1362360000000002,0.0,0.0,0.0
3.3884410000000003,3.981071,3.684756,0.0,0.0,0.0
3.981071,4.67735,4.3292105,0.0,0.0,0.0
4.67735,5.495407,5.0863785,0.0,0.0,0.0
5.495407,6.4565410000000005,5.975974000000001,0.0,0.0,0.0
6.4565410000000005,7.585774000000001,7.021157500000001,0.0,0.0,0.0
7.585774000000001,8.912507000000002,8.249140500000001,0.0,0.0,0.0
8.912507000000002,10.47128,9.6918935,0.0,0.0,0.0
10.47128,12.30268,11.386980000000001,0.0,0.0,0.0
12.30268,14.45439,13.378535,0.0,0.0,0.0
14.45439,16.982429999999997,15.718409999999999,0.0,0.0,0.0
16.982429999999997,19.95262,18.467525,0.0,0.0,0.0
19.95262,23.44228,21.69745,0.0,0.0,0.0
23.44228,27.542279999999998,25.49228,0.0,0.0,0.0
27.542279999999998,32.359359999999995,29.950819999999997,0.0,0.0,0.0
32.359359999999995,38.01893,35.189144999999996,0.0,0.0,0.0
38.01893,44.66835,41.34363999999999,0.0,0.0,0.0
44.66835,52.48073,48.57454,0.0,0.0,0.0
52.48073,61.65948,57.070105,0.0,0.0,0.0
61.65948,72.44357,67.051525,0.0,0.0,0.0
72.44357,85.11378,78.77867499999999,0.0,0.0,0.0
85.11378,99.99996999999999,92.55687499999999,0.0,0.0,0.0
