 # Detector n:  1  ME0a_Nlow 
 # N. of energy intervals 260
  1.0000100E-14  2.0000000E-13   0.000000       0.000000    
  2.0000000E-13  2.9297300E-13   0.000000       0.000000    
  2.9297300E-13  4.2916701E-13  6.7591373E+08   77.38565    
  4.2916701E-13  6.2867300E-13   0.000000       0.000000    
  6.2867300E-13  9.2092198E-13  6.1407688E+09   93.02940    
  9.2092198E-13  1.3490300E-12  1.4605476E+09   70.55367    
  1.3490300E-12  1.9761499E-12  1.1681960E+09   67.34674    
  1.9761499E-12  2.8947901E-12  3.0505782E+09   59.75549    
  2.8947901E-12  4.2404799E-12  8.2866074E+09   23.93130    
  4.2404799E-12  6.2117499E-12  7.9217290E+09   20.25896    
  6.2117499E-12  9.0993801E-12  1.2152023E+10   15.89686    
  9.0993801E-12  1.3329400E-11  1.7301647E+10   13.87266    
  1.3329400E-11  1.9525799E-11  2.0092570E+10   10.07279    
  1.9525799E-11  2.8602700E-11  2.7990673E+10   6.753990    
  2.8602700E-11  4.1899099E-11  3.7308162E+10   5.115450    
  4.1899099E-11  6.1376598E-11  4.4736795E+10   3.802093    
  6.1376598E-11  8.9908601E-11  4.8374890E+10   3.420531    
  8.9908601E-11  1.3170399E-10  3.9271887E+10   3.000266    
  1.3170399E-10  1.9292901E-10  3.3986357E+10   2.991966    
  1.9292901E-10  2.8261499E-10  2.9183916E+10   2.586165    
  2.8261499E-10  4.1399401E-10  2.4215095E+10   2.457462    
  4.1399401E-10  5.3157900E-10  1.9155663E+10   2.958216    
  5.3157900E-10  6.2506200E-10  1.6832636E+10   3.077004    
  6.2506200E-10  6.8256001E-10  1.5694138E+10   3.727396    
  6.8256001E-10  8.3368101E-10  1.3819943E+10   2.814242    
  8.3368101E-10  8.7642499E-10  1.3501339E+10   4.648119    
  8.7642499E-10  1.1253500E-09  1.1450301E+10   2.671016    
  1.1253500E-09  1.4449800E-09  9.1772887E+09   2.436559    
  1.4449800E-09  1.8553900E-09  7.8370862E+09   2.241521    
  1.8553900E-09  2.3823701E-09  6.5163786E+09   2.203838    
  2.3823701E-09  3.0590199E-09  5.3997051E+09   2.149525    
  3.0590199E-09  3.9278598E-09  4.1186913E+09   2.358349    
  3.9278598E-09  5.0434799E-09  3.1760819E+09   2.285830    
  5.0434799E-09  6.4759500E-09  2.0857062E+09   2.568902    
  6.4759500E-09  8.3152898E-09  2.2333939E+09   2.164363    
  8.3152898E-09  1.0677000E-08  1.8501327E+09   2.156743    
  1.0677000E-08  1.3709600E-08  1.3932937E+09   2.163101    
  1.3709600E-08  1.7603501E-08  9.2367283E+08   2.158789    
  1.7603501E-08  2.2603301E-08  7.5999622E+08   2.114570    
  2.2603301E-08  2.9023200E-08  7.9131475E+08   1.927507    
  2.9023200E-08  3.7266499E-08  5.8311226E+08   1.943676    
  3.7266499E-08  4.7851199E-08  4.8357939E+08   1.938288    
  4.7851199E-08  6.1442101E-08  3.7760266E+08   1.936097    
  6.1442101E-08  7.8893301E-08  3.1954557E+08   1.977755    
  7.8893301E-08  1.0130100E-07  2.4386573E+08   1.956770    
  1.0130100E-07  1.3007300E-07  1.8763952E+08   1.869332    
  1.3007300E-07  1.6701701E-07  1.3188118E+08   1.973471    
  1.6701701E-07  2.1445400E-07  1.1955936E+08   1.835381    
  2.1445400E-07  2.7536399E-07  9.3416472E+07   1.819754    
  2.7536399E-07  3.5357499E-07  7.4934152E+07   1.939834    
  3.5357499E-07  4.5399901E-07  5.0336896E+07   2.017132    
  4.5399901E-07  5.8294700E-07  4.4877748E+07   1.864360    
  5.8294700E-07  7.4851800E-07  3.6179864E+07   1.842400    
  7.4851800E-07  9.6111603E-07  2.8684782E+07   1.860738    
  9.6111603E-07  1.2341000E-06  2.1569544E+07   1.789474    
  1.2341000E-06  1.3638900E-06  2.0585870E+07   2.226445    
  1.3638900E-06  1.5073300E-06  1.9018222E+07   2.436544    
  1.5073300E-06  1.5846100E-06  1.7466830E+07   2.866475    
  1.5846100E-06  1.6658601E-06  1.5691371E+07   2.705012    
  1.6658601E-06  1.8410600E-06  1.5765945E+07   2.208713    
  1.8410600E-06  2.0346799E-06  1.3840244E+07   2.247916    
  2.0346799E-06  2.2486699E-06  1.1606757E+07   2.331007    
  2.2486699E-06  2.4851699E-06   9601167.       2.547517    
  2.4851699E-06  2.6125899E-06   8900426.       2.949847    
  2.6125899E-06  2.7465401E-06   9503987.       3.057401    
  2.7465401E-06  2.8634900E-06   9159845.       3.363516    
  2.8634900E-06  3.0353899E-06   9116215.       2.937461    
  3.0353899E-06  3.3546301E-06   8124266.       2.300526    
  3.3546301E-06  3.7074401E-06   7491512.       2.428148    
  3.7074401E-06  4.0973500E-06   6475902.       2.428475    
  4.0973500E-06  4.3074201E-06   5999930.       3.294160    
  4.3074201E-06  4.5282700E-06   5497996.       3.207767    
  4.5282700E-06  5.0045101E-06   5517670.       2.376636    
  5.0045101E-06  5.5308401E-06   6008415.       2.235637    
  5.5308401E-06  6.2672698E-06   2422313.       2.504564    
  6.2672698E-06  7.1017398E-06   3734624.       2.291764    
  7.1017398E-06  8.0473301E-06   3002735.       2.354506    
  8.0473301E-06  9.1188203E-06   2482846.       2.163720    
  9.1188203E-06  1.0333000E-05   2654145.       2.193138    
  1.0333000E-05  1.1708800E-05   2502034.       2.191822    
  1.1708800E-05  1.3267800E-05   2057804.       2.236672    
  1.3267800E-05  1.5034400E-05   1810304.       2.207562    
  1.5034400E-05  1.7036200E-05   1446977.       2.185490    
  1.7036200E-05  1.9304500E-05   1544036.       2.194052    
  1.9304500E-05  2.1334799E-05   1572734.       2.220376    
  2.1334799E-05  2.1874899E-05   1672213.       3.472641    
  2.1874899E-05  2.3578599E-05   1771944.       2.395460    
  2.3578599E-05  2.4175501E-05   1811614.       3.153715    
  2.4175501E-05  2.4787500E-05   2114668.       3.095100    
  2.4787500E-05  2.6058400E-05   2384930.       2.075039    
  2.6058400E-05  2.8087899E-05   1845885.       2.042027    
  2.8087899E-05  3.1827800E-05   1636654.       1.759188    
  3.1827800E-05  3.4306700E-05   608366.2       2.473428    
  3.4306700E-05  3.5175199E-05   264148.4       5.015450    
  3.5175199E-05  3.6065601E-05   241114.3       4.664784    
  3.6065601E-05  4.0867701E-05   372978.7       2.158887    
  4.0867701E-05  4.6309200E-05   625428.0       1.940127    
  4.6309200E-05  5.2475199E-05   758530.1       1.849656    
  5.2475199E-05  5.6562199E-05   683484.1       2.043100    
  5.6562199E-05  5.9462200E-05   781330.6       2.283391    
  5.9462200E-05  6.2510902E-05   866292.6       2.030911    
  6.2510902E-05  6.7379500E-05   837051.8       1.798013    
  6.7379500E-05  7.6350902E-05   1014066.       1.451453    
  7.6350902E-05  8.6516899E-05   483299.8       1.517765    
  8.6516899E-05  9.8036500E-05   217406.9       1.668910    
  9.8036500E-05  1.1109000E-04   407220.6       1.634844    
  1.1109000E-04  1.1678600E-04   560165.3       1.797726    
  1.1678600E-04  1.2277300E-04   308127.2       2.148755    
  1.2277300E-04  1.2906799E-04   709796.4       1.764665    
  1.2906799E-04  1.3568600E-04   692198.1       1.665697    
  1.3568600E-04  1.4264201E-04   321336.3       1.930454    
  1.4264201E-04  1.4995600E-04   205118.9       2.327714    
  1.4995600E-04  1.5764400E-04   217169.9       2.188396    
  1.5764400E-04  1.6163501E-04   174702.2       3.398216    
  1.6163501E-04  1.6572700E-04   226208.0       2.448944    
  1.6572700E-04  1.6992200E-04   275940.0       2.555104    
  1.6992200E-04  1.7422400E-04   262146.8       2.412123    
  1.7422400E-04  1.8315599E-04   339334.9       1.807326    
  1.8315599E-04  1.9254700E-04   320215.9       1.783921    
  1.9254700E-04  2.0241900E-04   279911.6       1.890683    
  2.0241900E-04  2.1279699E-04   187452.7       2.178656    
  2.1279699E-04  2.2370800E-04   218653.4       1.850258    
  2.2370800E-04  2.3517800E-04   242879.0       2.056652    
  2.3517800E-04  2.4723500E-04   286424.3       1.913666    
  2.4723500E-04  2.5991100E-04   312478.4       1.802073    
  2.5991100E-04  2.7323700E-04   419352.1       1.587406    
  2.7323700E-04  2.8015400E-04   288934.4       2.063548    
  2.8015400E-04  2.8724599E-04   182512.7       2.204359    
  2.8724599E-04  2.9451799E-04   198265.6       2.459201    
  2.9451799E-04  3.0197401E-04   247333.6       2.121868    
  3.0197401E-04  3.0961799E-04   252692.1       2.156161    
  3.0961799E-04  3.1745600E-04   216299.5       2.204540    
  3.1745600E-04  3.3373301E-04   213975.6       1.731174    
  3.3373301E-04  3.5084400E-04   261986.4       1.681625    
  3.5084400E-04  3.6883200E-04   204548.3       1.784567    
  3.6883200E-04  3.8774201E-04   198003.9       1.811763    
  3.8774201E-04  4.0762199E-04   197993.9       1.780722    
  4.0762199E-04  4.2852099E-04   146153.0       1.782486    
  4.2852099E-04  4.5049199E-04   145740.1       1.828990    
  4.5049199E-04  4.7358900E-04   165146.8       1.758993    
  4.7358900E-04  4.9787102E-04   162876.1       1.584263    
  4.9787102E-04  5.1047403E-04   176405.9       2.296475    
  5.1047403E-04  5.2339700E-04   174733.5       2.189136    
  5.2339700E-04  5.3664698E-04   132868.8       2.133446    
  5.3664698E-04  5.5023201E-04   153239.8       2.052143    
  5.5023201E-04  5.7844300E-04   143934.8       1.649139    
  5.7844300E-04  6.0810102E-04   157416.5       1.709220    
  6.0810102E-04  6.3927902E-04   143935.5       1.677044    
  6.3927902E-04  6.7205500E-04   114488.6       1.701686    
  6.7205500E-04  7.0651202E-04   129915.0       1.660033    
  7.0651202E-04  7.4273598E-04   116931.0       1.733739    
  7.4273598E-04  7.8081700E-04   101108.1       1.895083    
  7.8081700E-04  8.2085002E-04   73285.73       1.890280    
  8.2085002E-04  8.6293602E-04   77557.38       1.873304    
  8.6293602E-04  9.0717903E-04   74623.20       1.957490    
  9.0717903E-04  9.5369201E-04   82254.62       1.919500    
  9.5369201E-04  9.6163998E-04   78041.51       3.412143    
  9.6163998E-04  9.7783399E-04   71992.55       3.173972    
  9.7783399E-04  1.0025901E-03   73726.35       2.333662    
  1.0025901E-03  1.0539900E-03   68479.60       1.836463    
  1.0539900E-03  1.1080300E-03   69315.84       1.800857    
  1.1080300E-03  1.1648400E-03   57011.64       1.898322    
  1.1648400E-03  1.1943300E-03   50381.60       2.245306    
  1.1943300E-03  1.2245600E-03   55625.82       2.214806    
  1.2245600E-03  1.2873500E-03   47175.07       2.110028    
  1.2873500E-03  1.3533500E-03   46598.68       2.079977    
  1.3533500E-03  1.4227401E-03   43593.14       2.000480    
  1.4227401E-03  1.4956900E-03   37591.63       2.061262    
  1.4956900E-03  1.5335500E-03   38099.32       2.591043    
  1.5335500E-03  1.5723699E-03   33820.81       2.949665    
  1.5723699E-03  1.6121800E-03   34731.38       2.624384    
  1.6121800E-03  1.6529900E-03   33226.49       2.606310    
  1.6529900E-03  1.7377400E-03   30991.84       2.062520    
  1.7377400E-03  1.8268300E-03   28850.06       2.097199    
  1.8268300E-03  1.8730800E-03   27297.93       2.779592    
  1.8730800E-03  1.9205000E-03   25180.80       3.107750    
  1.9205000E-03  1.9691200E-03   23412.09       2.810117    
  1.9691200E-03  2.0189700E-03   24456.08       2.858671    
  2.0189700E-03  2.1224800E-03   21071.98       2.310617    
  2.1224800E-03  2.2313001E-03   20702.45       2.427168    
  2.2313001E-03  2.2688799E-03   19566.41       3.738146    
  2.2688799E-03  2.3068599E-03   19230.78       3.434058    
  2.3068599E-03  2.3457000E-03   19731.58       3.639344    
  2.3457000E-03  2.3652499E-03   20485.71       4.444585    
  2.3652499E-03  2.3852000E-03   21022.53       4.796395    
  2.3852000E-03  2.4251300E-03   19883.85       3.239580    
  2.4251300E-03  2.4659701E-03   19599.36       4.195019    
  2.4659701E-03  2.5923999E-03   14981.30       2.433447    
  2.5923999E-03  2.7253199E-03   13757.90       2.569701    
  2.7253199E-03  2.8650500E-03   12307.00       2.711736    
  2.8650500E-03  3.0119400E-03   10624.70       2.743894    
  3.0119400E-03  3.0881900E-03   10615.94       3.670082    
  3.0881900E-03  3.1663701E-03   9297.860       3.583602    
  3.1663701E-03  3.2465300E-03   8648.821       3.634299    
  3.2465300E-03  3.3287101E-03   8253.825       4.033732    
  3.3287101E-03  3.4993801E-03   7727.032       2.793697    
  3.4993801E-03  3.6787901E-03   6983.087       3.177811    
  3.6787901E-03  3.8674099E-03   6102.778       3.422221    
  3.8674099E-03  4.0656999E-03   5977.879       3.207587    
  4.0656999E-03  4.2741499E-03   5104.623       3.380451    
  4.2741499E-03  4.4932901E-03   4906.526       3.324208    
  4.4932901E-03  4.6070400E-03   4641.645       4.700477    
  4.6070400E-03  4.7236700E-03   4403.252       4.458714    
  4.7236700E-03  4.8432499E-03   4032.378       4.762763    
  4.8432499E-03  4.9658502E-03   3884.006       4.790418    
  4.9658502E-03  5.2204598E-03   3490.675       3.625247    
  5.2204598E-03  5.4881200E-03   3218.136       3.596859    
  5.4881200E-03  5.7695000E-03   3193.534       3.645009    
  5.7695000E-03  5.9155500E-03   2916.731       4.683014    
  5.9155500E-03  6.0653100E-03   2424.653       5.291827    
  6.0653100E-03  6.2188501E-03   2453.283       5.360653    
  6.2188501E-03  6.3762800E-03   2365.464       5.275612    
  6.3762800E-03  6.5377001E-03   1977.651       5.558897    
  6.5377001E-03  6.5923799E-03   2539.444       9.405159    
  6.5923799E-03  6.6475999E-03   2278.974       12.75341    
  6.6475999E-03  6.7031998E-03   2001.221       9.861890    
  6.7031998E-03  6.8728901E-03   2251.734       5.624909    
  6.8728901E-03  7.0468802E-03   2041.625       5.942094    
  7.0468802E-03  7.2252699E-03   2169.662       5.257201    
  7.2252699E-03  7.4081798E-03   1829.868       6.049340    
  7.4081798E-03  7.5957198E-03   1795.630       6.146018    
  7.5957198E-03  7.7880099E-03   1661.735       6.061469    
  7.7880099E-03  7.9851598E-03   1626.083       5.617847    
  7.9851598E-03  8.1873098E-03   1561.543       5.072379    
  8.1873098E-03  8.3945701E-03   1528.188       6.373092    
  8.3945701E-03  8.6070802E-03   1416.745       6.162349    
  8.6070802E-03  8.8249696E-03   1378.453       6.050114    
  8.8249696E-03  9.0483697E-03   1236.164       6.275979    
  9.0483697E-03  9.2774397E-03   1245.683       5.639998    
  9.2774397E-03  9.5122904E-03   1328.934       5.717601    
  9.5122904E-03  9.7530996E-03   1253.636       6.538403    
  9.7530996E-03  9.9999998E-03   1076.357       5.534540    
  9.9999998E-03  1.0253200E-02   1027.657       6.662958    
  1.0253200E-02  1.0512700E-02   1117.304       5.709501    
  1.0512700E-02  1.0778800E-02   989.4294       5.746003    
  1.0778800E-02  1.1051700E-02   1028.636       6.137493    
  1.1051700E-02  1.1331500E-02   983.8967       6.098361    
  1.1331500E-02  1.1618300E-02   845.3403       7.176528    
  1.1618300E-02  1.1912500E-02   857.6673       5.857134    
  1.1912500E-02  1.2214000E-02   868.4630       5.825551    
  1.2214000E-02  1.2523200E-02   880.2118       5.813577    
  1.2523200E-02  1.2840200E-02   864.2275       6.548482    
  1.2840200E-02  1.3165300E-02   869.3423       6.144992    
  1.3165300E-02  1.3498600E-02   829.1661       6.420440    
  1.3498600E-02  1.3840300E-02   741.2380       6.291991    
  1.3840300E-02  1.4190700E-02   757.0308       5.770993    
  1.4190700E-02  1.4549900E-02   630.8202       6.063849    
  1.4549900E-02  1.4918300E-02   675.7056       6.914490    
  1.4918300E-02  1.5295900E-02   734.9688       6.560535    
  1.5295900E-02  1.5683100E-02   609.5911       6.588851    
  1.5683100E-02  1.6080100E-02   610.7781       7.141985    
  1.6080100E-02  1.6487200E-02   620.9679       6.877256    
  1.6487200E-02  1.6904600E-02   581.2399       6.958151    
  1.6904600E-02  1.7332500E-02   596.2829       7.583539    
  1.7332500E-02  1.7771300E-02   547.8192       6.504473    
  1.7771300E-02  1.8221200E-02   507.4597       6.619098    
  1.8221200E-02  1.8682500E-02   540.2377       6.520815    
  1.8682500E-02  1.9155400E-02   472.1669       6.094923    
  1.9155400E-02  1.9640300E-02   440.0499       8.182095    
  1.9640300E-02  2.0000000E-02   462.7733       7.789634    


 # Detector n:  2  ME0a_Nhi  
 # N. of energy intervals 100
  2.0000000E-02  2.1778084E-02   434.6948       3.535643    
  2.1778084E-02  2.3714250E-02   388.5825       3.436924    
  2.3714250E-02  2.5822546E-02   404.0768       3.965137    
  2.5822546E-02  2.8118281E-02   357.3386       3.784999    
  2.8118281E-02  3.0618116E-02   330.2811       3.825042    
  3.0618116E-02  3.3340197E-02   329.9102       3.587639    
  3.3340197E-02  3.6304284E-02   314.5942       3.781476    
  3.6304284E-02  3.9531890E-02   284.1095       3.371246    
  3.9531890E-02  4.3046441E-02   281.8044       3.681340    
  4.3046441E-02  4.6873454E-02   250.4487       3.544223    
  4.6873454E-02  5.1040705E-02   236.5386       3.606648    
  5.1040705E-02  5.5578440E-02   227.9225       3.201291    
  5.5578440E-02  6.0519602E-02   218.4692       3.384760    
  6.0519602E-02  6.5900050E-02   204.8979       3.234013    
  6.5900050E-02  7.1758844E-02   180.4668       3.330393    
  7.1758844E-02  7.8138515E-02   158.1672       3.414358    
  7.8138515E-02  8.5085362E-02   151.4184       3.290912    
  8.5085362E-02  9.2649810E-02   140.9224       3.319977    
  9.2649810E-02  0.1008868       118.6777       3.479299    
  0.1008868      0.1098560       110.0475       3.335959    
  0.1098560      0.1196227       91.21535       3.468600    
  0.1196227      0.1302577       85.41424       3.447720    
  0.1302577      0.1418381       76.87868       3.830647    
  0.1418381      0.1544482       66.17542       3.371369    
  0.1544482      0.1681793       60.19802       3.449859    
  0.1681793      0.1831311       44.55477       3.585449    
  0.1831311      0.1994122       38.58455       3.890561    
  0.1994122      0.2171408       34.75177       3.895523    
  0.2171408      0.2364456       26.62725       4.416901    
  0.2364456      0.2574666       22.18861       4.497028    
  0.2574666      0.2803565       16.12130       5.143371    
  0.2803565      0.3052814       14.72872       4.345985    
  0.3052814      0.3324222       11.31073       4.960540    
  0.3324222      0.3619759       8.815063       5.569863    
  0.3619759      0.3941571       6.964675       5.516174    
  0.3941571      0.4291994       5.408378       6.453722    
  0.4291994      0.4673570       4.375213       7.005569    
  0.4673570      0.5089071       3.445646       7.117923    
  0.5089071      0.5541511       2.907527       8.177454    
  0.5541511      0.6034175       2.596974       7.607112    
  0.6034175      0.6570638       1.714445       9.192453    
  0.6570638      0.7154796       1.361292       9.369119    
  0.7154796      0.7790889       1.098966       9.698889    
  0.7790889      0.8483531      0.7401460       10.03617    
  0.8483531      0.9237754      0.6902568       11.41436    
  0.9237754       1.005903      0.4544475       14.43140    
   1.005903       1.095332      0.3190843       14.74265    
   1.095332       1.192712      0.2660768       15.40637    
   1.192712       1.298749      0.2437771       15.59463    
   1.298749       1.414213      0.1688453       17.46460    
   1.414213       1.539943      0.1143941       18.17331    
   1.539943       1.676850      0.1342743       17.84641    
   1.676850       1.825929      7.2732240E-02   25.79871    
   1.825929       1.988262      4.8957538E-02   24.18954    
   1.988262       2.165027      4.2719301E-02   27.56134    
   2.165027       2.357507      2.5794430E-02   28.12157    
   2.357507       2.567100      2.3548154E-02   36.93938    
   2.567100       2.795326      1.3480424E-02   40.84733    
   2.795326       3.043842      5.0021010E-03   56.22887    
   3.043842       3.314453      4.6468321E-03   54.30468    
   3.314453       3.609122      5.6877276E-03   57.72101    
   3.609122       3.929988      2.1488105E-03   51.59471    
   3.929988       4.279381      3.8381601E-03   49.41407    
   4.279381       4.659836      1.2904645E-03   99.00000    
   4.659836       5.074115      1.1984985E-03   77.38565    
   5.074115       5.525226      5.3292904E-03   56.62165    
   5.525226       6.016442       0.000000       0.000000    
   6.016442       6.551329       0.000000       0.000000    
   6.551329       7.133770       0.000000       0.000000    
   7.133770       7.767992       0.000000       0.000000    
   7.767992       8.458600       0.000000       0.000000    
   8.458600       9.210606       0.000000       0.000000    
   9.210606       10.02947      7.0688571E-04   91.22530    
   10.02947       10.92113       0.000000       0.000000    
   10.92113       11.89207      6.4371561E-04   99.00000    
   11.89207       12.94932       0.000000       0.000000    
   12.94932       14.10057       0.000000       0.000000    
   14.10057       15.35417       0.000000       0.000000    
   15.35417       16.71922       0.000000       0.000000    
   16.71922       18.20563       0.000000       0.000000    
   18.20563       19.82419       0.000000       0.000000    
   19.82419       21.58665       0.000000       0.000000    
   21.58665       23.50579       0.000000       0.000000    
   23.50579       25.59556       0.000000       0.000000    
   25.59556       27.87111       0.000000       0.000000    
   27.87111       30.34897       0.000000       0.000000    
   30.34897       33.04712       0.000000       0.000000    
   33.04712       35.98515       0.000000       0.000000    
   35.98515       39.18439       0.000000       0.000000    
   39.18439       42.66805       0.000000       0.000000    
   42.66805       46.46142       0.000000       0.000000    
   46.46142       50.59204       0.000000       0.000000    
   50.59204       55.08988       0.000000       0.000000    
   55.08988       59.98761       0.000000       0.000000    
   59.98761       65.32076       0.000000       0.000000    
   65.32076       71.12806       0.000000       0.000000    
   71.12806       77.45164       0.000000       0.000000    
   77.45164       84.33743       0.000000       0.000000    
   84.33743       91.83538       0.000000       0.000000    
   91.83538       99.99994       0.000000       0.000000    


 # Detector n:  3  ME0a_ph   
 # N. of energy intervals 100
  9.9999997E-06  1.1748975E-05   1970.276       37.10973    
  1.1748975E-05  1.3803842E-05   2103.420       25.70295    
  1.3803842E-05  1.6218100E-05   3565.324       13.87047    
  1.6218100E-05  1.9054607E-05   4689.362       12.20933    
  1.9054607E-05  2.2387210E-05   6582.545       10.19387    
  2.2387210E-05  2.6302680E-05   9293.234       10.95789    
  2.6302680E-05  3.0902953E-05   13472.30       6.968736    
  3.0902953E-05  3.6307803E-05   21653.20       5.455507    
  3.6307803E-05  4.2657950E-05   34932.20       5.102564    
  4.2657950E-05  5.0118721E-05   76344.28       3.358322    
  5.0118721E-05  5.8884361E-05   163728.4       2.012800    
  5.8884361E-05  6.9183094E-05   297994.1       1.701010    
  6.9183094E-05  8.1283048E-05   444327.5       1.540814    
  8.1283048E-05  9.5499250E-05   548504.3       1.321029    
  9.5499250E-05  1.1220184E-04   593343.8       1.282937    
  1.1220184E-04  1.3182567E-04   590959.1       1.210116    
  1.3182567E-04  1.5488165E-04   540499.1       1.223969    
  1.5488165E-04  1.8197007E-04   512277.9       1.199945    
  1.8197007E-04  2.1379619E-04   460649.2       1.193437    
  2.1379619E-04  2.5118861E-04   385375.4       1.221251    
  2.5118861E-04  2.9512090E-04   310097.8       1.259364    
  2.9512090E-04  3.4673681E-04   284461.4       1.193963    
  3.4673681E-04  4.0738023E-04   263062.9       1.233833    
  4.0738023E-04  4.7863004E-04   277099.3       1.170265    
  4.7863004E-04  5.6234124E-04   435407.7       1.171462    
  5.6234124E-04  6.6069339E-04   131136.7       1.283602    
  6.6069339E-04  7.7624706E-04   110423.7       1.311811    
  7.7624706E-04  9.1201073E-04   109284.1       1.238251    
  9.1201073E-04  1.0715192E-03   88352.36       1.242695    
  1.0715192E-03  1.2589253E-03   68849.91       1.355979    
  1.2589253E-03  1.4791082E-03   57469.13       1.321319    
  1.4791082E-03  1.7378007E-03   40875.71       1.324530    
  1.7378007E-03  2.0417378E-03   36011.44       1.309643    
  2.0417378E-03  2.3988327E-03   29608.89       1.409624    
  2.3988327E-03  2.8183826E-03   22325.83       1.508869    
  2.8183826E-03  3.3113109E-03   17464.56       1.451611    
  3.3113109E-03  3.8904510E-03   12618.53       1.644319    
  3.8904510E-03  4.5708814E-03   9694.812       1.578265    
  4.5708814E-03  5.3703170E-03   6920.330       1.600490    
  5.3703170E-03  6.3095726E-03   5215.147       1.706875    
  6.3095726E-03  7.4131014E-03   3865.671       1.848937    
  7.4131014E-03  8.7096347E-03   3681.376       1.748234    
  8.7096347E-03  1.0232928E-02   1572.499       2.284188    
  1.0232928E-02  1.2022642E-02   798.8834       2.907003    
  1.2022642E-02  1.4125373E-02   550.2527       3.525297    
  1.4125373E-02  1.6595867E-02   369.8761       3.565596    
  1.6595867E-02  1.9498443E-02   282.3363       4.139273    
  1.9498443E-02  2.2908673E-02   175.5269       4.554254    
  2.2908673E-02  2.6915343E-02   128.0807       4.891729    
  2.6915343E-02  3.1622771E-02   93.05002       5.184744    
  3.1622771E-02  3.7153516E-02   65.97235       5.180576    
  3.7153516E-02  4.3651577E-02   46.31326       6.087869    
  4.3651577E-02  5.1286127E-02   33.11394       5.687456    
  5.1286127E-02  6.0255948E-02   20.77820       6.589144    
  6.0255948E-02  7.0794567E-02   17.64673       7.370755    
  7.0794567E-02  8.3176360E-02   11.93204       7.816386    
  8.3176360E-02  9.7723700E-02   7.083237       8.651509    
  9.7723700E-02  0.1148153       5.443934       9.096564    
  0.1148153      0.1348963       4.596933       11.97385    
  0.1348963      0.1584893       3.706113       10.24966    
  0.1584893      0.1862087       2.124196       12.24389    
  0.1862087      0.2187761       1.774901       11.08057    
  0.2187761      0.2570395       1.154879       13.18681    
  0.2570395      0.3019951      0.6571585       15.47154    
  0.3019951      0.3548133      0.4624359       17.82306    
  0.3548133      0.4168693      0.2736772       21.32685    
  0.4168693      0.4897787      0.2178210       20.52538    
  0.4897787      0.5754398      0.1868926       22.31535    
  0.5754398      0.6760828      5.1225740E-02   27.44809    
  0.6760828      0.7943280      3.6219329E-02   47.16301    
  0.7943280      0.9332541      5.8967150E-03   81.85889    
  0.9332541       1.096478      3.0832691E-03   64.76878    
   1.096478       1.288249      6.6378160E-04   77.38565    
   1.288249       1.513561      1.7595773E-03   99.00000    
   1.513561       1.778279       0.000000       0.000000    
   1.778279       2.089296      9.6461474E-04   99.00000    
   2.089296       2.454708       0.000000       0.000000    
   2.454708       2.884031       0.000000       0.000000    
   2.884031       3.388441       0.000000       0.000000    
   3.388441       3.981071       0.000000       0.000000    
   3.981071       4.677350       0.000000       0.000000    
   4.677350       5.495407       0.000000       0.000000    
   5.495407       6.456541       0.000000       0.000000    
   6.456541       7.585774       0.000000       0.000000    
   7.585774       8.912507       0.000000       0.000000    
   8.912507       10.47128       0.000000       0.000000    
   10.47128       12.30268       0.000000       0.000000    
   12.30268       14.45439       0.000000       0.000000    
   14.45439       16.98243       0.000000       0.000000    
   16.98243       19.95262       0.000000       0.000000    
   19.95262       23.44228       0.000000       0.000000    
   23.44228       27.54228       0.000000       0.000000    
   27.54228       32.35936       0.000000       0.000000    
   32.35936       38.01893       0.000000       0.000000    
   38.01893       44.66835       0.000000       0.000000    
   44.66835       52.48073       0.000000       0.000000    
   52.48073       61.65948       0.000000       0.000000    
   61.65948       72.44357       0.000000       0.000000    
   72.44357       85.11378       0.000000       0.000000    
   85.11378       99.99997       0.000000       0.000000    


 # Detector n:  4  ME0a_ep   
 # N. of energy intervals 100
  9.9999997E-06  1.1748975E-05   0.000000       0.000000    
  1.1748975E-05  1.3803842E-05   0.000000       0.000000    
  1.3803842E-05  1.6218100E-05   0.000000       0.000000    
  1.6218100E-05  1.9054607E-05   0.000000       0.000000    
  1.9054607E-05  2.2387210E-05   0.000000       0.000000    
  2.2387210E-05  2.6302680E-05   51.39832       40.53260    
  2.6302680E-05  3.0902953E-05   1412.403       6.524245    
  3.0902953E-05  3.6307803E-05   1620.262       6.169217    
  3.6307803E-05  4.2657950E-05   1528.841       6.610512    
  4.2657950E-05  5.0118721E-05   1607.495       7.395092    
  5.0118721E-05  5.8884361E-05   1667.064       7.046393    
  5.8884361E-05  6.9183094E-05   1693.132       7.252794    
  6.9183094E-05  8.1283048E-05   2377.514       7.002230    
  8.1283048E-05  9.5499250E-05   3954.196       5.030832    
  9.5499250E-05  1.1220184E-04   5568.143       4.179216    
  1.1220184E-04  1.3182567E-04   5331.007       4.014893    
  1.3182567E-04  1.5488165E-04   5219.062       3.977813    
  1.5488165E-04  1.8197007E-04   4935.959       3.939492    
  1.8197007E-04  2.1379619E-04   4823.736       3.828358    
  2.1379619E-04  2.5118861E-04   4109.004       4.122783    
  2.5118861E-04  2.9512090E-04   3529.499       3.930285    
  2.9512090E-04  3.4673681E-04   3665.228       3.761325    
  3.4673681E-04  4.0738023E-04   3261.853       4.096597    
  4.0738023E-04  4.7863004E-04   3072.925       3.866225    
  4.7863004E-04  5.6234124E-04   2786.532       4.091432    
  5.6234124E-04  6.6069339E-04   2585.100       3.882998    
  6.6069339E-04  7.7624706E-04   2213.201       3.903097    
  7.7624706E-04  9.1201073E-04   1919.700       3.741246    
  9.1201073E-04  1.0715192E-03   1595.062       3.660970    
  1.0715192E-03  1.2589253E-03   1438.728       3.645466    
  1.2589253E-03  1.4791082E-03   1236.890       3.755002    
  1.4791082E-03  1.7378007E-03   1006.772       4.126907    
  1.7378007E-03  2.0417378E-03   904.2573       4.349517    
  2.0417378E-03  2.3988327E-03   764.1641       4.172673    
  2.3988327E-03  2.8183826E-03   588.5217       3.372344    
  2.8183826E-03  3.3113109E-03   580.7597       4.807012    
  3.3113109E-03  3.8904510E-03   523.0604       4.133619    
  3.8904510E-03  4.5708814E-03   407.0420       4.571931    
  4.5708814E-03  5.3703170E-03   305.4778       3.698036    
  5.3703170E-03  6.3095726E-03   245.5829       3.561692    
  6.3095726E-03  7.4131014E-03   204.5036       5.342824    
  7.4131014E-03  8.7096347E-03   160.9889       5.194431    
  8.7096347E-03  1.0232928E-02   124.0354       5.469997    
  1.0232928E-02  1.2022642E-02   100.7197       5.544835    
  1.2022642E-02  1.4125373E-02   76.68071       7.021210    
  1.4125373E-02  1.6595867E-02   59.73446       4.713012    
  1.6595867E-02  1.9498443E-02   52.38458       4.696612    
  1.9498443E-02  2.2908673E-02   44.80849       4.631232    
  2.2908673E-02  2.6915343E-02   38.33084       7.494505    
  2.6915343E-02  3.1622771E-02   27.20978       4.707415    
  3.1622771E-02  3.7153516E-02   22.72355       6.155519    
  3.7153516E-02  4.3651577E-02   16.17432       6.680291    
  4.3651577E-02  5.1286127E-02   11.46110       5.708719    
  5.1286127E-02  6.0255948E-02   8.793855       6.373522    
  6.0255948E-02  7.0794567E-02   6.830602       7.960976    
  7.0794567E-02  8.3176360E-02   4.941940       8.698691    
  8.3176360E-02  9.7723700E-02   3.985662       8.318804    
  9.7723700E-02  0.1148153       2.658004       10.71688    
  0.1148153      0.1348963       1.531513       9.300669    
  0.1348963      0.1584893       1.493275       15.75365    
  0.1584893      0.1862087      0.6549339       14.23960    
  0.1862087      0.2187761      0.6012095       14.40313    
  0.2187761      0.2570395      0.4566828       19.88646    
  0.2570395      0.3019951      0.1758586       17.59421    
  0.3019951      0.3548133      0.1142261       24.13629    
  0.3548133      0.4168693      9.2200123E-02   23.52606    
  0.4168693      0.4897787      2.6870096E-02   40.21562    
  0.4897787      0.5754398      7.4312780E-03   58.05887    
  0.5754398      0.6760828      1.2592223E-02   41.88632    
  0.6760828      0.7943280      2.0559540E-03   68.98250    
  0.7943280      0.9332541      2.4966362E-03   99.00000    
  0.9332541       1.096478      3.4455361E-03   69.86989    
   1.096478       1.288249      5.6669448E-04   77.38565    
   1.288249       1.513561       0.000000       0.000000    
   1.513561       1.778279      4.0562029E-04   99.00000    
   1.778279       2.089296       0.000000       0.000000    
   2.089296       2.454708      8.3160168E-04   99.00000    
   2.454708       2.884031       0.000000       0.000000    
   2.884031       3.388441       0.000000       0.000000    
   3.388441       3.981071       0.000000       0.000000    
   3.981071       4.677350       0.000000       0.000000    
   4.677350       5.495407       0.000000       0.000000    
   5.495407       6.456541       0.000000       0.000000    
   6.456541       7.585774       0.000000       0.000000    
   7.585774       8.912507       0.000000       0.000000    
   8.912507       10.47128       0.000000       0.000000    
   10.47128       12.30268       0.000000       0.000000    
   12.30268       14.45439       0.000000       0.000000    
   14.45439       16.98243       0.000000       0.000000    
   16.98243       19.95262       0.000000       0.000000    
   19.95262       23.44228       0.000000       0.000000    
   23.44228       27.54228       0.000000       0.000000    
   27.54228       32.35936       0.000000       0.000000    
   32.35936       38.01893       0.000000       0.000000    
   38.01893       44.66835       0.000000       0.000000    
   44.66835       52.48073       0.000000       0.000000    
   52.48073       61.65948       0.000000       0.000000    
   61.65948       72.44357       0.000000       0.000000    
   72.44357       85.11378       0.000000       0.000000    
   85.11378       99.99997       0.000000       0.000000    
