 # Detector n:  1  ME22a_Nlow
 # N. of energy intervals 260
  1.0000100E-14  2.0000000E-13  2.0503283E+08   97.33569    
  2.0000000E-13  2.9297300E-13  2.3926036E+10   68.73898    
  2.9297300E-13  4.2916701E-13   0.000000       0.000000    
  4.2916701E-13  6.2867300E-13  6.4338629E+10   49.41417    
  6.2867300E-13  9.2092198E-13  4.9980609E+10   40.21061    
  9.2092198E-13  1.3490300E-12  7.2580022E+10   30.77228    
  1.3490300E-12  1.9761499E-12  1.1377677E+11   22.61910    
  1.9761499E-12  2.8947901E-12  1.7143045E+11   16.09080    
  2.8947901E-12  4.2404799E-12  1.8799005E+11   10.60687    
  4.2404799E-12  6.2117499E-12  3.1269565E+11   8.104751    
  6.2117499E-12  9.0993801E-12  4.3494585E+11   5.674996    
  9.0993801E-12  1.3329400E-11  5.4621028E+11   4.152097    
  1.3329400E-11  1.9525799E-11  6.4300692E+11   3.263968    
  1.9525799E-11  2.8602700E-11  7.3317161E+11   2.538300    
  2.8602700E-11  4.1899099E-11  7.3997674E+11   2.310036    
  4.1899099E-11  6.1376598E-11  6.1694188E+11   2.128817    
  6.1376598E-11  8.9908601E-11  3.9271003E+11   2.318134    
  8.9908601E-11  1.3170399E-10  2.0079341E+11   2.533116    
  1.3170399E-10  1.9292901E-10  8.3906978E+10   2.910973    
  1.9292901E-10  2.8261499E-10  4.2438423E+10   3.440170    
  2.8261499E-10  4.1399401E-10  2.2941811E+10   3.961497    
  4.1399401E-10  5.3157900E-10  1.5682454E+10   4.692600    
  5.3157900E-10  6.2506200E-10  1.2038236E+10   5.668424    
  6.2506200E-10  6.8256001E-10  9.8977024E+09   8.002123    
  6.8256001E-10  8.3368101E-10  8.3326700E+09   5.588590    
  8.3368101E-10  8.7642499E-10  7.8385403E+09   10.49086    
  8.7642499E-10  1.1253500E-09  6.7182275E+09   5.211871    
  1.1253500E-09  1.4449800E-09  4.9901609E+09   5.516006    
  1.4449800E-09  1.8553900E-09  4.0371845E+09   5.596104    
  1.8553900E-09  2.3823701E-09  3.2753167E+09   4.965178    
  2.3823701E-09  3.0590199E-09  2.4063634E+09   5.022788    
  3.0590199E-09  3.9278598E-09  1.8864236E+09   4.997862    
  3.9278598E-09  5.0434799E-09  1.4667473E+09   5.014764    
  5.0434799E-09  6.4759500E-09  1.1929994E+09   5.431431    
  6.4759500E-09  8.3152898E-09  9.2624531E+08   4.564489    
  8.3152898E-09  1.0677000E-08  7.3305075E+08   5.069264    
  1.0677000E-08  1.3709600E-08  5.7900634E+08   5.047645    
  1.3709600E-08  1.7603501E-08  3.9234602E+08   5.013236    
  1.7603501E-08  2.2603301E-08  3.1344554E+08   5.479965    
  2.2603301E-08  2.9023200E-08  2.6539522E+08   4.958773    
  2.9023200E-08  3.7266499E-08  2.0728346E+08   4.975806    
  3.7266499E-08  4.7851199E-08  1.5364549E+08   5.698987    
  4.7851199E-08  6.1442101E-08  1.2441129E+08   5.109591    
  6.1442101E-08  7.8893301E-08  9.5133248E+07   5.333016    
  7.8893301E-08  1.0130100E-07  7.0549904E+07   4.833138    
  1.0130100E-07  1.3007300E-07  5.5614728E+07   5.686507    
  1.3007300E-07  1.6701701E-07  4.2920600E+07   5.040211    
  1.6701701E-07  2.1445400E-07  3.3104604E+07   5.464881    
  2.1445400E-07  2.7536399E-07  2.6071522E+07   5.121413    
  2.7536399E-07  3.5357499E-07  2.0635404E+07   5.007852    
  3.5357499E-07  4.5399901E-07  1.5613367E+07   5.716645    
  4.5399901E-07  5.8294700E-07  1.3225566E+07   5.852809    
  5.8294700E-07  7.4851800E-07   9796156.       5.370267    
  7.4851800E-07  9.6111603E-07   7472069.       5.078761    
  9.6111603E-07  1.2341000E-06   5642146.       4.849674    
  1.2341000E-06  1.3638900E-06   4203416.       8.071033    
  1.3638900E-06  1.5073300E-06   4626009.       8.622288    
  1.5073300E-06  1.5846100E-06   4923263.       11.52652    
  1.5846100E-06  1.6658601E-06   5127268.       11.99409    
  1.6658601E-06  1.8410600E-06   3391024.       8.101902    
  1.8410600E-06  2.0346799E-06   3509140.       8.211355    
  2.0346799E-06  2.2486699E-06   3213388.       8.226830    
  2.2486699E-06  2.4851699E-06   2505350.       7.833565    
  2.4851699E-06  2.6125899E-06   2790729.       10.56163    
  2.6125899E-06  2.7465401E-06   2195212.       12.04279    
  2.7465401E-06  2.8634900E-06   2012945.       14.45785    
  2.8634900E-06  3.0353899E-06   1876468.       10.64022    
  3.0353899E-06  3.3546301E-06   1910508.       8.184851    
  3.3546301E-06  3.7074401E-06   1780594.       8.274809    
  3.7074401E-06  4.0973500E-06   1620748.       9.642399    
  4.0973500E-06  4.3074201E-06   1805080.       12.99881    
  4.3074201E-06  4.5282700E-06   1825927.       14.08683    
  4.5282700E-06  5.0045101E-06   1443092.       7.750979    
  5.0045101E-06  5.5308401E-06   1322652.       7.844080    
  5.5308401E-06  6.2672698E-06   937036.5       7.641806    
  6.2672698E-06  7.1017398E-06   933574.8       8.554556    
  7.1017398E-06  8.0473301E-06   740857.0       7.877284    
  8.0473301E-06  9.1188203E-06   620417.2       8.328334    
  9.1188203E-06  1.0333000E-05   663151.8       8.240104    
  1.0333000E-05  1.1708800E-05   620946.0       7.137800    
  1.1708800E-05  1.3267800E-05   514578.3       7.852322    
  1.3267800E-05  1.5034400E-05   462315.0       7.246840    
  1.5034400E-05  1.7036200E-05   411129.7       7.191047    
  1.7036200E-05  1.9304500E-05   398879.5       6.674952    
  1.9304500E-05  2.1334799E-05   350899.2       7.304548    
  2.1334799E-05  2.1874899E-05   427063.1       13.55498    
  2.1874899E-05  2.3578599E-05   351599.9       9.677633    
  2.3578599E-05  2.4175501E-05   436082.9       12.18972    
  2.4175501E-05  2.4787500E-05   714558.2       9.290383    
  2.4787500E-05  2.6058400E-05   451156.8       8.079957    
  2.6058400E-05  2.8087899E-05   276656.0       14.52233    
  2.8087899E-05  3.1827800E-05   184374.1       8.941736    
  3.1827800E-05  3.4306700E-05   163021.7       11.09781    
  3.4306700E-05  3.5175199E-05   68826.03       16.33995    
  3.5175199E-05  3.6065601E-05   147164.4       19.67068    
  3.6065601E-05  4.0867701E-05   137057.3       8.136857    
  4.0867701E-05  4.6309200E-05   141862.1       8.746349    
  4.6309200E-05  5.2475199E-05   112497.3       7.487728    
  5.2475199E-05  5.6562199E-05   128980.6       9.867895    
  5.6562199E-05  5.9462200E-05   116448.4       11.70951    
  5.9462200E-05  6.2510902E-05   123975.5       11.12866    
  6.2510902E-05  6.7379500E-05   109419.0       9.116056    
  6.7379500E-05  7.6350902E-05   112185.1       6.832263    
  7.6350902E-05  8.6516899E-05   79271.91       7.077936    
  8.6516899E-05  9.8036500E-05   70737.32       7.134886    
  9.8036500E-05  1.1109000E-04   69524.05       7.387259    
  1.1109000E-04  1.1678600E-04   79034.46       11.45710    
  1.1678600E-04  1.2277300E-04   54396.66       11.22244    
  1.2277300E-04  1.2906799E-04   70759.82       9.438268    
  1.2906799E-04  1.3568600E-04   68165.67       11.01233    
  1.3568600E-04  1.4264201E-04   57633.68       11.12500    
  1.4264201E-04  1.4995600E-04   39415.95       11.62674    
  1.4995600E-04  1.5764400E-04   48521.50       12.48334    
  1.5764400E-04  1.6163501E-04   47029.23       13.09287    
  1.6163501E-04  1.6572700E-04   44868.71       13.74445    
  1.6572700E-04  1.6992200E-04   38104.86       15.62506    
  1.6992200E-04  1.7422400E-04   41458.04       17.75669    
  1.7422400E-04  1.8315599E-04   53710.56       8.700220    
  1.8315599E-04  1.9254700E-04   42247.12       11.25891    
  1.9254700E-04  2.0241900E-04   34914.41       10.64663    
  2.0241900E-04  2.1279699E-04   43866.50       11.05294    
  2.1279699E-04  2.2370800E-04   37931.39       10.45019    
  2.2370800E-04  2.3517800E-04   34633.34       12.16602    
  2.3517800E-04  2.4723500E-04   43743.59       9.875683    
  2.4723500E-04  2.5991100E-04   39424.94       9.908791    
  2.5991100E-04  2.7323700E-04   39487.85       9.524833    
  2.7323700E-04  2.8015400E-04   30358.98       16.90805    
  2.8015400E-04  2.8724599E-04   29384.54       15.39075    
  2.8724599E-04  2.9451799E-04   32842.99       13.42610    
  2.9451799E-04  3.0197401E-04   46268.74       13.20388    
  3.0197401E-04  3.0961799E-04   43107.30       10.80582    
  3.0961799E-04  3.1745600E-04   38221.70       12.04230    
  3.1745600E-04  3.3373301E-04   23380.85       11.27482    
  3.3373301E-04  3.5084400E-04   30231.19       11.17662    
  3.5084400E-04  3.6883200E-04   18451.42       9.676337    
  3.6883200E-04  3.8774201E-04   21003.50       11.97190    
  3.8774201E-04  4.0762199E-04   18864.37       10.67221    
  4.0762199E-04  4.2852099E-04   17181.23       11.75309    
  4.2852099E-04  4.5049199E-04   10671.51       11.40447    
  4.5049199E-04  4.7358900E-04   16499.75       10.27275    
  4.7358900E-04  4.9787102E-04   17646.20       10.20473    
  4.9787102E-04  5.1047403E-04   20269.89       17.96078    
  5.1047403E-04  5.2339700E-04   12638.73       14.27531    
  5.2339700E-04  5.3664698E-04   13615.34       13.15955    
  5.3664698E-04  5.5023201E-04   20221.11       12.63896    
  5.5023201E-04  5.7844300E-04   15434.63       9.058135    
  5.7844300E-04  6.0810102E-04   14737.84       10.36940    
  6.0810102E-04  6.3927902E-04   17802.81       8.818645    
  6.3927902E-04  6.7205500E-04   13998.77       9.570531    
  6.7205500E-04  7.0651202E-04   13289.41       13.90562    
  7.0651202E-04  7.4273598E-04   14340.61       10.33705    
  7.4273598E-04  7.8081700E-04   11665.57       11.39746    
  7.8081700E-04  8.2085002E-04   8931.983       12.05789    
  8.2085002E-04  8.6293602E-04   9078.629       11.99940    
  8.6293602E-04  9.0717903E-04   8125.550       12.82575    
  9.0717903E-04  9.5369201E-04   7236.029       11.63834    
  9.5369201E-04  9.6163998E-04   11180.75       25.41089    
  9.6163998E-04  9.7783399E-04   3728.675       23.46737    
  9.7783399E-04  1.0025901E-03   6661.591       15.81226    
  1.0025901E-03  1.0539900E-03   5813.740       13.25450    
  1.0539900E-03  1.1080300E-03   4970.596       14.03253    
  1.1080300E-03  1.1648400E-03   6644.931       12.43321    
  1.1648400E-03  1.1943300E-03   5237.268       15.90300    
  1.1943300E-03  1.2245600E-03   5268.373       13.04077    
  1.2245600E-03  1.2873500E-03   5136.567       12.63291    
  1.2873500E-03  1.3533500E-03   4671.412       12.70691    
  1.3533500E-03  1.4227401E-03   4140.884       12.53116    
  1.4227401E-03  1.4956900E-03   3753.744       12.98641    
  1.4956900E-03  1.5335500E-03   4764.509       21.61971    
  1.5335500E-03  1.5723699E-03   4064.250       18.59613    
  1.5723699E-03  1.6121800E-03   4319.704       17.42589    
  1.6121800E-03  1.6529900E-03   3875.866       19.10183    
  1.6529900E-03  1.7377400E-03   3249.565       12.76646    
  1.7377400E-03  1.8268300E-03   3426.959       13.66716    
  1.8268300E-03  1.8730800E-03   2739.691       19.89172    
  1.8730800E-03  1.9205000E-03   1747.484       25.96550    
  1.9205000E-03  1.9691200E-03   4244.255       19.62930    
  1.9691200E-03  2.0189700E-03   2716.959       25.58686    
  2.0189700E-03  2.1224800E-03   3126.676       13.47431    
  2.1224800E-03  2.2313001E-03   2265.392       11.50256    
  2.2313001E-03  2.2688799E-03   3122.408       20.32258    
  2.2688799E-03  2.3068599E-03   1744.443       27.18466    
  2.3068599E-03  2.3457000E-03   2150.884       22.79508    
  2.3457000E-03  2.3652499E-03   4235.392       29.49296    
  2.3652499E-03  2.3852000E-03   1612.760       23.37181    
  2.3852000E-03  2.4251300E-03   2775.043       20.24830    
  2.4251300E-03  2.4659701E-03   2560.739       22.89491    
  2.4659701E-03  2.5923999E-03   2359.399       14.68689    
  2.5923999E-03  2.7253199E-03   1850.726       17.21137    
  2.7253199E-03  2.8650500E-03   1896.701       13.21261    
  2.8650500E-03  3.0119400E-03   1680.250       17.13684    
  3.0119400E-03  3.0881900E-03   1168.231       18.63593    
  3.0881900E-03  3.1663701E-03   1018.544       25.13819    
  3.1663701E-03  3.2465300E-03   1368.133       24.08288    
  3.2465300E-03  3.3287101E-03   733.4303       29.98502    
  3.3287101E-03  3.4993801E-03   1122.929       16.71440    
  3.4993801E-03  3.6787901E-03   849.1733       16.14649    
  3.6787901E-03  3.8674099E-03   600.4222       20.95695    
  3.8674099E-03  4.0656999E-03   985.6673       17.09493    
  4.0656999E-03  4.2741499E-03   901.5336       19.67668    
  4.2741499E-03  4.4932901E-03   519.7764       19.87702    
  4.4932901E-03  4.6070400E-03   382.5544       31.90131    
  4.6070400E-03  4.7236700E-03   611.7108       44.19642    
  4.7236700E-03  4.8432499E-03   528.0782       29.14512    
  4.8432499E-03  4.9658502E-03   413.1648       27.41330    
  4.9658502E-03  5.2204598E-03   388.1566       21.14293    
  5.2204598E-03  5.4881200E-03   800.3428       21.44814    
  5.4881200E-03  5.7695000E-03   538.8110       17.96351    
  5.7695000E-03  5.9155500E-03   481.7041       28.61836    
  5.9155500E-03  6.0653100E-03   290.8331       24.57413    
  6.0653100E-03  6.2188501E-03   246.1890       35.17418    
  6.2188501E-03  6.3762800E-03   380.8444       29.91981    
  6.3762800E-03  6.5377001E-03   566.5486       25.55905    
  6.5377001E-03  6.5923799E-03   474.9309       46.31870    
  6.5923799E-03  6.6475999E-03   595.4974       38.45235    
  6.6475999E-03  6.7031998E-03   181.1779       58.33677    
  6.7031998E-03  6.8728901E-03   449.7324       33.17120    
  6.8728901E-03  7.0468802E-03   328.4110       28.06838    
  7.0468802E-03  7.2252699E-03   136.9317       28.18198    
  7.2252699E-03  7.4081798E-03   99.79445       32.15667    
  7.4081798E-03  7.5957198E-03   235.2305       31.38596    
  7.5957198E-03  7.7880099E-03   359.4073       30.12990    
  7.7880099E-03  7.9851598E-03   248.0255       33.83224    
  7.9851598E-03  8.1873098E-03   278.6502       32.50283    
  8.1873098E-03  8.3945701E-03   149.2741       42.12415    
  8.3945701E-03  8.6070802E-03   158.6689       36.41137    
  8.6070802E-03  8.8249696E-03   263.1151       26.99172    
  8.8249696E-03  9.0483697E-03   122.4020       44.72747    
  9.0483697E-03  9.2774397E-03   241.5115       28.74073    
  9.2774397E-03  9.5122904E-03   207.7740       32.26022    
  9.5122904E-03  9.7530996E-03   362.4658       31.61024    
  9.7530996E-03  9.9999998E-03   143.5286       36.12641    
  9.9999998E-03  1.0253200E-02   235.7817       34.04571    
  1.0253200E-02  1.0512700E-02   199.4458       32.92752    
  1.0512700E-02  1.0778800E-02   169.5326       35.67354    
  1.0778800E-02  1.1051700E-02   152.8358       35.45750    
  1.1051700E-02  1.1331500E-02   306.1711       28.02166    
  1.1331500E-02  1.1618300E-02   184.3719       33.14186    
  1.1618300E-02  1.1912500E-02   68.71326       40.98417    
  1.1912500E-02  1.2214000E-02   113.0650       41.63223    
  1.2214000E-02  1.2523200E-02   103.5825       37.42167    
  1.2523200E-02  1.2840200E-02   144.3489       31.65187    
  1.2840200E-02  1.3165300E-02   167.6524       34.21153    
  1.3165300E-02  1.3498600E-02   47.17218       34.77514    
  1.3498600E-02  1.3840300E-02   81.71798       33.75919    
  1.3840300E-02  1.4190700E-02   174.0737       44.07938    
  1.4190700E-02  1.4549900E-02   95.28735       38.80991    
  1.4549900E-02  1.4918300E-02   114.5445       35.62979    
  1.4918300E-02  1.5295900E-02   151.5309       37.19282    
  1.5295900E-02  1.5683100E-02   234.1696       27.25321    
  1.5683100E-02  1.6080100E-02   138.2177       27.89128    
  1.6080100E-02  1.6487200E-02   121.2003       27.35902    
  1.6487200E-02  1.6904600E-02   211.5914       24.94434    
  1.6904600E-02  1.7332500E-02   92.58829       37.47928    
  1.7332500E-02  1.7771300E-02   93.12708       33.99549    
  1.7771300E-02  1.8221200E-02   112.9636       35.95672    
  1.8221200E-02  1.8682500E-02   110.9382       27.97029    
  1.8682500E-02  1.9155400E-02   85.09774       39.15620    
  1.9155400E-02  1.9640300E-02   96.60467       30.65563    
  1.9640300E-02  2.0000000E-02   133.3979       33.26251    


 # Detector n:  2  ME22a_Nhi 
 # N. of energy intervals 100
  2.0000000E-02  2.1778084E-02   86.16856       21.12392    
  2.1778084E-02  2.3714250E-02   92.71372       16.99903    
  2.3714250E-02  2.5822546E-02   68.92501       18.54100    
  2.5822546E-02  2.8118281E-02   84.32377       18.26599    
  2.8118281E-02  3.0618116E-02   99.21073       16.39824    
  3.0618116E-02  3.3340197E-02   105.3930       17.85155    
  3.3340197E-02  3.6304284E-02   104.2273       14.72892    
  3.6304284E-02  3.9531890E-02   78.45975       15.38673    
  3.9531890E-02  4.3046441E-02   60.02827       19.59305    
  4.3046441E-02  4.6873454E-02   56.89800       16.02809    
  4.6873454E-02  5.1040705E-02   68.05130       14.70692    
  5.1040705E-02  5.5578440E-02   67.27142       14.95919    
  5.5578440E-02  6.0519602E-02   61.95538       14.61128    
  6.0519602E-02  6.5900050E-02   51.60489       16.10275    
  6.5900050E-02  7.1758844E-02   50.62975       15.17472    
  7.1758844E-02  7.8138515E-02   53.18913       15.37943    
  7.8138515E-02  8.5085362E-02   41.27607       14.49579    
  8.5085362E-02  9.2649810E-02   34.82212       15.88897    
  9.2649810E-02  0.1008868       25.26922       20.09769    
  0.1008868      0.1098560       27.82236       16.25232    
  0.1098560      0.1196227       24.30640       17.83031    
  0.1196227      0.1302577       14.92870       28.60765    
  0.1302577      0.1418381       13.96455       21.08237    
  0.1418381      0.1544482       8.725346       23.72775    
  0.1544482      0.1681793       10.37098       22.40883    
  0.1681793      0.1831311       5.298680       23.55281    
  0.1831311      0.1994122       5.931310       24.87997    
  0.1994122      0.2171408       6.270879       27.81317    
  0.2171408      0.2364456       2.973499       32.20177    
  0.2364456      0.2574666       3.572141       30.91461    
  0.2574666      0.2803565       2.775826       30.32023    
  0.2803565      0.3052814      0.8916894       60.97223    
  0.3052814      0.3324222      0.2771479       61.85892    
  0.3324222      0.3619759      0.2793011       58.73112    
  0.3619759      0.3941571      0.6137285       67.63566    
  0.3941571      0.4291994      0.3218293       59.51827    
  0.4291994      0.4673570       0.000000       0.000000    
  0.4673570      0.5089071      6.8941005E-02   97.33569    
  0.5089071      0.5541511      3.0392343E-02   97.33569    
  0.5541511      0.6034175       0.000000       0.000000    
  0.6034175      0.6570638       0.000000       0.000000    
  0.6570638      0.7154796       0.000000       0.000000    
  0.7154796      0.7790889       0.000000       0.000000    
  0.7790889      0.8483531      6.2187640E-03   97.33569    
  0.8483531      0.9237754       0.000000       0.000000    
  0.9237754       1.005903       0.000000       0.000000    
   1.005903       1.095332       0.000000       0.000000    
   1.095332       1.192712       0.000000       0.000000    
   1.192712       1.298749       0.000000       0.000000    
   1.298749       1.414213       0.000000       0.000000    
   1.414213       1.539943       0.000000       0.000000    
   1.539943       1.676850       0.000000       0.000000    
   1.676850       1.825929       0.000000       0.000000    
   1.825929       1.988262       0.000000       0.000000    
   1.988262       2.165027       0.000000       0.000000    
   2.165027       2.357507       0.000000       0.000000    
   2.357507       2.567100       0.000000       0.000000    
   2.567100       2.795326       0.000000       0.000000    
   2.795326       3.043842       0.000000       0.000000    
   3.043842       3.314453       0.000000       0.000000    
   3.314453       3.609122       0.000000       0.000000    
   3.609122       3.929988       0.000000       0.000000    
   3.929988       4.279381       0.000000       0.000000    
   4.279381       4.659836       0.000000       0.000000    
   4.659836       5.074115       0.000000       0.000000    
   5.074115       5.525226       0.000000       0.000000    
   5.525226       6.016442       0.000000       0.000000    
   6.016442       6.551329       0.000000       0.000000    
   6.551329       7.133770       0.000000       0.000000    
   7.133770       7.767992       0.000000       0.000000    
   7.767992       8.458600       0.000000       0.000000    
   8.458600       9.210606       0.000000       0.000000    
   9.210606       10.02947       0.000000       0.000000    
   10.02947       10.92113       0.000000       0.000000    
   10.92113       11.89207       0.000000       0.000000    
   11.89207       12.94932       0.000000       0.000000    
   12.94932       14.10057       0.000000       0.000000    
   14.10057       15.35417       0.000000       0.000000    
   15.35417       16.71922       0.000000       0.000000    
   16.71922       18.20563       0.000000       0.000000    
   18.20563       19.82419       0.000000       0.000000    
   19.82419       21.58665       0.000000       0.000000    
   21.58665       23.50579       0.000000       0.000000    
   23.50579       25.59556       0.000000       0.000000    
   25.59556       27.87111       0.000000       0.000000    
   27.87111       30.34897       0.000000       0.000000    
   30.34897       33.04712       0.000000       0.000000    
   33.04712       35.98515       0.000000       0.000000    
   35.98515       39.18439       0.000000       0.000000    
   39.18439       42.66805       0.000000       0.000000    
   42.66805       46.46142       0.000000       0.000000    
   46.46142       50.59204       0.000000       0.000000    
   50.59204       55.08988       0.000000       0.000000    
   55.08988       59.98761       0.000000       0.000000    
   59.98761       65.32076       0.000000       0.000000    
   65.32076       71.12806       0.000000       0.000000    
   71.12806       77.45164       0.000000       0.000000    
   77.45164       84.33743       0.000000       0.000000    
   84.33743       91.83538       0.000000       0.000000    
   91.83538       99.99994       0.000000       0.000000    


 # Detector n:  3  ME22a_ph  
 # N. of energy intervals 100
  9.9999997E-06  1.1748975E-05   0.000000       0.000000    
  1.1748975E-05  1.3803842E-05   34.56923       97.33569    
  1.3803842E-05  1.6218100E-05   642.0594       47.73650    
  1.6218100E-05  1.9054607E-05   5457.747       36.32333    
  1.9054607E-05  2.2387210E-05   4621.408       37.49347    
  2.2387210E-05  2.6302680E-05   4218.841       33.36097    
  2.6302680E-05  3.0902953E-05   12779.88       29.91840    
  3.0902953E-05  3.6307803E-05   11214.03       19.46549    
  3.6307803E-05  4.2657950E-05   34230.51       13.03239    
  4.2657950E-05  5.0118721E-05   74823.45       8.635906    
  5.0118721E-05  5.8884361E-05   110636.0       6.065043    
  5.8884361E-05  6.9183094E-05   148344.4       4.871478    
  6.9183094E-05  8.1283048E-05   202456.6       4.735656    
  8.1283048E-05  9.5499250E-05   227965.0       3.748099    
  9.5499250E-05  1.1220184E-04   229965.4       3.148059    
  1.1220184E-04  1.3182567E-04   221718.2       3.438393    
  1.3182567E-04  1.5488165E-04   178196.0       3.110169    
  1.5488165E-04  1.8197007E-04   164350.7       2.936015    
  1.8197007E-04  2.1379619E-04   127130.4       3.162712    
  2.1379619E-04  2.5118861E-04   108689.2       3.194002    
  2.5118861E-04  2.9512090E-04   85097.33       3.556599    
  2.9512090E-04  3.4673681E-04   66654.62       3.332355    
  3.4673681E-04  4.0738023E-04   53667.27       3.751872    
  4.0738023E-04  4.7863004E-04   42780.68       4.137220    
  4.7863004E-04  5.6234124E-04   62175.01       2.921081    
  5.6234124E-04  6.6069339E-04   18778.02       4.345705    
  6.6069339E-04  7.7624706E-04   16171.60       5.370805    
  7.7624706E-04  9.1201073E-04   16659.40       4.590311    
  9.1201073E-04  1.0715192E-03   11998.58       4.736806    
  1.0715192E-03  1.2589253E-03   9497.102       5.650126    
  1.2589253E-03  1.4791082E-03   8589.885       4.929259    
  1.4791082E-03  1.7378007E-03   7215.618       4.591515    
  1.7378007E-03  2.0417378E-03   7318.950       4.801062    
  2.0417378E-03  2.3988327E-03   11229.21       3.505980    
  2.3988327E-03  2.8183826E-03   5665.714       4.890340    
  2.8183826E-03  3.3113109E-03   3194.475       5.502727    
  3.3113109E-03  3.8904510E-03   2938.666       5.328229    
  3.8904510E-03  4.5708814E-03   2861.416       4.506965    
  4.5708814E-03  5.3703170E-03   1730.944       6.091541    
  5.3703170E-03  6.3095726E-03   2353.988       4.547781    
  6.3095726E-03  7.4131014E-03   1453.151       5.260246    
  7.4131014E-03  8.7096347E-03   4090.175       2.846978    
  8.7096347E-03  1.0232928E-02   380.7424       9.825047    
  1.0232928E-02  1.2022642E-02   9.890145       71.92917    
  1.2022642E-02  1.4125373E-02   5.649255       68.13842    
  1.4125373E-02  1.6595867E-02  0.5570850       97.33569    
  1.6595867E-02  1.9498443E-02  0.1311767       97.33569    
  1.9498443E-02  2.2908673E-02   2.843513       97.33569    
  2.2908673E-02  2.6915343E-02   1.139551       97.33569    
  2.6915343E-02  3.1622771E-02  0.2173303       97.33569    
  3.1622771E-02  3.7153516E-02  3.5624072E-02   97.33569    
  3.7153516E-02  4.3651577E-02   0.000000       0.000000    
  4.3651577E-02  5.1286127E-02   0.000000       0.000000    
  5.1286127E-02  6.0255948E-02   0.000000       0.000000    
  6.0255948E-02  7.0794567E-02   0.000000       0.000000    
  7.0794567E-02  8.3176360E-02  0.1012013       97.33569    
  8.3176360E-02  9.7723700E-02   0.000000       0.000000    
  9.7723700E-02  0.1148153       0.000000       0.000000    
  0.1148153      0.1348963       0.000000       0.000000    
  0.1348963      0.1584893       0.000000       0.000000    
  0.1584893      0.1862087      0.1368097       97.33569    
  0.1862087      0.2187761       0.000000       0.000000    
  0.2187761      0.2570395       0.000000       0.000000    
  0.2570395      0.3019951       0.000000       0.000000    
  0.3019951      0.3548133       0.000000       0.000000    
  0.3548133      0.4168693       0.000000       0.000000    
  0.4168693      0.4897787       0.000000       0.000000    
  0.4897787      0.5754398       0.000000       0.000000    
  0.5754398      0.6760828       0.000000       0.000000    
  0.6760828      0.7943280       0.000000       0.000000    
  0.7943280      0.9332541       0.000000       0.000000    
  0.9332541       1.096478       0.000000       0.000000    
   1.096478       1.288249       0.000000       0.000000    
   1.288249       1.513561       0.000000       0.000000    
   1.513561       1.778279       0.000000       0.000000    
   1.778279       2.089296       0.000000       0.000000    
   2.089296       2.454708       0.000000       0.000000    
   2.454708       2.884031       0.000000       0.000000    
   2.884031       3.388441       0.000000       0.000000    
   3.388441       3.981071       0.000000       0.000000    
   3.981071       4.677350       0.000000       0.000000    
   4.677350       5.495407       0.000000       0.000000    
   5.495407       6.456541       0.000000       0.000000    
   6.456541       7.585774       0.000000       0.000000    
   7.585774       8.912507       0.000000       0.000000    
   8.912507       10.47128       0.000000       0.000000    
   10.47128       12.30268       0.000000       0.000000    
   12.30268       14.45439       0.000000       0.000000    
   14.45439       16.98243       0.000000       0.000000    
   16.98243       19.95262       0.000000       0.000000    
   19.95262       23.44228       0.000000       0.000000    
   23.44228       27.54228       0.000000       0.000000    
   27.54228       32.35936       0.000000       0.000000    
   32.35936       38.01893       0.000000       0.000000    
   38.01893       44.66835       0.000000       0.000000    
   44.66835       52.48073       0.000000       0.000000    
   52.48073       61.65948       0.000000       0.000000    
   61.65948       72.44357       0.000000       0.000000    
   72.44357       85.11378       0.000000       0.000000    
   85.11378       99.99997       0.000000       0.000000    


 # Detector n:  4  ME22a_ep  
 # N. of energy intervals 100
  9.9999997E-06  1.1748975E-05   0.000000       0.000000    
  1.1748975E-05  1.3803842E-05   0.000000       0.000000    
  1.3803842E-05  1.6218100E-05   0.000000       0.000000    
  1.6218100E-05  1.9054607E-05   0.000000       0.000000    
  1.9054607E-05  2.2387210E-05   0.000000       0.000000    
  2.2387210E-05  2.6302680E-05   28.45968       36.96196    
  2.6302680E-05  3.0902953E-05   672.9722       8.169227    
  3.0902953E-05  3.6307803E-05   839.7772       8.157233    
  3.6307803E-05  4.2657950E-05   846.9300       8.821757    
  4.2657950E-05  5.0118721E-05   859.5586       9.038051    
  5.0118721E-05  5.8884361E-05   877.9870       9.189295    
  5.8884361E-05  6.9183094E-05   941.7430       9.748965    
  6.9183094E-05  8.1283048E-05   953.9640       9.519217    
  8.1283048E-05  9.5499250E-05   905.4260       9.764544    
  9.5499250E-05  1.1220184E-04   974.7798       9.915955    
  1.1220184E-04  1.3182567E-04   891.6499       11.35524    
  1.3182567E-04  1.5488165E-04   922.7314       11.09097    
  1.5488165E-04  1.8197007E-04   814.1401       11.42676    
  1.8197007E-04  2.1379619E-04   693.1082       12.24669    
  2.1379619E-04  2.5118861E-04   630.2587       12.76543    
  2.5118861E-04  2.9512090E-04   729.9062       12.67502    
  2.9512090E-04  3.4673681E-04   606.2447       13.14831    
  3.4673681E-04  4.0738023E-04   546.5470       13.88351    
  4.0738023E-04  4.7863004E-04   569.0378       13.56519    
  4.7863004E-04  5.6234124E-04   553.0842       13.81143    
  5.6234124E-04  6.6069339E-04   472.3156       12.79521    
  6.6069339E-04  7.7624706E-04   458.4954       15.13772    
  7.7624706E-04  9.1201073E-04   393.1338       16.44597    
  9.1201073E-04  1.0715192E-03   394.6216       14.89428    
  1.0715192E-03  1.2589253E-03   363.4695       15.84234    
  1.2589253E-03  1.4791082E-03   417.5937       13.18065    
  1.4791082E-03  1.7378007E-03   299.0981       14.26739    
  1.7378007E-03  2.0417378E-03   262.9707       14.36017    
  2.0417378E-03  2.3988327E-03   195.4288       16.10284    
  2.3988327E-03  2.8183826E-03   171.2554       17.27287    
  2.8183826E-03  3.3113109E-03   168.9922       17.18781    
  3.3113109E-03  3.8904510E-03   85.28669       21.13001    
  3.8904510E-03  4.5708814E-03   77.49757       17.12250    
  4.5708814E-03  5.3703170E-03   48.22327       22.21121    
  5.3703170E-03  6.3095726E-03   38.20522       26.43611    
  6.3095726E-03  7.4131014E-03   21.93434       45.44736    
  7.4131014E-03  8.7096347E-03  9.7568169E-02   69.34013    
  8.7096347E-03  1.0232928E-02   0.000000       0.000000    
  1.0232928E-02  1.2022642E-02   0.000000       0.000000    
  1.2022642E-02  1.4125373E-02  8.9838415E-02   97.33569    
  1.4125373E-02  1.6595867E-02   0.000000       0.000000    
  1.6595867E-02  1.9498443E-02  0.1122609       97.33569    
  1.9498443E-02  2.2908673E-02   0.000000       0.000000    
  2.2908673E-02  2.6915343E-02   0.000000       0.000000    
  2.6915343E-02  3.1622771E-02  7.9613067E-02   81.38533    
  3.1622771E-02  3.7153516E-02  3.9542653E-02   97.33569    
  3.7153516E-02  4.3651577E-02  0.2682907       97.33569    
  4.3651577E-02  5.1286127E-02  3.3221945E-02   77.45800    
  5.1286127E-02  6.0255948E-02   0.000000       0.000000    
  6.0255948E-02  7.0794567E-02   0.000000       0.000000    
  7.0794567E-02  8.3176360E-02  1.5387509E-02   97.33569    
  8.3176360E-02  9.7723700E-02   0.000000       0.000000    
  9.7723700E-02  0.1148153       0.000000       0.000000    
  0.1148153      0.1348963       0.000000       0.000000    
  0.1348963      0.1584893       0.000000       0.000000    
  0.1584893      0.1862087       0.000000       0.000000    
  0.1862087      0.2187761       0.000000       0.000000    
  0.2187761      0.2570395       0.000000       0.000000    
  0.2570395      0.3019951       0.000000       0.000000    
  0.3019951      0.3548133       0.000000       0.000000    
  0.3548133      0.4168693       0.000000       0.000000    
  0.4168693      0.4897787       0.000000       0.000000    
  0.4897787      0.5754398       0.000000       0.000000    
  0.5754398      0.6760828       0.000000       0.000000    
  0.6760828      0.7943280       0.000000       0.000000    
  0.7943280      0.9332541       0.000000       0.000000    
  0.9332541       1.096478       0.000000       0.000000    
   1.096478       1.288249       0.000000       0.000000    
   1.288249       1.513561       0.000000       0.000000    
   1.513561       1.778279       0.000000       0.000000    
   1.778279       2.089296       0.000000       0.000000    
   2.089296       2.454708       0.000000       0.000000    
   2.454708       2.884031       0.000000       0.000000    
   2.884031       3.388441       0.000000       0.000000    
   3.388441       3.981071       0.000000       0.000000    
   3.981071       4.677350       0.000000       0.000000    
   4.677350       5.495407       0.000000       0.000000    
   5.495407       6.456541       0.000000       0.000000    
   6.456541       7.585774       0.000000       0.000000    
   7.585774       8.912507       0.000000       0.000000    
   8.912507       10.47128       0.000000       0.000000    
   10.47128       12.30268       0.000000       0.000000    
   12.30268       14.45439       0.000000       0.000000    
   14.45439       16.98243       0.000000       0.000000    
   16.98243       19.95262       0.000000       0.000000    
   19.95262       23.44228       0.000000       0.000000    
   23.44228       27.54228       0.000000       0.000000    
   27.54228       32.35936       0.000000       0.000000    
   32.35936       38.01893       0.000000       0.000000    
   38.01893       44.66835       0.000000       0.000000    
   44.66835       52.48073       0.000000       0.000000    
   52.48073       61.65948       0.000000       0.000000    
   61.65948       72.44357       0.000000       0.000000    
   72.44357       85.11378       0.000000       0.000000    
   85.11378       99.99997       0.000000       0.000000    
