 # Detector n:  1  MB3a_Nlow 
 # N. of energy intervals 260
  1.0000100E-14  2.0000000E-13   0.000000       0.000000    
  2.0000000E-13  2.9297300E-13   0.000000       0.000000    
  2.9297300E-13  4.2916701E-13   0.000000       0.000000    
  4.2916701E-13  6.2867300E-13   0.000000       0.000000    
  6.2867300E-13  9.2092198E-13   0.000000       0.000000    
  9.2092198E-13  1.3490300E-12  1.3901458E+09   99.00000    
  1.3490300E-12  1.9761499E-12  7.8590976E+08   99.00000    
  1.9761499E-12  2.8947901E-12  4.3448250E+08   99.00000    
  2.8947901E-12  4.2404799E-12  1.3191254E+09   56.37670    
  4.2404799E-12  6.2117499E-12  1.7125097E+09   38.00092    
  6.2117499E-12  9.0993801E-12  5.6718868E+09   36.81540    
  9.0993801E-12  1.3329400E-11  6.0697416E+09   29.53444    
  1.3329400E-11  1.9525799E-11  5.1030528E+09   15.97869    
  1.9525799E-11  2.8602700E-11  9.9018076E+09   17.65842    
  2.8602700E-11  4.1899099E-11  8.0546202E+09   11.26854    
  4.1899099E-11  6.1376598E-11  6.4822451E+09   14.45182    
  6.1376598E-11  8.9908601E-11  4.4706545E+09   10.15316    
  8.9908601E-11  1.3170399E-10  3.2760118E+09   16.24709    
  1.3170399E-10  1.9292901E-10  1.3535142E+09   12.64895    
  1.9292901E-10  2.8261499E-10  7.0045536E+08   17.23503    
  2.8261499E-10  4.1399401E-10  4.6120010E+08   16.23398    
  4.1399401E-10  5.3157900E-10  2.0827411E+08   24.01766    
  5.3157900E-10  6.2506200E-10  1.3616746E+08   27.50860    
  6.2506200E-10  6.8256001E-10  1.9413707E+08   27.79123    
  6.8256001E-10  8.3368101E-10  2.4551533E+08   21.01627    
  8.3368101E-10  8.7642499E-10  1.0895810E+08   34.36602    
  8.7642499E-10  1.1253500E-09  1.0211494E+08   24.58589    
  1.1253500E-09  1.4449800E-09  1.0599440E+08   17.36500    
  1.4449800E-09  1.8553900E-09  7.8650976E+07   21.35227    
  1.8553900E-09  2.3823701E-09  9.1987328E+07   16.86151    
  2.3823701E-09  3.0590199E-09  3.7014596E+07   17.67369    
  3.0590199E-09  3.9278598E-09  3.6636516E+07   17.08683    
  3.9278598E-09  5.0434799E-09  3.4583092E+07   15.18402    
  5.0434799E-09  6.4759500E-09  2.2545430E+07   19.61877    
  6.4759500E-09  8.3152898E-09  1.7321016E+07   20.70443    
  8.3152898E-09  1.0677000E-08  1.4388560E+07   19.09620    
  1.0677000E-08  1.3709600E-08  1.0349804E+07   21.60515    
  1.3709600E-08  1.7603501E-08   8789891.       22.96015    
  1.7603501E-08  2.2603301E-08   8375637.       28.84458    
  2.2603301E-08  2.9023200E-08   3718856.       20.30649    
  2.9023200E-08  3.7266499E-08   2824634.       21.86206    
  3.7266499E-08  4.7851199E-08   3657068.       22.68596    
  4.7851199E-08  6.1442101E-08   2569853.       17.70607    
  6.1442101E-08  7.8893301E-08   1886830.       22.31691    
  7.8893301E-08  1.0130100E-07   2141473.       19.62821    
  1.0130100E-07  1.3007300E-07   1331668.       18.22572    
  1.3007300E-07  1.6701701E-07   1781128.       22.08573    
  1.6701701E-07  2.1445400E-07   686407.8       17.05317    
  2.1445400E-07  2.7536399E-07   615595.6       15.25327    
  2.7536399E-07  3.5357499E-07   466859.2       21.22623    
  3.5357499E-07  4.5399901E-07   327205.8       19.15332    
  4.5399901E-07  5.8294700E-07   302807.6       18.18592    
  5.8294700E-07  7.4851800E-07   169653.4       18.65428    
  7.4851800E-07  9.6111603E-07   148814.2       22.47635    
  9.6111603E-07  1.2341000E-06   127407.6       23.18790    
  1.2341000E-06  1.3638900E-06   93606.99       20.49101    
  1.3638900E-06  1.5073300E-06   94862.05       29.47697    
  1.5073300E-06  1.5846100E-06   163976.2       44.10181    
  1.5846100E-06  1.6658601E-06   127221.4       35.74604    
  1.6658601E-06  1.8410600E-06   94602.82       23.17157    
  1.8410600E-06  2.0346799E-06   59287.68       31.96328    
  2.0346799E-06  2.2486699E-06   60426.47       26.46447    
  2.2486699E-06  2.4851699E-06   55982.89       32.87384    
  2.4851699E-06  2.6125899E-06   53874.14       28.05467    
  2.6125899E-06  2.7465401E-06   33144.25       35.02679    
  2.7465401E-06  2.8634900E-06   44951.92       32.93243    
  2.8634900E-06  3.0353899E-06   48837.71       32.11719    
  3.0353899E-06  3.3546301E-06   68894.41       22.15885    
  3.3546301E-06  3.7074401E-06   40404.01       34.82843    
  3.7074401E-06  4.0973500E-06   28625.96       27.27400    
  4.0973500E-06  4.3074201E-06   33906.04       33.54907    
  4.3074201E-06  4.5282700E-06   55620.58       35.48584    
  4.5282700E-06  5.0045101E-06   30893.51       23.84454    
  5.0045101E-06  5.5308401E-06   37823.73       20.25064    
  5.5308401E-06  6.2672698E-06   19169.40       28.35468    
  6.2672698E-06  7.1017398E-06   28832.74       21.40688    
  7.1017398E-06  8.0473301E-06   15343.76       37.71111    
  8.0473301E-06  9.1188203E-06   11393.12       21.85489    
  9.1188203E-06  1.0333000E-05   9324.253       22.70913    
  1.0333000E-05  1.1708800E-05   15568.24       20.30816    
  1.1708800E-05  1.3267800E-05   11785.79       25.93574    
  1.3267800E-05  1.5034400E-05   22304.26       24.72226    
  1.5034400E-05  1.7036200E-05   17505.89       34.78867    
  1.7036200E-05  1.9304500E-05   7424.423       20.02464    
  1.9304500E-05  2.1334799E-05   10580.92       18.70712    
  2.1334799E-05  2.1874899E-05   20080.62       42.81547    
  2.1874899E-05  2.3578599E-05   17943.39       13.53933    
  2.3578599E-05  2.4175501E-05   21035.88       18.67472    
  2.4175501E-05  2.4787500E-05   56856.66       39.13655    
  2.4787500E-05  2.6058400E-05   23541.62       15.89208    
  2.6058400E-05  2.8087899E-05   6079.360       43.49208    
  2.8087899E-05  3.1827800E-05   4468.446       22.96879    
  3.1827800E-05  3.4306700E-05   2292.958       66.41206    
  3.4306700E-05  3.5175199E-05   1523.717       67.71860    
  3.5175199E-05  3.6065601E-05   1384.396       66.17110    
  3.6065601E-05  4.0867701E-05   1175.103       34.19986    
  4.0867701E-05  4.6309200E-05   2981.646       21.52368    
  4.6309200E-05  5.2475199E-05   3864.679       19.01454    
  5.2475199E-05  5.6562199E-05   2414.368       35.06015    
  5.6562199E-05  5.9462200E-05   4108.494       29.36942    
  5.9462200E-05  6.2510902E-05   5481.391       35.65581    
  6.2510902E-05  6.7379500E-05   2998.061       24.97435    
  6.7379500E-05  7.6350902E-05   3813.263       21.56457    
  7.6350902E-05  8.6516899E-05   1507.190       22.60245    
  8.6516899E-05  9.8036500E-05   1423.353       36.53189    
  9.8036500E-05  1.1109000E-04   1080.744       18.13446    
  1.1109000E-04  1.1678600E-04   2541.718       22.73064    
  1.1678600E-04  1.2277300E-04   1163.430       27.84192    
  1.2277300E-04  1.2906799E-04   2022.215       23.46804    
  1.2906799E-04  1.3568600E-04   2069.131       26.61839    
  1.3568600E-04  1.4264201E-04   728.6103       36.34119    
  1.4264201E-04  1.4995600E-04   471.2199       34.76168    
  1.4995600E-04  1.5764400E-04   832.1479       32.90670    
  1.5764400E-04  1.6163501E-04   1227.090       30.67498    
  1.6163501E-04  1.6572700E-04   2376.635       53.39566    
  1.6572700E-04  1.6992200E-04   908.1413       40.76126    
  1.6992200E-04  1.7422400E-04   623.0677       73.27168    
  1.7422400E-04  1.8315599E-04   2027.832       24.10380    
  1.8315599E-04  1.9254700E-04   432.0941       40.08171    
  1.9254700E-04  2.0241900E-04   602.2819       36.86212    
  2.0241900E-04  2.1279699E-04   884.5161       55.43139    
  2.1279699E-04  2.2370800E-04   849.5791       27.22380    
  2.2370800E-04  2.3517800E-04   669.5264       40.61849    
  2.3517800E-04  2.4723500E-04   876.2907       28.58836    
  2.4723500E-04  2.5991100E-04   1212.337       44.86341    
  2.5991100E-04  2.7323700E-04   1896.793       24.48461    
  2.7323700E-04  2.8015400E-04   813.9604       50.66511    
  2.8015400E-04  2.8724599E-04   696.7197       44.56885    
  2.8724599E-04  2.9451799E-04   564.2695       38.15339    
  2.9451799E-04  3.0197401E-04   1356.988       29.78251    
  3.0197401E-04  3.0961799E-04   2414.798       21.37563    
  3.0961799E-04  3.1745600E-04   1094.405       39.97916    
  3.1745600E-04  3.3373301E-04   291.0003       34.04292    
  3.3373301E-04  3.5084400E-04   443.6334       26.39595    
  3.5084400E-04  3.6883200E-04   602.8022       27.48043    
  3.6883200E-04  3.8774201E-04   943.7988       33.90022    
  3.8774201E-04  4.0762199E-04   433.5251       25.21998    
  4.0762199E-04  4.2852099E-04   440.3939       26.07419    
  4.2852099E-04  4.5049199E-04   357.9297       25.50789    
  4.5049199E-04  4.7358900E-04   377.8338       49.84585    
  4.7358900E-04  4.9787102E-04   343.9057       24.09590    
  4.9787102E-04  5.1047403E-04   947.4218       53.43476    
  5.1047403E-04  5.2339700E-04   254.9332       46.86431    
  5.2339700E-04  5.3664698E-04   116.6161       48.04271    
  5.3664698E-04  5.5023201E-04   183.4043       56.75711    
  5.5023201E-04  5.7844300E-04   270.9452       42.13043    
  5.7844300E-04  6.0810102E-04   204.5477       36.54765    
  6.0810102E-04  6.3927902E-04   206.5502       28.98130    
  6.3927902E-04  6.7205500E-04   112.3718       37.36855    
  6.7205500E-04  7.0651202E-04   102.3637       34.93279    
  7.0651202E-04  7.4273598E-04   46.97079       50.99863    
  7.4273598E-04  7.8081700E-04   73.98730       31.47630    
  7.8081700E-04  8.2085002E-04   74.38994       42.35749    
  8.2085002E-04  8.6293602E-04   143.5209       34.60859    
  8.6293602E-04  9.0717903E-04   119.9346       35.85688    
  9.0717903E-04  9.5369201E-04   201.4621       68.77898    
  9.5369201E-04  9.6163998E-04   276.5968       48.13971    
  9.6163998E-04  9.7783399E-04   0.000000       0.000000    
  9.7783399E-04  1.0025901E-03   162.7894       54.39615    
  1.0025901E-03  1.0539900E-03   146.6985       84.36905    
  1.0539900E-03  1.1080300E-03   67.70449       43.23055    
  1.1080300E-03  1.1648400E-03   25.87630       50.77433    
  1.1648400E-03  1.1943300E-03   86.09985       79.76902    
  1.1943300E-03  1.2245600E-03   6.716697       99.00000    
  1.2245600E-03  1.2873500E-03   15.32144       63.57328    
  1.2873500E-03  1.3533500E-03   13.45116       78.13781    
  1.3533500E-03  1.4227401E-03   25.02421       52.84421    
  1.4227401E-03  1.4956900E-03   38.75113       51.78939    
  1.4956900E-03  1.5335500E-03   26.25024       92.87001    
  1.5335500E-03  1.5723699E-03   27.23653       78.15942    
  1.5723699E-03  1.6121800E-03   6.000169       99.00000    
  1.6121800E-03  1.6529900E-03   17.37769       79.24950    
  1.6529900E-03  1.7377400E-03   17.07057       79.03413    
  1.7377400E-03  1.8268300E-03   24.42746       62.31881    
  1.8268300E-03  1.8730800E-03   0.000000       0.000000    
  1.8730800E-03  1.9205000E-03   17.73275       55.35916    
  1.9205000E-03  1.9691200E-03   2.103203       77.38565    
  1.9691200E-03  2.0189700E-03   0.000000       0.000000    
  2.0189700E-03  2.1224800E-03   23.01500       49.76077    
  2.1224800E-03  2.2313001E-03   4.859382       76.58960    
  2.2313001E-03  2.2688799E-03   7.561224       77.38565    
  2.2688799E-03  2.3068599E-03   42.38954       57.77112    
  2.3068599E-03  2.3457000E-03   21.51282       99.00000    
  2.3457000E-03  2.3652499E-03   22.12132       99.00000    
  2.3652499E-03  2.3852000E-03   0.000000       0.000000    
  2.3852000E-03  2.4251300E-03   7.055257       77.38565    
  2.4251300E-03  2.4659701E-03   0.000000       0.000000    
  2.4659701E-03  2.5923999E-03   3.939098       55.51484    
  2.5923999E-03  2.7253199E-03   11.57212       59.61406    
  2.7253199E-03  2.8650500E-03   2.729536       77.38565    
  2.8650500E-03  3.0119400E-03   6.552989       77.38565    
  3.0119400E-03  3.0881900E-03   0.000000       0.000000    
  3.0881900E-03  3.1663701E-03   7.859243       99.00000    
  3.1663701E-03  3.2465300E-03   12.02623       99.00000    
  3.2465300E-03  3.3287101E-03   7.655132       96.69376    
  3.3287101E-03  3.4993801E-03   26.47529       99.00000    
  3.4993801E-03  3.6787901E-03   2.596347       99.00000    
  3.6787901E-03  3.8674099E-03   3.315393       63.81269    
  3.8674099E-03  4.0656999E-03   2.460030       77.38565    
  4.0656999E-03  4.2741499E-03   7.621021       55.16137    
  4.2741499E-03  4.4932901E-03   5.207870       80.83597    
  4.4932901E-03  4.6070400E-03   3.251111       77.38565    
  4.6070400E-03  4.7236700E-03   0.000000       0.000000    
  4.7236700E-03  4.8432499E-03   0.000000       0.000000    
  4.8432499E-03  4.9658502E-03   0.000000       0.000000    
  4.9658502E-03  5.2204598E-03   2.451703       99.00000    
  5.2204598E-03  5.4881200E-03   9.786208       59.14148    
  5.4881200E-03  5.7695000E-03   13.67423       99.00000    
  5.7695000E-03  5.9155500E-03   0.000000       0.000000    
  5.9155500E-03  6.0653100E-03   0.000000       0.000000    
  6.0653100E-03  6.2188501E-03   0.000000       0.000000    
  6.2188501E-03  6.3762800E-03   0.000000       0.000000    
  6.3762800E-03  6.5377001E-03   2.704949       99.00000    
  6.5377001E-03  6.5923799E-03   0.000000       0.000000    
  6.5923799E-03  6.6475999E-03   0.000000       0.000000    
  6.6475999E-03  6.7031998E-03   0.000000       0.000000    
  6.7031998E-03  6.8728901E-03   0.000000       0.000000    
  6.8728901E-03  7.0468802E-03   0.000000       0.000000    
  7.0468802E-03  7.2252699E-03   0.000000       0.000000    
  7.2252699E-03  7.4081798E-03   0.000000       0.000000    
  7.4081798E-03  7.5957198E-03   0.000000       0.000000    
  7.5957198E-03  7.7880099E-03   0.000000       0.000000    
  7.7880099E-03  7.9851598E-03   18.52860       63.31436    
  7.9851598E-03  8.1873098E-03   1.872673       77.38565    
  8.1873098E-03  8.3945701E-03   0.000000       0.000000    
  8.3945701E-03  8.6070802E-03   0.000000       0.000000    
  8.6070802E-03  8.8249696E-03   1.021976       77.38565    
  8.8249696E-03  9.0483697E-03   0.000000       0.000000    
  9.0483697E-03  9.2774397E-03   0.000000       0.000000    
  9.2774397E-03  9.5122904E-03   0.000000       0.000000    
  9.5122904E-03  9.7530996E-03   0.000000       0.000000    
  9.7530996E-03  9.9999998E-03   0.000000       0.000000    
  9.9999998E-03  1.0253200E-02   0.000000       0.000000    
  1.0253200E-02  1.0512700E-02   2.943010       99.00000    
  1.0512700E-02  1.0778800E-02   0.000000       0.000000    
  1.0778800E-02  1.1051700E-02   2.215684       99.00000    
  1.1051700E-02  1.1331500E-02   0.000000       0.000000    
  1.1331500E-02  1.1618300E-02   0.000000       0.000000    
  1.1618300E-02  1.1912500E-02   0.000000       0.000000    
  1.1912500E-02  1.2214000E-02   0.000000       0.000000    
  1.2214000E-02  1.2523200E-02   0.000000       0.000000    
  1.2523200E-02  1.2840200E-02   0.000000       0.000000    
  1.2840200E-02  1.3165300E-02   0.000000       0.000000    
  1.3165300E-02  1.3498600E-02   0.000000       0.000000    
  1.3498600E-02  1.3840300E-02   0.000000       0.000000    
  1.3840300E-02  1.4190700E-02   0.000000       0.000000    
  1.4190700E-02  1.4549900E-02   0.000000       0.000000    
  1.4549900E-02  1.4918300E-02   0.000000       0.000000    
  1.4918300E-02  1.5295900E-02   0.000000       0.000000    
  1.5295900E-02  1.5683100E-02   0.000000       0.000000    
  1.5683100E-02  1.6080100E-02   0.000000       0.000000    
  1.6080100E-02  1.6487200E-02   0.000000       0.000000    
  1.6487200E-02  1.6904600E-02   0.000000       0.000000    
  1.6904600E-02  1.7332500E-02   0.000000       0.000000    
  1.7332500E-02  1.7771300E-02   0.000000       0.000000    
  1.7771300E-02  1.8221200E-02   0.000000       0.000000    
  1.8221200E-02  1.8682500E-02   0.000000       0.000000    
  1.8682500E-02  1.9155400E-02   0.000000       0.000000    
  1.9155400E-02  1.9640300E-02   0.000000       0.000000    
  1.9640300E-02  2.0000000E-02   0.000000       0.000000    


 # Detector n:  2  MB3a_Nhi  
 # N. of energy intervals 100
  2.0000000E-02  2.1778084E-02   0.000000       0.000000    
  2.1778084E-02  2.3714250E-02   0.000000       0.000000    
  2.3714250E-02  2.5822546E-02  0.3022338       99.00000    
  2.5822546E-02  2.8118281E-02   0.000000       0.000000    
  2.8118281E-02  3.0618116E-02  0.2032237       55.15569    
  3.0618116E-02  3.3340197E-02   0.000000       0.000000    
  3.3340197E-02  3.6304284E-02   0.000000       0.000000    
  3.6304284E-02  3.9531890E-02  0.1790082       77.38565    
  3.9531890E-02  4.3046441E-02   0.000000       0.000000    
  4.3046441E-02  4.6873454E-02   0.000000       0.000000    
  4.6873454E-02  5.1040705E-02  0.2634297       77.41512    
  5.1040705E-02  5.5578440E-02  7.8891821E-02   77.38565    
  5.5578440E-02  6.0519602E-02   0.000000       0.000000    
  6.0519602E-02  6.5900050E-02  4.5428541E-02   99.00000    
  6.5900050E-02  7.1758844E-02   0.000000       0.000000    
  7.1758844E-02  7.8138515E-02   0.000000       0.000000    
  7.8138515E-02  8.5085362E-02  0.1395451       77.38565    
  8.5085362E-02  9.2649810E-02   0.000000       0.000000    
  9.2649810E-02  0.1008868      7.4225850E-02   99.00000    
  0.1008868      0.1098560      6.6772036E-02   77.38565    
  0.1098560      0.1196227      6.0404647E-02   77.38565    
  0.1196227      0.1302577       0.000000       0.000000    
  0.1302577      0.1418381      0.1810792       51.09455    
  0.1418381      0.1544482      4.5442101E-02   99.00000    
  0.1544482      0.1681793      4.0589515E-02   99.00000    
  0.1681793      0.1831311       0.000000       0.000000    
  0.1831311      0.1994122      3.4493383E-02   77.38565    
  0.1994122      0.2171408      3.4513932E-02   99.00000    
  0.2171408      0.2364456       0.000000       0.000000    
  0.2364456      0.2574666       0.000000       0.000000    
  0.2574666      0.2803565      2.4899058E-02   77.38565    
  0.2803565      0.3052814       0.000000       0.000000    
  0.3052814      0.3324222       0.000000       0.000000    
  0.3324222      0.3619759       0.000000       0.000000    
  0.3619759      0.3941571       0.000000       0.000000    
  0.3941571      0.4291994       0.000000       0.000000    
  0.4291994      0.4673570       0.000000       0.000000    
  0.4673570      0.5089071       0.000000       0.000000    
  0.5089071      0.5541511       0.000000       0.000000    
  0.5541511      0.6034175       0.000000       0.000000    
  0.6034175      0.6570638       0.000000       0.000000    
  0.6570638      0.7154796       0.000000       0.000000    
  0.7154796      0.7790889       0.000000       0.000000    
  0.7790889      0.8483531       0.000000       0.000000    
  0.8483531      0.9237754       0.000000       0.000000    
  0.9237754       1.005903       0.000000       0.000000    
   1.005903       1.095332       0.000000       0.000000    
   1.095332       1.192712       0.000000       0.000000    
   1.192712       1.298749       0.000000       0.000000    
   1.298749       1.414213       0.000000       0.000000    
   1.414213       1.539943       0.000000       0.000000    
   1.539943       1.676850       0.000000       0.000000    
   1.676850       1.825929       0.000000       0.000000    
   1.825929       1.988262       0.000000       0.000000    
   1.988262       2.165027       0.000000       0.000000    
   2.165027       2.357507       0.000000       0.000000    
   2.357507       2.567100       0.000000       0.000000    
   2.567100       2.795326       0.000000       0.000000    
   2.795326       3.043842       0.000000       0.000000    
   3.043842       3.314453       0.000000       0.000000    
   3.314453       3.609122       0.000000       0.000000    
   3.609122       3.929988       0.000000       0.000000    
   3.929988       4.279381       0.000000       0.000000    
   4.279381       4.659836       0.000000       0.000000    
   4.659836       5.074115       0.000000       0.000000    
   5.074115       5.525226       0.000000       0.000000    
   5.525226       6.016442       0.000000       0.000000    
   6.016442       6.551329       0.000000       0.000000    
   6.551329       7.133770       0.000000       0.000000    
   7.133770       7.767992       0.000000       0.000000    
   7.767992       8.458600       0.000000       0.000000    
   8.458600       9.210606       0.000000       0.000000    
   9.210606       10.02947       0.000000       0.000000    
   10.02947       10.92113       0.000000       0.000000    
   10.92113       11.89207       0.000000       0.000000    
   11.89207       12.94932       0.000000       0.000000    
   12.94932       14.10057       0.000000       0.000000    
   14.10057       15.35417       0.000000       0.000000    
   15.35417       16.71922       0.000000       0.000000    
   16.71922       18.20563       0.000000       0.000000    
   18.20563       19.82419       0.000000       0.000000    
   19.82419       21.58665       0.000000       0.000000    
   21.58665       23.50579       0.000000       0.000000    
   23.50579       25.59556       0.000000       0.000000    
   25.59556       27.87111       0.000000       0.000000    
   27.87111       30.34897       0.000000       0.000000    
   30.34897       33.04712       0.000000       0.000000    
   33.04712       35.98515       0.000000       0.000000    
   35.98515       39.18439       0.000000       0.000000    
   39.18439       42.66805       0.000000       0.000000    
   42.66805       46.46142       0.000000       0.000000    
   46.46142       50.59204       0.000000       0.000000    
   50.59204       55.08988       0.000000       0.000000    
   55.08988       59.98761       0.000000       0.000000    
   59.98761       65.32076       0.000000       0.000000    
   65.32076       71.12806       0.000000       0.000000    
   71.12806       77.45164       0.000000       0.000000    
   77.45164       84.33743       0.000000       0.000000    
   84.33743       91.83538       0.000000       0.000000    
   91.83538       99.99994       0.000000       0.000000    


 # Detector n:  3  MB3a_ph   
 # N. of energy intervals 100
  9.9999997E-06  1.1748975E-05   209.7474       77.38565    
  1.1748975E-05  1.3803842E-05   0.000000       0.000000    
  1.3803842E-05  1.6218100E-05   0.000000       0.000000    
  1.6218100E-05  1.9054607E-05   167.6485       99.00000    
  1.9054607E-05  2.2387210E-05   0.000000       0.000000    
  2.2387210E-05  2.6302680E-05   0.000000       0.000000    
  2.6302680E-05  3.0902953E-05   0.000000       0.000000    
  3.0902953E-05  3.6307803E-05   114.6624       99.00000    
  3.6307803E-05  4.2657950E-05   294.1285       61.12840    
  4.2657950E-05  5.0118721E-05   678.8217       45.17167    
  5.0118721E-05  5.8884361E-05   2105.595       40.32366    
  5.8884361E-05  6.9183094E-05   1628.219       25.02576    
  6.9183094E-05  8.1283048E-05   2496.332       12.50745    
  8.1283048E-05  9.5499250E-05   3842.155       18.00918    
  9.5499250E-05  1.1220184E-04   3887.638       21.66483    
  1.1220184E-04  1.3182567E-04   4064.426       12.58466    
  1.3182567E-04  1.5488165E-04   3854.406       21.68256    
  1.5488165E-04  1.8197007E-04   2836.638       12.85959    
  1.8197007E-04  2.1379619E-04   2143.050       11.54789    
  2.1379619E-04  2.5118861E-04   2213.737       17.28783    
  2.5118861E-04  2.9512090E-04   1414.136       9.777999    
  2.9512090E-04  3.4673681E-04   1631.081       15.79471    
  3.4673681E-04  4.0738023E-04   994.7019       15.70076    
  4.0738023E-04  4.7863004E-04   588.7651       13.37381    
  4.7863004E-04  5.6234124E-04   1129.577       12.41573    
  5.6234124E-04  6.6069339E-04   328.3087       19.23245    
  6.6069339E-04  7.7624706E-04   316.2641       26.12306    
  7.7624706E-04  9.1201073E-04   206.2045       18.39098    
  9.1201073E-04  1.0715192E-03   168.0871       24.38793    
  1.0715192E-03  1.2589253E-03   110.1844       18.74270    
  1.2589253E-03  1.4791082E-03   133.4866       24.69678    
  1.4791082E-03  1.7378007E-03   122.6743       16.09037    
  1.7378007E-03  2.0417378E-03   99.69072       17.68630    
  2.0417378E-03  2.3988327E-03   123.7523       22.90834    
  2.3988327E-03  2.8183826E-03   124.4466       31.75331    
  2.8183826E-03  3.3113109E-03   49.08499       20.20381    
  3.3113109E-03  3.8904510E-03   38.05100       19.60905    
  3.8904510E-03  4.5708814E-03   49.75191       18.69522    
  4.5708814E-03  5.3703170E-03   38.96093       15.68130    
  5.3703170E-03  6.3095726E-03   40.16749       16.04432    
  6.3095726E-03  7.4131014E-03   15.00205       20.89149    
  7.4131014E-03  8.7096347E-03   86.71702       11.46972    
  8.7096347E-03  1.0232928E-02   4.235385       38.13681    
  1.0232928E-02  1.2022642E-02  0.3384467       99.00000    
  1.2022642E-02  1.4125373E-02   0.000000       0.000000    
  1.4125373E-02  1.6595867E-02   0.000000       0.000000    
  1.6595867E-02  1.9498443E-02   0.000000       0.000000    
  1.9498443E-02  2.2908673E-02   0.000000       0.000000    
  2.2908673E-02  2.6915343E-02   0.000000       0.000000    
  2.6915343E-02  3.1622771E-02   0.000000       0.000000    
  3.1622771E-02  3.7153516E-02   0.000000       0.000000    
  3.7153516E-02  4.3651577E-02  5.7771478E-02   77.38565    
  4.3651577E-02  5.1286127E-02   0.000000       0.000000    
  5.1286127E-02  6.0255948E-02   0.000000       0.000000    
  6.0255948E-02  7.0794567E-02   0.000000       0.000000    
  7.0794567E-02  8.3176360E-02   0.000000       0.000000    
  8.3176360E-02  9.7723700E-02   0.000000       0.000000    
  9.7723700E-02  0.1148153       0.000000       0.000000    
  0.1148153      0.1348963       0.000000       0.000000    
  0.1348963      0.1584893       0.000000       0.000000    
  0.1584893      0.1862087       0.000000       0.000000    
  0.1862087      0.2187761       0.000000       0.000000    
  0.2187761      0.2570395       0.000000       0.000000    
  0.2570395      0.3019951       0.000000       0.000000    
  0.3019951      0.3548133       0.000000       0.000000    
  0.3548133      0.4168693       0.000000       0.000000    
  0.4168693      0.4897787       0.000000       0.000000    
  0.4897787      0.5754398       0.000000       0.000000    
  0.5754398      0.6760828       0.000000       0.000000    
  0.6760828      0.7943280       0.000000       0.000000    
  0.7943280      0.9332541       0.000000       0.000000    
  0.9332541       1.096478       0.000000       0.000000    
   1.096478       1.288249       0.000000       0.000000    
   1.288249       1.513561       0.000000       0.000000    
   1.513561       1.778279       0.000000       0.000000    
   1.778279       2.089296       0.000000       0.000000    
   2.089296       2.454708       0.000000       0.000000    
   2.454708       2.884031       0.000000       0.000000    
   2.884031       3.388441       0.000000       0.000000    
   3.388441       3.981071       0.000000       0.000000    
   3.981071       4.677350       0.000000       0.000000    
   4.677350       5.495407       0.000000       0.000000    
   5.495407       6.456541       0.000000       0.000000    
   6.456541       7.585774       0.000000       0.000000    
   7.585774       8.912507       0.000000       0.000000    
   8.912507       10.47128       0.000000       0.000000    
   10.47128       12.30268       0.000000       0.000000    
   12.30268       14.45439       0.000000       0.000000    
   14.45439       16.98243       0.000000       0.000000    
   16.98243       19.95262       0.000000       0.000000    
   19.95262       23.44228       0.000000       0.000000    
   23.44228       27.54228       0.000000       0.000000    
   27.54228       32.35936       0.000000       0.000000    
   32.35936       38.01893       0.000000       0.000000    
   38.01893       44.66835       0.000000       0.000000    
   44.66835       52.48073       0.000000       0.000000    
   52.48073       61.65948       0.000000       0.000000    
   61.65948       72.44357       0.000000       0.000000    
   72.44357       85.11378       0.000000       0.000000    
   85.11378       99.99997       0.000000       0.000000    


 # Detector n:  4  MB3a_ep   
 # N. of energy intervals 100
  9.9999997E-06  1.1748975E-05   0.000000       0.000000    
  1.1748975E-05  1.3803842E-05   0.000000       0.000000    
  1.3803842E-05  1.6218100E-05   0.000000       0.000000    
  1.6218100E-05  1.9054607E-05   0.000000       0.000000    
  1.9054607E-05  2.2387210E-05   0.000000       0.000000    
  2.2387210E-05  2.6302680E-05   0.000000       0.000000    
  2.6302680E-05  3.0902953E-05   26.62170       63.01394    
  3.0902953E-05  3.6307803E-05   34.77845       61.32069    
  3.6307803E-05  4.2657950E-05   38.95587       62.02822    
  4.2657950E-05  5.0118721E-05   18.60066       99.00000    
  5.0118721E-05  5.8884361E-05   38.51462       63.31288    
  5.8884361E-05  6.9183094E-05   42.11003       70.51933    
  6.9183094E-05  8.1283048E-05   62.12447       61.77492    
  8.1283048E-05  9.5499250E-05   32.11801       93.96687    
  9.5499250E-05  1.1220184E-04   51.28221       70.96635    
  1.1220184E-04  1.3182567E-04   57.72548       68.95159    
  1.3182567E-04  1.5488165E-04   86.05856       77.20248    
  1.5488165E-04  1.8197007E-04   35.82590       79.53053    
  1.8197007E-04  2.1379619E-04   37.13892       93.23595    
  2.1379619E-04  2.5118861E-04   35.36896       99.00000    
  2.5118861E-04  2.9512090E-04   44.98382       99.00000    
  2.9512090E-04  3.4673681E-04   60.74290       66.98893    
  3.4673681E-04  4.0738023E-04   73.94969       67.77974    
  4.0738023E-04  4.7863004E-04   40.80505       68.80762    
  4.7863004E-04  5.6234124E-04   57.90222       57.28141    
  5.6234124E-04  6.6069339E-04   30.77928       51.96119    
  6.6069339E-04  7.7624706E-04   21.99328       77.38565    
  7.7624706E-04  9.1201073E-04   14.34266       74.14138    
  9.1201073E-04  1.0715192E-03   10.30705       44.96863    
  1.0715192E-03  1.2589253E-03   21.24361       60.18669    
  1.2589253E-03  1.4791082E-03   11.28388       57.51062    
  1.4791082E-03  1.7378007E-03   3.837099       57.32844    
  1.7378007E-03  2.0417378E-03   2.479022       53.63099    
  2.0417378E-03  2.3988327E-03   16.67838       53.12288    
  2.3988327E-03  2.8183826E-03   0.000000       0.000000    
  2.8183826E-03  3.3113109E-03   1.754793       68.04083    
  3.3113109E-03  3.8904510E-03   4.229330       51.15421    
  3.8904510E-03  4.5708814E-03   3.720671       48.40913    
  4.5708814E-03  5.3703170E-03   7.424823       39.40575    
  5.3703170E-03  6.3095726E-03  0.2534104       99.00000    
  6.3095726E-03  7.4131014E-03  0.4881016       95.54918    
  7.4131014E-03  8.7096347E-03  0.2038862       77.38565    
  8.7096347E-03  1.0232928E-02   0.000000       0.000000    
  1.0232928E-02  1.2022642E-02   0.000000       0.000000    
  1.2022642E-02  1.4125373E-02   0.000000       0.000000    
  1.4125373E-02  1.6595867E-02   0.000000       0.000000    
  1.6595867E-02  1.9498443E-02   0.000000       0.000000    
  1.9498443E-02  2.2908673E-02   0.000000       0.000000    
  2.2908673E-02  2.6915343E-02  9.1480963E-02   77.38565    
  2.6915343E-02  3.1622771E-02   0.000000       0.000000    
  3.1622771E-02  3.7153516E-02  3.7129328E-02   77.38565    
  3.7153516E-02  4.3651577E-02   0.000000       0.000000    
  4.3651577E-02  5.1286127E-02   0.000000       0.000000    
  5.1286127E-02  6.0255948E-02   0.000000       0.000000    
  6.0255948E-02  7.0794567E-02   0.000000       0.000000    
  7.0794567E-02  8.3176360E-02   0.000000       0.000000    
  8.3176360E-02  9.7723700E-02   0.000000       0.000000    
  9.7723700E-02  0.1148153       0.000000       0.000000    
  0.1148153      0.1348963       0.000000       0.000000    
  0.1348963      0.1584893       0.000000       0.000000    
  0.1584893      0.1862087       0.000000       0.000000    
  0.1862087      0.2187761       0.000000       0.000000    
  0.2187761      0.2570395       0.000000       0.000000    
  0.2570395      0.3019951       0.000000       0.000000    
  0.3019951      0.3548133       0.000000       0.000000    
  0.3548133      0.4168693       0.000000       0.000000    
  0.4168693      0.4897787       0.000000       0.000000    
  0.4897787      0.5754398       0.000000       0.000000    
  0.5754398      0.6760828       0.000000       0.000000    
  0.6760828      0.7943280       0.000000       0.000000    
  0.7943280      0.9332541       0.000000       0.000000    
  0.9332541       1.096478       0.000000       0.000000    
   1.096478       1.288249       0.000000       0.000000    
   1.288249       1.513561       0.000000       0.000000    
   1.513561       1.778279       0.000000       0.000000    
   1.778279       2.089296       0.000000       0.000000    
   2.089296       2.454708       0.000000       0.000000    
   2.454708       2.884031       0.000000       0.000000    
   2.884031       3.388441       0.000000       0.000000    
   3.388441       3.981071       0.000000       0.000000    
   3.981071       4.677350       0.000000       0.000000    
   4.677350       5.495407       0.000000       0.000000    
   5.495407       6.456541       0.000000       0.000000    
   6.456541       7.585774       0.000000       0.000000    
   7.585774       8.912507       0.000000       0.000000    
   8.912507       10.47128       0.000000       0.000000    
   10.47128       12.30268       0.000000       0.000000    
   12.30268       14.45439       0.000000       0.000000    
   14.45439       16.98243       0.000000       0.000000    
   16.98243       19.95262       0.000000       0.000000    
   19.95262       23.44228       0.000000       0.000000    
   23.44228       27.54228       0.000000       0.000000    
   27.54228       32.35936       0.000000       0.000000    
   32.35936       38.01893       0.000000       0.000000    
   38.01893       44.66835       0.000000       0.000000    
   44.66835       52.48073       0.000000       0.000000    
   52.48073       61.65948       0.000000       0.000000    
   61.65948       72.44357       0.000000       0.000000    
   72.44357       85.11378       0.000000       0.000000    
   85.11378       99.99997       0.000000       0.000000    
