 # Detector n:  1  MB1a_Nlow 
 # N. of energy intervals 260
  1.0000100E-14  2.0000000E-13   0.000000       0.000000    
  2.0000000E-13  2.9297300E-13   0.000000       0.000000    
  2.9297300E-13  4.2916701E-13  9.9387412E+09   77.38565    
  4.2916701E-13  6.2867300E-13  8.1874545E+09   77.38565    
  6.2867300E-13  9.2092198E-13  5.1506386E+09   99.00000    
  9.2092198E-13  1.3490300E-12  2.3527231E+10   39.17923    
  1.3490300E-12  1.9761499E-12  4.1663853E+10   27.66501    
  1.9761499E-12  2.8947901E-12  4.7344427E+10   20.69510    
  2.8947901E-12  4.2404799E-12  1.3359499E+11   22.44554    
  4.2404799E-12  6.2117499E-12  1.6985820E+11   12.88543    
  6.2117499E-12  9.0993801E-12  1.8574021E+11   10.09437    
  9.0993801E-12  1.3329400E-11  2.4186511E+11   6.282600    
  1.3329400E-11  1.9525799E-11  3.3095654E+11   5.159472    
  1.9525799E-11  2.8602700E-11  3.8023286E+11   4.456402    
  2.8602700E-11  4.1899099E-11  3.7455960E+11   3.483470    
  4.1899099E-11  6.1376598E-11  3.2855146E+11   3.377207    
  6.1376598E-11  8.9908601E-11  2.2989840E+11   3.376267    
  8.9908601E-11  1.3170399E-10  1.1712688E+11   3.854638    
  1.3170399E-10  1.9292901E-10  5.1189309E+10   3.910228    
  1.9292901E-10  2.8261499E-10  2.6477748E+10   4.744787    
  2.8261499E-10  4.1399401E-10  1.6393335E+10   4.912068    
  4.1399401E-10  5.3157900E-10  1.1279592E+10   5.391764    
  5.3157900E-10  6.2506200E-10  9.0118431E+09   7.667238    
  6.2506200E-10  6.8256001E-10  7.4478853E+09   9.495184    
  6.8256001E-10  8.3368101E-10  6.2613284E+09   6.766456    
  8.3368101E-10  8.7642499E-10  4.5756068E+09   12.70357    
  8.7642499E-10  1.1253500E-09  4.6690908E+09   6.348847    
  1.1253500E-09  1.4449800E-09  4.6279076E+09   5.492831    
  1.4449800E-09  1.8553900E-09  3.2144420E+09   5.946690    
  1.8553900E-09  2.3823701E-09  2.2290012E+09   5.170206    
  2.3823701E-09  3.0590199E-09  1.9047359E+09   7.024064    
  3.0590199E-09  3.9278598E-09  1.4172172E+09   6.387506    
  3.9278598E-09  5.0434799E-09  1.0779887E+09   5.824481    
  5.0434799E-09  6.4759500E-09  9.5566643E+08   5.970963    
  6.4759500E-09  8.3152898E-09  6.7315917E+08   5.592173    
  8.3152898E-09  1.0677000E-08  5.9939616E+08   5.591405    
  1.0677000E-08  1.3709600E-08  4.1787869E+08   6.304047    
  1.3709600E-08  1.7603501E-08  3.2923520E+08   5.793990    
  1.7603501E-08  2.2603301E-08  2.8256976E+08   6.147243    
  2.2603301E-08  2.9023200E-08  2.1855389E+08   5.902755    
  2.9023200E-08  3.7266499E-08  1.8376418E+08   5.872305    
  3.7266499E-08  4.7851199E-08  1.3681750E+08   6.833669    
  4.7851199E-08  6.1442101E-08  1.0854935E+08   5.945302    
  6.1442101E-08  7.8893301E-08  7.6866272E+07   5.285077    
  7.8893301E-08  1.0130100E-07  6.3635800E+07   6.014819    
  1.0130100E-07  1.3007300E-07  5.1796628E+07   5.665263    
  1.3007300E-07  1.6701701E-07  3.2748104E+07   5.981951    
  1.6701701E-07  2.1445400E-07  2.9479490E+07   5.632935    
  2.1445400E-07  2.7536399E-07  2.3535174E+07   5.519673    
  2.7536399E-07  3.5357499E-07  1.7458166E+07   6.070762    
  3.5357499E-07  4.5399901E-07  1.3500206E+07   5.922801    
  4.5399901E-07  5.8294700E-07  1.1555174E+07   5.838611    
  5.8294700E-07  7.4851800E-07   8236848.       5.855502    
  7.4851800E-07  9.6111603E-07   6182699.       5.456769    
  9.6111603E-07  1.2341000E-06   4763896.       6.957280    
  1.2341000E-06  1.3638900E-06   4404732.       8.234536    
  1.3638900E-06  1.5073300E-06   4052431.       7.595308    
  1.5073300E-06  1.5846100E-06   3782370.       10.53208    
  1.5846100E-06  1.6658601E-06   3448723.       11.81221    
  1.6658601E-06  1.8410600E-06   3209787.       9.720224    
  1.8410600E-06  2.0346799E-06   2946787.       9.076112    
  2.0346799E-06  2.2486699E-06   2532448.       8.487357    
  2.2486699E-06  2.4851699E-06   2205615.       9.871294    
  2.4851699E-06  2.6125899E-06   2330536.       12.53239    
  2.6125899E-06  2.7465401E-06   2067917.       11.20446    
  2.7465401E-06  2.8634900E-06   2030049.       11.76340    
  2.8634900E-06  3.0353899E-06   1754120.       8.961147    
  3.0353899E-06  3.3546301E-06   1616788.       8.748198    
  3.3546301E-06  3.7074401E-06   1404517.       8.155283    
  3.7074401E-06  4.0973500E-06   1642351.       7.602353    
  4.0973500E-06  4.3074201E-06   1692749.       12.09535    
  4.3074201E-06  4.5282700E-06   1240865.       11.83790    
  4.5282700E-06  5.0045101E-06   1259877.       10.26371    
  5.0045101E-06  5.5308401E-06   1207302.       8.199382    
  5.5308401E-06  6.2672698E-06   926110.4       7.526781    
  6.2672698E-06  7.1017398E-06   814223.6       8.067999    
  7.1017398E-06  8.0473301E-06   730949.4       8.587971    
  8.0473301E-06  9.1188203E-06   588406.9       7.688828    
  9.1188203E-06  1.0333000E-05   561656.4       8.161436    
  1.0333000E-05  1.1708800E-05   436205.9       8.390373    
  1.1708800E-05  1.3267800E-05   436719.7       8.446262    
  1.3267800E-05  1.5034400E-05   372342.5       7.908361    
  1.5034400E-05  1.7036200E-05   337780.4       8.883216    
  1.7036200E-05  1.9304500E-05   293135.5       7.678417    
  1.9304500E-05  2.1334799E-05   319186.4       7.932117    
  2.1334799E-05  2.1874899E-05   292416.8       12.48113    
  2.1874899E-05  2.3578599E-05   321071.3       7.695003    
  2.3578599E-05  2.4175501E-05   434786.8       10.67600    
  2.4175501E-05  2.4787500E-05   495551.8       10.07077    
  2.4787500E-05  2.6058400E-05   484553.3       7.203930    
  2.6058400E-05  2.8087899E-05   249581.6       9.500627    
  2.8087899E-05  3.1827800E-05   233051.4       7.318211    
  3.1827800E-05  3.4306700E-05   134681.8       11.17256    
  3.4306700E-05  3.5175199E-05   107447.9       18.92301    
  3.5175199E-05  3.6065601E-05   95099.94       17.19841    
  3.6065601E-05  4.0867701E-05   106907.7       8.816931    
  4.0867701E-05  4.6309200E-05   108094.7       7.973725    
  4.6309200E-05  5.2475199E-05   114652.9       7.642428    
  5.2475199E-05  5.6562199E-05   111791.4       9.365432    
  5.6562199E-05  5.9462200E-05   101984.6       10.70632    
  5.9462200E-05  6.2510902E-05   97807.88       10.12968    
  6.2510902E-05  6.7379500E-05   113022.5       9.087783    
  6.7379500E-05  7.6350902E-05   133783.8       5.754354    
  7.6350902E-05  8.6516899E-05   75987.22       6.830663    
  8.6516899E-05  9.8036500E-05   39943.45       7.665513    
  9.8036500E-05  1.1109000E-04   56481.15       7.471449    
  1.1109000E-04  1.1678600E-04   67776.28       9.065245    
  1.1678600E-04  1.2277300E-04   54597.30       7.862270    
  1.2277300E-04  1.2906799E-04   95352.12       9.189879    
  1.2906799E-04  1.3568600E-04   75568.56       10.50805    
  1.3568600E-04  1.4264201E-04   41096.29       12.70502    
  1.4264201E-04  1.4995600E-04   36103.35       11.21331    
  1.4995600E-04  1.5764400E-04   39343.61       9.991042    
  1.5764400E-04  1.6163501E-04   41533.05       14.72649    
  1.6163501E-04  1.6572700E-04   52198.65       11.10953    
  1.6572700E-04  1.6992200E-04   41817.38       13.75536    
  1.6992200E-04  1.7422400E-04   39048.53       13.89624    
  1.7422400E-04  1.8315599E-04   56099.46       8.982249    
  1.8315599E-04  1.9254700E-04   39382.96       11.13007    
  1.9254700E-04  2.0241900E-04   37038.40       9.101242    
  2.0241900E-04  2.1279699E-04   35506.87       10.64952    
  2.1279699E-04  2.2370800E-04   34683.93       12.43175    
  2.2370800E-04  2.3517800E-04   38150.06       11.17573    
  2.3517800E-04  2.4723500E-04   35420.61       8.224060    
  2.4723500E-04  2.5991100E-04   38852.09       9.075074    
  2.5991100E-04  2.7323700E-04   58612.82       7.489224    
  2.7323700E-04  2.8015400E-04   39971.69       21.73833    
  2.8015400E-04  2.8724599E-04   31687.76       20.68217    
  2.8724599E-04  2.9451799E-04   25511.38       10.06651    
  2.9451799E-04  3.0197401E-04   43545.46       9.608480    
  3.0197401E-04  3.0961799E-04   48624.14       7.801143    
  3.0961799E-04  3.1745600E-04   45783.13       10.80736    
  3.1745600E-04  3.3373301E-04   20042.12       11.65185    
  3.3373301E-04  3.5084400E-04   33117.34       7.465429    
  3.5084400E-04  3.6883200E-04   23294.83       8.174375    
  3.6883200E-04  3.8774201E-04   24169.62       8.260803    
  3.8774201E-04  4.0762199E-04   18789.40       10.47684    
  4.0762199E-04  4.2852099E-04   14141.03       13.64036    
  4.2852099E-04  4.5049199E-04   15157.96       9.859393    
  4.5049199E-04  4.7358900E-04   18032.50       9.426927    
  4.7358900E-04  4.9787102E-04   15266.70       9.250809    
  4.9787102E-04  5.1047403E-04   17546.68       11.92472    
  5.1047403E-04  5.2339700E-04   24234.82       12.84264    
  5.2339700E-04  5.3664698E-04   16374.82       13.13599    
  5.3664698E-04  5.5023201E-04   16650.50       10.36419    
  5.5023201E-04  5.7844300E-04   16451.11       8.651908    
  5.7844300E-04  6.0810102E-04   19630.75       9.906049    
  6.0810102E-04  6.3927902E-04   19570.46       7.419374    
  6.3927902E-04  6.7205500E-04   14849.28       8.121530    
  6.7205500E-04  7.0651202E-04   14594.54       9.058724    
  7.0651202E-04  7.4273598E-04   9734.475       8.887426    
  7.4273598E-04  7.8081700E-04   11410.56       10.23030    
  7.8081700E-04  8.2085002E-04   6988.458       9.107887    
  8.2085002E-04  8.6293602E-04   10778.75       9.952023    
  8.6293602E-04  9.0717903E-04   8054.838       10.05089    
  9.0717903E-04  9.5369201E-04   10289.76       9.530081    
  9.5369201E-04  9.6163998E-04   11374.30       14.70103    
  9.6163998E-04  9.7783399E-04   9570.485       17.85735    
  9.7783399E-04  1.0025901E-03   7048.951       13.97923    
  1.0025901E-03  1.0539900E-03   6879.864       9.203527    
  1.0539900E-03  1.1080300E-03   7177.685       9.963879    
  1.1080300E-03  1.1648400E-03   6297.452       9.748925    
  1.1648400E-03  1.1943300E-03   5873.392       12.60525    
  1.1943300E-03  1.2245600E-03   6394.206       14.54338    
  1.2245600E-03  1.2873500E-03   5185.797       9.624561    
  1.2873500E-03  1.3533500E-03   4894.526       12.79177    
  1.3533500E-03  1.4227401E-03   4360.821       11.21654    
  1.4227401E-03  1.4956900E-03   3741.317       12.37208    
  1.4956900E-03  1.5335500E-03   4053.168       12.53977    
  1.5335500E-03  1.5723699E-03   2328.010       19.45765    
  1.5723699E-03  1.6121800E-03   4006.028       12.90436    
  1.6121800E-03  1.6529900E-03   4042.843       16.64569    
  1.6529900E-03  1.7377400E-03   3076.604       10.31792    
  1.7377400E-03  1.8268300E-03   2586.002       10.88070    
  1.8268300E-03  1.8730800E-03   3028.327       23.52870    
  1.8730800E-03  1.9205000E-03   3004.848       28.51070    
  1.9205000E-03  1.9691200E-03   1698.113       22.95878    
  1.9691200E-03  2.0189700E-03   2378.090       13.53326    
  2.0189700E-03  2.1224800E-03   2204.600       12.67762    
  2.1224800E-03  2.2313001E-03   2069.850       14.63398    
  2.2313001E-03  2.2688799E-03   1612.142       20.43007    
  2.2688799E-03  2.3068599E-03   1671.568       21.81961    
  2.3068599E-03  2.3457000E-03   1597.582       22.11406    
  2.3457000E-03  2.3652499E-03   1544.812       24.93656    
  2.3652499E-03  2.3852000E-03   1696.298       21.80424    
  2.3852000E-03  2.4251300E-03   1713.254       19.62111    
  2.4251300E-03  2.4659701E-03   1905.508       20.00662    
  2.4659701E-03  2.5923999E-03   1294.741       15.72115    
  2.5923999E-03  2.7253199E-03   1317.588       15.89269    
  2.7253199E-03  2.8650500E-03   1337.914       13.94834    
  2.8650500E-03  3.0119400E-03   848.7134       13.75702    
  3.0119400E-03  3.0881900E-03   954.9289       18.45894    
  3.0881900E-03  3.1663701E-03   1011.926       18.14271    
  3.1663701E-03  3.2465300E-03   681.6837       23.13490    
  3.2465300E-03  3.3287101E-03   736.9468       19.93898    
  3.3287101E-03  3.4993801E-03   872.1482       18.07570    
  3.4993801E-03  3.6787901E-03   906.0628       21.71942    
  3.6787901E-03  3.8674099E-03   515.1198       17.24293    
  3.8674099E-03  4.0656999E-03   544.2204       19.56087    
  4.0656999E-03  4.2741499E-03   533.4314       23.23592    
  4.2741499E-03  4.4932901E-03   481.7479       15.98548    
  4.4932901E-03  4.6070400E-03   284.0167       27.33074    
  4.6070400E-03  4.7236700E-03   328.6677       27.63915    
  4.7236700E-03  4.8432499E-03   467.5822       29.81421    
  4.8432499E-03  4.9658502E-03   430.3994       22.31772    
  4.9658502E-03  5.2204598E-03   326.9079       28.62877    
  5.2204598E-03  5.4881200E-03   276.5001       24.71942    
  5.4881200E-03  5.7695000E-03   271.6001       22.18015    
  5.7695000E-03  5.9155500E-03   215.1302       28.85568    
  5.9155500E-03  6.0653100E-03   200.4736       30.20260    
  6.0653100E-03  6.2188501E-03   198.7716       25.08203    
  6.2188501E-03  6.3762800E-03   263.2597       26.80184    
  6.3762800E-03  6.5377001E-03   185.4867       26.87937    
  6.5377001E-03  6.5923799E-03   178.3483       45.41708    
  6.5923799E-03  6.6475999E-03   290.8758       35.85773    
  6.6475999E-03  6.7031998E-03   71.85900       99.00000    
  6.7031998E-03  6.8728901E-03   174.8191       26.09344    
  6.8728901E-03  7.0468802E-03   94.98635       28.87250    
  7.0468802E-03  7.2252699E-03   237.6190       23.58755    
  7.2252699E-03  7.4081798E-03   92.72306       34.67079    
  7.4081798E-03  7.5957198E-03   164.9307       26.07150    
  7.5957198E-03  7.7880099E-03   88.82157       25.30439    
  7.7880099E-03  7.9851598E-03   106.3052       33.13140    
  7.9851598E-03  8.1873098E-03   80.74331       35.60785    
  8.1873098E-03  8.3945701E-03   105.2414       30.26465    
  8.3945701E-03  8.6070802E-03   49.19590       56.79436    
  8.6070802E-03  8.8249696E-03   83.62144       31.81876    
  8.8249696E-03  9.0483697E-03   136.0431       60.93874    
  9.0483697E-03  9.2774397E-03   131.7431       29.52190    
  9.2774397E-03  9.5122904E-03   108.1177       50.14167    
  9.5122904E-03  9.7530996E-03   66.57676       34.14327    
  9.7530996E-03  9.9999998E-03   91.78383       29.36898    
  9.9999998E-03  1.0253200E-02   100.1745       36.62616    
  1.0253200E-02  1.0512700E-02   86.20135       40.27210    
  1.0512700E-02  1.0778800E-02   53.46728       38.11568    
  1.0778800E-02  1.1051700E-02   56.79340       35.72829    
  1.1051700E-02  1.1331500E-02   75.49133       35.98783    
  1.1331500E-02  1.1618300E-02   113.4758       28.22372    
  1.1618300E-02  1.1912500E-02   136.1834       25.28895    
  1.1912500E-02  1.2214000E-02   75.65417       29.05664    
  1.2214000E-02  1.2523200E-02   71.74404       26.02600    
  1.2523200E-02  1.2840200E-02   96.74462       46.69243    
  1.2840200E-02  1.3165300E-02   74.35978       37.47922    
  1.3165300E-02  1.3498600E-02   97.04121       25.32803    
  1.3498600E-02  1.3840300E-02   113.6269       36.76759    
  1.3840300E-02  1.4190700E-02   50.15648       33.23815    
  1.4190700E-02  1.4549900E-02   78.40122       35.51500    
  1.4549900E-02  1.4918300E-02   51.06697       31.58472    
  1.4918300E-02  1.5295900E-02   93.50394       26.14600    
  1.5295900E-02  1.5683100E-02   21.49222       36.64549    
  1.5683100E-02  1.6080100E-02   66.75015       30.58323    
  1.6080100E-02  1.6487200E-02   57.00611       41.11309    
  1.6487200E-02  1.6904600E-02   73.27502       30.13154    
  1.6904600E-02  1.7332500E-02   61.81583       25.82619    
  1.7332500E-02  1.7771300E-02   63.88076       32.00637    
  1.7771300E-02  1.8221200E-02   67.14422       26.91191    
  1.8221200E-02  1.8682500E-02   25.37984       45.99490    
  1.8682500E-02  1.9155400E-02   63.82379       26.85442    
  1.9155400E-02  1.9640300E-02   33.55812       35.08106    
  1.9640300E-02  2.0000000E-02   24.99307       48.79195    


 # Detector n:  2  MB1a_Nhi  
 # N. of energy intervals 100
  2.0000000E-02  2.1778084E-02   46.69042       15.74135    
  2.1778084E-02  2.3714250E-02   37.94568       19.04836    
  2.3714250E-02  2.5822546E-02   42.20554       17.42347    
  2.5822546E-02  2.8118281E-02   39.84633       18.35006    
  2.8118281E-02  3.0618116E-02   48.48891       16.73388    
  3.0618116E-02  3.3340197E-02   38.61127       18.70878    
  3.3340197E-02  3.6304284E-02   36.48943       14.77475    
  3.6304284E-02  3.9531890E-02   47.14595       16.30227    
  3.9531890E-02  4.3046441E-02   36.47273       13.42709    
  4.3046441E-02  4.6873454E-02   35.27857       11.93446    
  4.6873454E-02  5.1040705E-02   34.70306       14.49028    
  5.1040705E-02  5.5578440E-02   26.80963       13.14143    
  5.5578440E-02  6.0519602E-02   38.50977       11.57682    
  6.0519602E-02  6.5900050E-02   34.78492       13.91746    
  6.5900050E-02  7.1758844E-02   23.70910       12.62160    
  7.1758844E-02  7.8138515E-02   28.32885       11.30798    
  7.8138515E-02  8.5085362E-02   25.44227       11.84774    
  8.5085362E-02  9.2649810E-02   19.92093       12.28402    
  9.2649810E-02  0.1008868       20.99336       12.05784    
  0.1008868      0.1098560       20.11459       12.06944    
  0.1098560      0.1196227       19.46367       12.33274    
  0.1196227      0.1302577       17.06461       10.98341    
  0.1302577      0.1418381       13.28287       13.16891    
  0.1418381      0.1544482       10.61823       11.64423    
  0.1544482      0.1681793       11.35111       11.62275    
  0.1681793      0.1831311       9.266403       12.70851    
  0.1831311      0.1994122       6.289749       14.64231    
  0.1994122      0.2171408       6.233240       15.05392    
  0.2171408      0.2364456       5.145448       14.71804    
  0.2364456      0.2574666       3.648895       17.37975    
  0.2574666      0.2803565       2.632678       18.41765    
  0.2803565      0.3052814       2.363347       19.69302    
  0.3052814      0.3324222       1.707830       24.18904    
  0.3324222      0.3619759      0.8578359       29.36667    
  0.3619759      0.3941571      0.6421559       30.98104    
  0.3941571      0.4291994      0.7536402       28.34967    
  0.4291994      0.4673570      0.4334766       45.31414    
  0.4673570      0.5089071      0.2570023       49.38675    
  0.5089071      0.5541511      0.2741284       45.10568    
  0.5541511      0.6034175      0.1226878       58.57011    
  0.6034175      0.6570638      0.3105454       31.11295    
  0.6570638      0.7154796       0.000000       0.000000    
  0.7154796      0.7790889      0.1203077       50.65869    
  0.7790889      0.8483531      6.8109371E-02   66.80491    
  0.8483531      0.9237754       0.000000       0.000000    
  0.9237754       1.005903      1.7296601E-02   99.00000    
   1.005903       1.095332       0.000000       0.000000    
   1.095332       1.192712       0.000000       0.000000    
   1.192712       1.298749      2.1733066E-02   77.38565    
   1.298749       1.414213      1.3786928E-02   99.00000    
   1.414213       1.539943       0.000000       0.000000    
   1.539943       1.676850       0.000000       0.000000    
   1.676850       1.825929       0.000000       0.000000    
   1.825929       1.988262       0.000000       0.000000    
   1.988262       2.165027       0.000000       0.000000    
   2.165027       2.357507       0.000000       0.000000    
   2.357507       2.567100       0.000000       0.000000    
   2.567100       2.795326       0.000000       0.000000    
   2.795326       3.043842       0.000000       0.000000    
   3.043842       3.314453       0.000000       0.000000    
   3.314453       3.609122       0.000000       0.000000    
   3.609122       3.929988       0.000000       0.000000    
   3.929988       4.279381       0.000000       0.000000    
   4.279381       4.659836       0.000000       0.000000    
   4.659836       5.074115       0.000000       0.000000    
   5.074115       5.525226       0.000000       0.000000    
   5.525226       6.016442       0.000000       0.000000    
   6.016442       6.551329       0.000000       0.000000    
   6.551329       7.133770       0.000000       0.000000    
   7.133770       7.767992       0.000000       0.000000    
   7.767992       8.458600       0.000000       0.000000    
   8.458600       9.210606       0.000000       0.000000    
   9.210606       10.02947       0.000000       0.000000    
   10.02947       10.92113       0.000000       0.000000    
   10.92113       11.89207       0.000000       0.000000    
   11.89207       12.94932       0.000000       0.000000    
   12.94932       14.10057       0.000000       0.000000    
   14.10057       15.35417       0.000000       0.000000    
   15.35417       16.71922       0.000000       0.000000    
   16.71922       18.20563       0.000000       0.000000    
   18.20563       19.82419       0.000000       0.000000    
   19.82419       21.58665       0.000000       0.000000    
   21.58665       23.50579       0.000000       0.000000    
   23.50579       25.59556       0.000000       0.000000    
   25.59556       27.87111       0.000000       0.000000    
   27.87111       30.34897       0.000000       0.000000    
   30.34897       33.04712       0.000000       0.000000    
   33.04712       35.98515       0.000000       0.000000    
   35.98515       39.18439       0.000000       0.000000    
   39.18439       42.66805       0.000000       0.000000    
   42.66805       46.46142       0.000000       0.000000    
   46.46142       50.59204       0.000000       0.000000    
   50.59204       55.08988       0.000000       0.000000    
   55.08988       59.98761       0.000000       0.000000    
   59.98761       65.32076       0.000000       0.000000    
   65.32076       71.12806       0.000000       0.000000    
   71.12806       77.45164       0.000000       0.000000    
   77.45164       84.33743       0.000000       0.000000    
   84.33743       91.83538       0.000000       0.000000    
   91.83538       99.99994       0.000000       0.000000    


 # Detector n:  3  MB1a_ph   
 # N. of energy intervals 100
  9.9999997E-06  1.1748975E-05   16.87921       99.00000    
  1.1748975E-05  1.3803842E-05   1054.377       67.37285    
  1.3803842E-05  1.6218100E-05   1361.776       99.00000    
  1.6218100E-05  1.9054607E-05   2566.190       51.22548    
  1.9054607E-05  2.2387210E-05   1853.603       39.99516    
  2.2387210E-05  2.6302680E-05   1860.184       32.85005    
  2.6302680E-05  3.0902953E-05   2002.128       34.41772    
  3.0902953E-05  3.6307803E-05   5031.782       23.58472    
  3.6307803E-05  4.2657950E-05   11483.29       19.27791    
  4.2657950E-05  5.0118721E-05   25625.62       14.31779    
  5.0118721E-05  5.8884361E-05   54577.49       11.88689    
  5.8884361E-05  6.9183094E-05   94552.05       7.519810    
  6.9183094E-05  8.1283048E-05   122664.8       5.211147    
  8.1283048E-05  9.5499250E-05   154856.5       4.771959    
  9.5499250E-05  1.1220184E-04   158062.8       4.601635    
  1.1220184E-04  1.3182567E-04   154634.2       3.746408    
  1.3182567E-04  1.5488165E-04   143172.8       3.908227    
  1.5488165E-04  1.8197007E-04   126939.6       3.851834    
  1.8197007E-04  2.1379619E-04   107898.3       3.924657    
  2.1379619E-04  2.5118861E-04   87426.98       3.944675    
  2.5118861E-04  2.9512090E-04   65784.99       4.234100    
  2.9512090E-04  3.4673681E-04   52240.92       4.216902    
  3.4673681E-04  4.0738023E-04   42073.15       4.297392    
  4.0738023E-04  4.7863004E-04   33486.48       4.466531    
  4.7863004E-04  5.6234124E-04   46214.77       3.606245    
  5.6234124E-04  6.6069339E-04   14901.51       4.554787    
  6.6069339E-04  7.7624706E-04   12900.63       4.988947    
  7.7624706E-04  9.1201073E-04   14167.28       4.254848    
  9.1201073E-04  1.0715192E-03   10526.51       5.458040    
  1.0715192E-03  1.2589253E-03   6714.762       4.924389    
  1.2589253E-03  1.4791082E-03   6677.541       7.570272    
  1.4791082E-03  1.7378007E-03   5210.671       5.339437    
  1.7378007E-03  2.0417378E-03   4922.474       5.189575    
  2.0417378E-03  2.3988327E-03   6295.832       5.366541    
  2.3988327E-03  2.8183826E-03   4044.074       5.073311    
  2.8183826E-03  3.3113109E-03   3057.473       5.391823    
  3.3113109E-03  3.8904510E-03   2291.409       5.821614    
  3.8904510E-03  4.5708814E-03   2370.501       5.663320    
  4.5708814E-03  5.3703170E-03   1557.203       5.826201    
  5.3703170E-03  6.3095726E-03   1748.448       6.151164    
  6.3095726E-03  7.4131014E-03   1204.918       5.948993    
  7.4131014E-03  8.7096347E-03   3131.641       3.751697    
  8.7096347E-03  1.0232928E-02   403.5387       9.702703    
  1.0232928E-02  1.2022642E-02   13.57928       36.58080    
  1.2022642E-02  1.4125373E-02   4.341974       58.42273    
  1.4125373E-02  1.6595867E-02   5.344289       38.53498    
  1.6595867E-02  1.9498443E-02   1.145800       55.77675    
  1.9498443E-02  2.2908673E-02   1.303919       49.34027    
  2.2908673E-02  2.6915343E-02   1.161632       47.62910    
  2.6915343E-02  3.1622771E-02  0.6721837       56.41769    
  3.1622771E-02  3.7153516E-02   1.839729       47.76836    
  3.7153516E-02  4.3651577E-02   1.210524       55.66674    
  4.3651577E-02  5.1286127E-02   2.135943       99.00000    
  5.1286127E-02  6.0255948E-02  9.0612456E-02   77.38565    
  6.0255948E-02  7.0794567E-02   0.000000       0.000000    
  7.0794567E-02  8.3176360E-02  0.2093685       77.38565    
  8.3176360E-02  9.7723700E-02   0.000000       0.000000    
  9.7723700E-02  0.1148153       0.000000       0.000000    
  0.1148153      0.1348963       0.000000       0.000000    
  0.1348963      0.1584893       0.000000       0.000000    
  0.1584893      0.1862087      0.3350560       99.00000    
  0.1862087      0.2187761       0.000000       0.000000    
  0.2187761      0.2570395       0.000000       0.000000    
  0.2570395      0.3019951       0.000000       0.000000    
  0.3019951      0.3548133       0.000000       0.000000    
  0.3548133      0.4168693       0.000000       0.000000    
  0.4168693      0.4897787       0.000000       0.000000    
  0.4897787      0.5754398       0.000000       0.000000    
  0.5754398      0.6760828       0.000000       0.000000    
  0.6760828      0.7943280       0.000000       0.000000    
  0.7943280      0.9332541       0.000000       0.000000    
  0.9332541       1.096478       0.000000       0.000000    
   1.096478       1.288249       0.000000       0.000000    
   1.288249       1.513561       0.000000       0.000000    
   1.513561       1.778279       0.000000       0.000000    
   1.778279       2.089296       0.000000       0.000000    
   2.089296       2.454708       0.000000       0.000000    
   2.454708       2.884031       0.000000       0.000000    
   2.884031       3.388441       0.000000       0.000000    
   3.388441       3.981071       0.000000       0.000000    
   3.981071       4.677350       0.000000       0.000000    
   4.677350       5.495407       0.000000       0.000000    
   5.495407       6.456541       0.000000       0.000000    
   6.456541       7.585774       0.000000       0.000000    
   7.585774       8.912507       0.000000       0.000000    
   8.912507       10.47128       0.000000       0.000000    
   10.47128       12.30268       0.000000       0.000000    
   12.30268       14.45439       0.000000       0.000000    
   14.45439       16.98243       0.000000       0.000000    
   16.98243       19.95262       0.000000       0.000000    
   19.95262       23.44228       0.000000       0.000000    
   23.44228       27.54228       0.000000       0.000000    
   27.54228       32.35936       0.000000       0.000000    
   32.35936       38.01893       0.000000       0.000000    
   38.01893       44.66835       0.000000       0.000000    
   44.66835       52.48073       0.000000       0.000000    
   52.48073       61.65948       0.000000       0.000000    
   61.65948       72.44357       0.000000       0.000000    
   72.44357       85.11378       0.000000       0.000000    
   85.11378       99.99997       0.000000       0.000000    


 # Detector n:  4  MB1a_ep   
 # N. of energy intervals 100
  9.9999997E-06  1.1748975E-05   0.000000       0.000000    
  1.1748975E-05  1.3803842E-05   0.000000       0.000000    
  1.3803842E-05  1.6218100E-05   0.000000       0.000000    
  1.6218100E-05  1.9054607E-05   0.000000       0.000000    
  1.9054607E-05  2.2387210E-05   0.000000       0.000000    
  2.2387210E-05  2.6302680E-05   16.92030       79.22340    
  2.6302680E-05  3.0902953E-05   575.2650       11.21529    
  3.0902953E-05  3.6307803E-05   769.1754       10.99542    
  3.6307803E-05  4.2657950E-05   679.5604       12.55157    
  4.2657950E-05  5.0118721E-05   676.4879       10.68161    
  5.0118721E-05  5.8884361E-05   882.4387       11.09491    
  5.8884361E-05  6.9183094E-05   865.9749       12.89754    
  6.9183094E-05  8.1283048E-05   853.6456       11.76338    
  8.1283048E-05  9.5499250E-05   873.9715       13.35085    
  9.5499250E-05  1.1220184E-04   741.3444       13.54893    
  1.1220184E-04  1.3182567E-04   632.8569       16.26281    
  1.3182567E-04  1.5488165E-04   742.4175       16.24509    
  1.5488165E-04  1.8197007E-04   625.8070       17.19844    
  1.8197007E-04  2.1379619E-04   706.8920       15.79141    
  2.1379619E-04  2.5118861E-04   660.2736       17.64124    
  2.5118861E-04  2.9512090E-04   585.1675       17.75944    
  2.9512090E-04  3.4673681E-04   547.5649       16.48273    
  3.4673681E-04  4.0738023E-04   557.8374       17.29543    
  4.0738023E-04  4.7863004E-04   571.7303       15.47536    
  4.7863004E-04  5.6234124E-04   672.8203       16.05409    
  5.6234124E-04  6.6069339E-04   498.3077       16.77086    
  6.6069339E-04  7.7624706E-04   559.4822       18.01728    
  7.7624706E-04  9.1201073E-04   455.7026       18.64901    
  9.1201073E-04  1.0715192E-03   310.1760       24.39672    
  1.0715192E-03  1.2589253E-03   307.4546       20.88306    
  1.2589253E-03  1.4791082E-03   314.2838       16.39371    
  1.4791082E-03  1.7378007E-03   208.7679       20.34842    
  1.7378007E-03  2.0417378E-03   228.2862       15.35602    
  2.0417378E-03  2.3988327E-03   189.8220       17.51393    
  2.3988327E-03  2.8183826E-03   191.8161       18.11442    
  2.8183826E-03  3.3113109E-03   144.8902       23.47762    
  3.3113109E-03  3.8904510E-03   125.8803       19.53076    
  3.8904510E-03  4.5708814E-03   69.82900       18.57703    
  4.5708814E-03  5.3703170E-03   86.36656       26.82335    
  5.3703170E-03  6.3095726E-03   51.31751       28.82845    
  6.3095726E-03  7.4131014E-03   12.13333       41.27161    
  7.4131014E-03  8.7096347E-03   5.221279       57.18177    
  8.7096347E-03  1.0232928E-02  0.9136816       55.77248    
  1.0232928E-02  1.2022642E-02  0.4952600       77.38565    
  1.2022642E-02  1.4125373E-02   0.000000       0.000000    
  1.4125373E-02  1.6595867E-02  0.3965701       99.00000    
  1.6595867E-02  1.9498443E-02   0.000000       0.000000    
  1.9498443E-02  2.2908673E-02   1.107176       56.65718    
  2.2908673E-02  2.6915343E-02  0.7824005       81.37994    
  2.6915343E-02  3.1622771E-02  0.4536985       55.44385    
  3.1622771E-02  3.7153516E-02   0.000000       0.000000    
  3.7153516E-02  4.3651577E-02  0.2016345       99.00000    
  4.3651577E-02  5.1286127E-02  0.1710984       77.38565    
  5.1286127E-02  6.0255948E-02  2.7002083E-02   99.00000    
  6.0255948E-02  7.0794567E-02   0.000000       0.000000    
  7.0794567E-02  8.3176360E-02  6.7239635E-02   77.38565    
  8.3176360E-02  9.7723700E-02   0.000000       0.000000    
  9.7723700E-02  0.1148153      0.1125406       77.38565    
  0.1148153      0.1348963       0.000000       0.000000    
  0.1348963      0.1584893       0.000000       0.000000    
  0.1584893      0.1862087       0.000000       0.000000    
  0.1862087      0.2187761       0.000000       0.000000    
  0.2187761      0.2570395       0.000000       0.000000    
  0.2570395      0.3019951       0.000000       0.000000    
  0.3019951      0.3548133       0.000000       0.000000    
  0.3548133      0.4168693       0.000000       0.000000    
  0.4168693      0.4897787       0.000000       0.000000    
  0.4897787      0.5754398       0.000000       0.000000    
  0.5754398      0.6760828       0.000000       0.000000    
  0.6760828      0.7943280       0.000000       0.000000    
  0.7943280      0.9332541       0.000000       0.000000    
  0.9332541       1.096478       0.000000       0.000000    
   1.096478       1.288249       0.000000       0.000000    
   1.288249       1.513561       0.000000       0.000000    
   1.513561       1.778279       0.000000       0.000000    
   1.778279       2.089296       0.000000       0.000000    
   2.089296       2.454708       0.000000       0.000000    
   2.454708       2.884031       0.000000       0.000000    
   2.884031       3.388441       0.000000       0.000000    
   3.388441       3.981071       0.000000       0.000000    
   3.981071       4.677350       0.000000       0.000000    
   4.677350       5.495407       0.000000       0.000000    
   5.495407       6.456541       0.000000       0.000000    
   6.456541       7.585774       0.000000       0.000000    
   7.585774       8.912507       0.000000       0.000000    
   8.912507       10.47128       0.000000       0.000000    
   10.47128       12.30268       0.000000       0.000000    
   12.30268       14.45439       0.000000       0.000000    
   14.45439       16.98243       0.000000       0.000000    
   16.98243       19.95262       0.000000       0.000000    
   19.95262       23.44228       0.000000       0.000000    
   23.44228       27.54228       0.000000       0.000000    
   27.54228       32.35936       0.000000       0.000000    
   32.35936       38.01893       0.000000       0.000000    
   38.01893       44.66835       0.000000       0.000000    
   44.66835       52.48073       0.000000       0.000000    
   52.48073       61.65948       0.000000       0.000000    
   61.65948       72.44357       0.000000       0.000000    
   72.44357       85.11378       0.000000       0.000000    
   85.11378       99.99997       0.000000       0.000000    
