 # Detector n: 1D Projection
  -660.00000000000000       -650.00000000000000        3.56449448E-07   6.11636400    
  -650.00000000000000       -640.00000000000000        2.84901290E-07   7.36111116    
  -640.00000000000000       -630.00000000000000        2.13467558E-07   9.24058247    
  -630.00000000000000       -620.00000000000000        1.89943208E-07   9.70395660    
  -620.00000000000000       -610.00000000000000        1.71117605E-07   9.83983135    
  -610.00000000000000       -600.00000000000000        1.23359357E-07   11.0541592    
  -600.00000000000000       -590.00000000000000        1.08710857E-07   12.4156122    
  -590.00000000000000       -580.00000000000000        1.07811410E-07   11.8003387    
  -580.00000000000000       -570.00000000000000        1.04246588E-07   13.5136623    
  -570.00000000000000       -560.00000000000000        6.84320440E-08   13.1917562    
  -560.00000000000000       -550.00000000000000        7.40855910E-08   13.3385296    
  -550.00000000000000       -540.00000000000000        9.79642607E-08   12.2969456    
  -540.00000000000000       -530.00000000000000        9.77026176E-08   12.4698792    
  -530.00000000000000       -520.00000000000000        6.55207160E-08   14.8513479    
  -520.00000000000000       -510.00000000000000        6.92956661E-08   15.3294163    
  -510.00000000000000       -500.00000000000000        7.70240334E-08   13.8579798    
  -500.00000000000000       -490.00000000000000        6.18181488E-08   16.0811653    
  -490.00000000000000       -480.00000000000000        6.79349554E-08   17.9131241    
  -480.00000000000000       -470.00000000000000        7.49698401E-08   17.5771618    
  -470.00000000000000       -460.00000000000000        7.13911561E-08   16.7334251    
  -460.00000000000000       -450.00000000000000        6.94864255E-08   16.2949181    
  -450.00000000000000       -440.00000000000000        7.24411677E-08   15.2185335    
  -440.00000000000000       -430.00000000000000        7.69802568E-08   14.6202507    
  -430.00000000000000       -420.00000000000000        8.24553155E-08   13.8401146    
  -420.00000000000000       -410.00000000000000        7.55827898E-08   14.4678307    
  -410.00000000000000       -400.00000000000000        8.43040411E-08   13.6476326    
  -400.00000000000000       -390.00000000000000        9.17371423E-08   11.6678104    
  -390.00000000000000       -380.00000000000000        6.76075658E-08   16.1729488    
  -380.00000000000000       -370.00000000000000        5.09590343E-08   17.3488007    
  -370.00000000000000       -360.00000000000000        6.90365525E-08   17.1872311    
  -360.00000000000000       -350.00000000000000        4.95219616E-08   20.8202610    
  -350.00000000000000       -340.00000000000000        4.59342893E-08   20.7048321    
  -340.00000000000000       -330.00000000000000        4.54924205E-08   20.2259369    
  -330.00000000000000       -320.00000000000000        4.17141770E-08   22.2767696    
  -320.00000000000000       -310.00000000000000        3.58335370E-08   21.0315704    
  -310.00000000000000       -300.00000000000000        2.71418052E-08   22.0772648    
  -300.00000000000000       -290.00000000000000        2.50406611E-08   23.5361576    
  -290.00000000000000       -280.00000000000000        2.44947422E-08   24.2645512    
  -280.00000000000000       -270.00000000000000        1.61345017E-08   29.1560917    
  -270.00000000000000       -260.00000000000000        1.95778949E-08   27.0890675    
  -260.00000000000000       -250.00000000000000        2.96362810E-08   24.0463715    
  -250.00000000000000       -240.00000000000000        1.78103239E-08   32.0175667    
  -240.00000000000000       -230.00000000000000        2.23411174E-08   33.8564835    
  -230.00000000000000       -220.00000000000000        2.88131741E-08   25.1598930    
  -220.00000000000000       -210.00000000000000        2.73362097E-08   25.8501568    
  -210.00000000000000       -200.00000000000000        3.77874727E-08   22.7843037    
  -200.00000000000000       -190.00000000000000        3.12037827E-08   24.4189587    
  -190.00000000000000       -180.00000000000000        2.19001475E-08   22.8080444    
  -180.00000000000000       -170.00000000000000        2.98115879E-08   23.3591385    
  -170.00000000000000       -160.00000000000000        2.59555115E-08   20.3021507    
  -160.00000000000000       -150.00000000000000        3.09482679E-08   20.4491673    
  -150.00000000000000       -140.00000000000000        4.46453328E-08   19.3014030    
  -140.00000000000000       -130.00000000000000        7.69434934E-08   20.1348152    
  -130.00000000000000       -120.00000000000000        5.16423491E-08   22.9966240    
  -120.00000000000000       -110.00000000000000        5.84385766E-08   21.4573402    
  -110.00000000000000       -100.00000000000000        5.24129433E-08   26.1224003    
  -100.00000000000000       -90.000000000000000        4.19819237E-08   27.9856415    
  -90.000000000000000       -80.000000000000000        1.83358289E-08   27.9726086    
  -80.000000000000000       -70.000000000000000        1.90006073E-08   25.5722084    
  -70.000000000000000       -60.000000000000000        1.85506295E-08   26.4328232    
  -60.000000000000000       -50.000000000000000        2.12406661E-08   27.0571594    
  -50.000000000000000       -40.000000000000000        3.12919077E-08   23.6679897    
  -40.000000000000000       -30.000000000000000        2.32733406E-08   37.6334114    
  -30.000000000000000       -20.000000000000000        1.98135712E-08   38.5923309    
  -20.000000000000000       -10.000000000000000        1.49465897E-08   28.4528084    
  -10.000000000000000        0.0000000000000000        2.07555360E-08   27.8499222    
   0.0000000000000000        10.000000000000000        2.36630342E-08   25.2528248    
   10.000000000000000        20.000000000000000        1.67464549E-08   28.2216759    
   20.000000000000000        30.000000000000000        1.86616411E-08   27.5609379    
   30.000000000000000        40.000000000000000        2.53570018E-08   34.9120216    
   40.000000000000000        50.000000000000000        2.67384959E-08   25.0879173    
   50.000000000000000        60.000000000000000        2.27162893E-08   23.7506390    
   60.000000000000000        70.000000000000000        1.56407740E-08   33.6289101    
   70.000000000000000        80.000000000000000        7.39243955E-09   30.0613918    
   80.000000000000000        90.000000000000000        2.06872013E-08   21.5280266    
   90.000000000000000        100.00000000000000        1.45435788E-08   27.5404034    
   100.00000000000000        110.00000000000000        2.06703081E-08   22.4290447    
   110.00000000000000        120.00000000000000        4.23629700E-08   22.0966949    
   120.00000000000000        130.00000000000000        4.46654695E-08   22.5165138    
   130.00000000000000        140.00000000000000        3.73497713E-08   18.4665775    
   140.00000000000000        150.00000000000000        2.29794903E-08   23.8572083    
   150.00000000000000        160.00000000000000        2.63869566E-08   20.6599884    
   160.00000000000000        170.00000000000000        3.39578570E-08   21.4177361    
   170.00000000000000        180.00000000000000        1.94848795E-08   27.0960007    
   180.00000000000000        190.00000000000000        2.59672639E-08   21.6666374    
   190.00000000000000        200.00000000000000        2.55503512E-08   29.3599758    
   200.00000000000000        210.00000000000000        2.85077526E-08   23.7539616    
   210.00000000000000        220.00000000000000        1.92881995E-08   25.9179897    
   220.00000000000000        230.00000000000000        2.42743177E-08   21.0642872    
   230.00000000000000        240.00000000000000        3.55536720E-08   18.7803307    
   240.00000000000000        250.00000000000000        3.45219355E-08   22.8930511    
   250.00000000000000        260.00000000000000        5.55221717E-08   20.6718235    
   260.00000000000000        270.00000000000000        2.85007555E-08   24.2499905    
   270.00000000000000        280.00000000000000        3.40869981E-08   25.3870239    
   280.00000000000000        290.00000000000000        2.11317115E-08   24.5529156    
   290.00000000000000        300.00000000000000        2.62356785E-08   23.3471737    
   300.00000000000000        310.00000000000000        3.22353308E-08   23.5389500    
   310.00000000000000        320.00000000000000        3.16024149E-08   17.9097805    
   320.00000000000000        330.00000000000000        2.74216809E-08   20.2409706    
   330.00000000000000        340.00000000000000        4.99756538E-08   18.6358814    
   340.00000000000000        350.00000000000000        3.24697318E-08   18.2789135    
   350.00000000000000        360.00000000000000        4.83573146E-08   16.7310905    
   360.00000000000000        370.00000000000000        4.87031890E-08   16.7718601    
   370.00000000000000        380.00000000000000        6.32280148E-08   16.0425434    
   380.00000000000000        390.00000000000000        6.70067450E-08   15.2289810    
   390.00000000000000        400.00000000000000        7.93142192E-08   14.2602024    
   400.00000000000000        410.00000000000000        8.40286987E-08   12.7470236    
   410.00000000000000        420.00000000000000        4.98046866E-08   17.0121613    
   420.00000000000000        430.00000000000000        5.70448542E-08   17.3790340    
   430.00000000000000        440.00000000000000        4.88670224E-08   18.5628777    
   440.00000000000000        450.00000000000000        8.24949424E-08   15.2336960    
   450.00000000000000        460.00000000000000        5.72215058E-08   15.4671249    
   460.00000000000000        470.00000000000000        5.26003241E-08   15.1219864    
   470.00000000000000        480.00000000000000        4.97346235E-08   15.7600641    
   480.00000000000000        490.00000000000000        4.57162592E-08   20.1844521    
   490.00000000000000        500.00000000000000        5.61457512E-08   15.4956255    
   500.00000000000000        510.00000000000000        6.73666207E-08   17.9274178    
   510.00000000000000        520.00000000000000        6.13633802E-08   17.4102306    
   520.00000000000000        530.00000000000000        6.65483100E-08   14.0927019    
   530.00000000000000        540.00000000000000        8.35063787E-08   15.0384846    
   540.00000000000000        550.00000000000000        7.78495561E-08   14.3174763    
   550.00000000000000        560.00000000000000        7.60370611E-08   14.2374277    
   560.00000000000000        570.00000000000000        9.34918276E-08   13.4832125    
   570.00000000000000        580.00000000000000        1.23335724E-07   13.3871050    
   580.00000000000000        590.00000000000000        1.18418569E-07   12.0286665    
   590.00000000000000        600.00000000000000        1.29437552E-07   10.9086056    
   600.00000000000000        610.00000000000000        1.83041578E-07   9.66795063    
   610.00000000000000        620.00000000000000        1.97991028E-07   9.93645191    
   620.00000000000000        630.00000000000000        1.97517622E-07   8.88412952    
   630.00000000000000        640.00000000000000        2.79343681E-07   7.48463202    
   640.00000000000000        650.00000000000000        3.55520086E-07   6.90401125    
   650.00000000000000        660.00000000000000        4.82155258E-07   6.13420439    
   660.00000000000000        660.00000000000000        4.82155258E-07   6.13420439    
