  **** v3_31_4_2_usrtrack_31.trk ****


  Total primaries run:           21300

    Total weight of the primaries run:  21300.


  Detector n:  1  MB1_1_Nlow
     (Volume:         1. cmc,
      distr. scored: 8   ,
      from reg. 181 )

     Tot. response (p/cmq/pr)   34.93064      +/-   2.503068     %
     ( --> Track l. (cm/pr)       34.93064      +/-   2.503068     % )

  **** Different. Fluxes as a function of energy ****
  ****      (integrated over solid angle)        ****


  Energy boundaries (GeV):


  Lowest boundary   (GeV):  2.0000000E-02

  Flux (Part/GeV/cmq/pr):



  Energy boundaries (GeV):

  2.0000000E-02  1.9640300E-02  1.9155400E-02  1.8682500E-02  1.8221200E-02
  1.7771300E-02  1.7332500E-02  1.6904600E-02  1.6487200E-02  1.6080100E-02
  1.5683100E-02  1.5295900E-02  1.4918300E-02  1.4549900E-02  1.4190700E-02
  1.3840300E-02  1.3498600E-02  1.3165300E-02  1.2840200E-02  1.2523200E-02
  1.2214000E-02  1.1912500E-02  1.1618300E-02  1.1331500E-02  1.1051700E-02
  1.0778800E-02  1.0512700E-02  1.0253200E-02  9.9999998E-03  9.7530996E-03
  9.5122904E-03  9.2774397E-03  9.0483697E-03  8.8249696E-03  8.6070802E-03
  8.3945701E-03  8.1873098E-03  7.9851598E-03  7.7880099E-03  7.5957198E-03
  7.4081798E-03  7.2252699E-03  7.0468802E-03  6.8728901E-03  6.7031998E-03
  6.6475999E-03  6.5923799E-03  6.5377001E-03  6.3762800E-03  6.2188501E-03
  6.0653100E-03  5.9155500E-03  5.7695000E-03  5.4881200E-03  5.2204598E-03
  4.9658502E-03  4.8432499E-03  4.7236700E-03  4.6070400E-03  4.4932901E-03
  4.2741499E-03  4.0656999E-03  3.8674099E-03  3.6787901E-03  3.4993801E-03
  3.3287101E-03  3.2465300E-03  3.1663701E-03  3.0881900E-03  3.0119400E-03
  2.8650500E-03  2.7253199E-03  2.5923999E-03  2.4659701E-03  2.4251300E-03
  2.3852000E-03  2.3652499E-03  2.3457000E-03  2.3068599E-03  2.2688799E-03
  2.2313001E-03  2.1224800E-03  2.0189700E-03  1.9691200E-03  1.9205000E-03
  1.8730800E-03  1.8268300E-03  1.7377400E-03  1.6529900E-03  1.6121800E-03
  1.5723699E-03  1.5335500E-03  1.4956900E-03  1.4227401E-03  1.3533500E-03
  1.2873500E-03  1.2245600E-03  1.1943300E-03  1.1648400E-03  1.1080300E-03
  1.0539900E-03  1.0025901E-03  9.7783399E-04  9.6163998E-04  9.5369201E-04
  9.0717903E-04  8.6293602E-04  8.2085002E-04  7.8081700E-04  7.4273598E-04
  7.0651202E-04  6.7205500E-04  6.3927902E-04  6.0810102E-04  5.7844300E-04
  5.5023201E-04  5.3664698E-04  5.2339700E-04  5.1047403E-04  4.9787102E-04
  4.7358900E-04  4.5049199E-04  4.2852099E-04  4.0762199E-04  3.8774201E-04
  3.6883200E-04  3.5084400E-04  3.3373301E-04  3.1745600E-04  3.0961799E-04
  3.0197401E-04  2.9451799E-04  2.8724599E-04  2.8015400E-04  2.7323700E-04
  2.5991100E-04  2.4723500E-04  2.3517800E-04  2.2370800E-04  2.1279699E-04
  2.0241900E-04  1.9254700E-04  1.8315599E-04  1.7422400E-04  1.6992200E-04
  1.6572700E-04  1.6163501E-04  1.5764400E-04  1.4995600E-04  1.4264201E-04
  1.3568600E-04  1.2906799E-04  1.2277300E-04  1.1678600E-04  1.1109000E-04
  9.8036500E-05  8.6516899E-05  7.6350902E-05  6.7379500E-05  6.2510902E-05
  5.9462200E-05  5.6562199E-05  5.2475199E-05  4.6309200E-05  4.0867701E-05
  3.6065601E-05  3.5175199E-05  3.4306700E-05  3.1827800E-05  2.8087899E-05
  2.6058400E-05  2.4787500E-05  2.4175501E-05  2.3578599E-05  2.1874899E-05
  2.1334799E-05  1.9304500E-05  1.7036200E-05  1.5034400E-05  1.3267800E-05
  1.1708800E-05  1.0333000E-05  9.1188203E-06  8.0473301E-06  7.1017398E-06
  6.2672698E-06  5.5308401E-06  5.0045101E-06  4.5282700E-06  4.3074201E-06
  4.0973500E-06  3.7074401E-06  3.3546301E-06  3.0353899E-06  2.8634900E-06
  2.7465401E-06  2.6125899E-06  2.4851699E-06  2.2486699E-06  2.0346799E-06
  1.8410600E-06  1.6658601E-06  1.5846100E-06  1.5073300E-06  1.3638900E-06
  1.2341000E-06  9.6111603E-07  7.4851800E-07  5.8294700E-07  4.5399901E-07
  3.5357499E-07  2.7536399E-07  2.1445400E-07  1.6701701E-07  1.3007300E-07
  1.0130100E-07  7.8893301E-08  6.1442101E-08  4.7851199E-08  3.7266499E-08
  2.9023200E-08  2.2603301E-08  1.7603501E-08  1.3709600E-08  1.0677000E-08
  8.3152898E-09  6.4759500E-09  5.0434799E-09  3.9278598E-09  3.0590199E-09
  2.3823701E-09  1.8553900E-09  1.4449800E-09  1.1253500E-09  8.7642499E-10
  8.3368101E-10  6.8256001E-10  6.2506200E-10  5.3157900E-10  4.1399401E-10
  2.8261499E-10  1.9292901E-10  1.3170399E-10  8.9908601E-11  6.1376598E-11
  4.1899099E-11  2.8602700E-11  1.9525799E-11  1.3329400E-11  9.0993801E-12
  6.2117499E-12  4.2404799E-12  2.8947901E-12  1.9761499E-12  1.3490300E-12
  9.2092198E-13  6.2867300E-13  4.2916701E-13  2.9297300E-13  2.0000000E-13
  Lowest boundary   (GeV):  1.0000100E-14

  Flux (Part/GeV/cmq/pr):

   19.85547     +/-    45.54609     %    45.37332     +/-    56.04198     % 
   16.13613     +/-    45.71410     %    30.23236     +/-    43.17059     % 
   21.04141     +/-    46.39433     %    32.60279     +/-    42.19893     % 
   13.48598     +/-    45.43386     %    12.97804     +/-    62.65929     % 
   13.92209     +/-    50.51410     %    26.86737     +/-    41.48540     % 
   0.000000     +/-    0.000000     %    9.889347     +/-    68.16486     % 
   18.87671     +/-    59.88861     %    43.52538     +/-    89.41254     % 
   16.80314     +/-    59.40981     %    19.50870     +/-    36.15155     % 
   34.32496     +/-    46.84288     %    25.25101     +/-    45.24938     % 
   9.649404     +/-    53.60420     %    13.09241     +/-    58.31590     % 
   13.28713     +/-    59.34929     %    11.39520     +/-    55.53414     % 
   44.13415     +/-    60.64953     %    4.365724     +/-    94.37989     % 
   18.78766     +/-    60.74786     %    13.35677     +/-    49.83216     % 
   19.50136     +/-    59.44543     %    11.50027     +/-    55.37363     % 
   30.31913     +/-    39.72584     %    27.61459     +/-    58.12079     % 
   26.43415     +/-    52.01899     %    25.24892     +/-    49.08109     % 
   66.47394     +/-    59.30472     %    13.85251     +/-    57.60225     % 
   47.90125     +/-    57.58532     %    23.46184     +/-    99.00000     % 
   0.000000     +/-    0.000000     %    88.24886     +/-    37.25931     % 
   30.50810     +/-    60.37117     %    41.83165     +/-    78.53046     % 
   20.46033     +/-    54.76828     %    11.31054     +/-    70.43950     % 
   11.01274     +/-    66.57912     %    51.26590     +/-    58.31004     % 
   47.32527     +/-    94.37989     %    0.000000     +/-    0.000000     % 
   69.69492     +/-    70.92612     %    43.44000     +/-    46.14169     % 
   39.71122     +/-    78.16794     %    36.50293     +/-    40.94069     % 
   77.04102     +/-    80.43245     %    57.98219     +/-    49.52197     % 
   60.13768     +/-    28.70495     %    46.16509     +/-    32.42569     % 
   76.56461     +/-    28.40568     %    76.31544     +/-    37.26226     % 
   45.23137     +/-    59.57520     %    165.1071     +/-    34.14536     % 
   90.86465     +/-    42.35059     %    90.48167     +/-    39.21885     % 
   167.9958     +/-    36.98273     %    57.03092     +/-    38.52040     % 
   135.7412     +/-    62.23057     %    128.6909     +/-    28.82711     % 
   122.6470     +/-    29.30156     %    259.0041     +/-    34.28141     % 
   42.73825     +/-    46.94957     %    170.6232     +/-    28.33632     % 
   301.0102     +/-    31.03893     %    207.4464     +/-    21.33549     % 
   201.1922     +/-    24.99613     %    222.6457     +/-    33.90265     % 
   298.7303     +/-    22.95935     %    206.6084     +/-    47.24315     % 
   309.5334     +/-    41.03585     %    469.8022     +/-    35.17825     % 
   273.8586     +/-    54.93131     %    416.5454     +/-    38.89970     % 
   379.5786     +/-    29.94997     %    551.9679     +/-    35.06613     % 
   381.2700     +/-    31.46407     %    537.4227     +/-    27.85443     % 
   359.3717     +/-    28.42499     %    226.5128     +/-    35.72392     % 
   770.6149     +/-    27.24465     %    802.0693     +/-    32.16785     % 
   536.6890     +/-    20.16365     %    611.9435     +/-    17.71897     % 
   714.6069     +/-    26.36980     %    607.2560     +/-    23.49191     % 
   584.8558     +/-    36.85534     %    717.3320     +/-    24.48332     % 
   664.4212     +/-    16.78805     %    795.2874     +/-    18.56512     % 
   1327.476     +/-    19.85024     %    1206.065     +/-    17.35135     % 
   1803.260     +/-    27.05180     %    1039.364     +/-    22.65871     % 
   1257.839     +/-    14.69359     %    1771.621     +/-    17.12450     % 
   1599.109     +/-    14.64472     %    1930.386     +/-    26.73758     % 
   1287.348     +/-    36.70251     %    1964.345     +/-    30.09171     % 
   1905.386     +/-    16.63324     %    2095.221     +/-    20.61404     % 
   2523.531     +/-    13.88198     %    2149.250     +/-    17.26240     % 
   2210.115     +/-    14.83494     %    2594.064     +/-    15.01396     % 
   3525.856     +/-    17.83522     %    4152.408     +/-    11.96281     % 
   4475.489     +/-    11.85912     %    5510.198     +/-    14.85282     % 
   3955.378     +/-    13.36798     %    3023.207     +/-    18.57251     % 
   3641.437     +/-    20.18514     %    3621.154     +/-    15.93639     % 
   5506.036     +/-    21.61109     %    3856.260     +/-    13.89553     % 
   4500.194     +/-    14.01121     %    4040.496     +/-    19.73862     % 
   3216.339     +/-    12.87865     %    4716.854     +/-    14.86000     % 
   4950.020     +/-    13.21107     %    8133.728     +/-    16.43338     % 
   8610.640     +/-    13.06303     %    6614.850     +/-    15.23660     % 
   9292.353     +/-    13.78919     %    13526.55     +/-    12.32432     % 
   9675.015     +/-    13.53922     %    5835.028     +/-    17.22357     % 
   6706.368     +/-    19.46629     %    6628.630     +/-    19.62762     % 
   16646.34     +/-    12.03122     %    13236.06     +/-    13.89346     % 
   11860.73     +/-    13.36841     %    10351.75     +/-    19.48014     % 
   9270.806     +/-    16.37755     %    5950.192     +/-    15.22246     % 
   9078.531     +/-    14.59242     %    11200.01     +/-    11.83697     % 
   14781.78     +/-    15.73453     %    7035.100     +/-    17.81914     % 
   9000.741     +/-    20.58516     %    15341.89     +/-    22.18574     % 
   11648.02     +/-    24.74735     %    10391.61     +/-    19.35472     % 
   10580.49     +/-    17.01574     %    8461.067     +/-    19.11125     % 
   16102.00     +/-    11.96462     %    25268.99     +/-    12.35437     % 
   20414.75     +/-    18.01205     %    25499.69     +/-    22.13809     % 
   17389.92     +/-    9.657999     %    13252.46     +/-    11.98169     % 
   21649.81     +/-    12.79557     %    36390.08     +/-    8.437995     % 
   34453.55     +/-    11.33622     %    31194.73     +/-    13.25036     % 
   30330.45     +/-    16.06825     %    44972.37     +/-    13.72664     % 
   34768.10     +/-    10.88365     %    34485.75     +/-    12.00260     % 
   35005.86     +/-    12.56134     %    19480.20     +/-    30.17589     % 
   29459.71     +/-    23.03990     %    28581.11     +/-    15.23764     % 
   81964.32     +/-    10.44239     %    86728.87     +/-    15.49804     % 
   236527.6     +/-    9.540316     %    269455.8     +/-    12.47833     % 
   167498.7     +/-    13.64761     %    128148.8     +/-    11.52985     % 
   136737.4     +/-    23.11597     %    124871.8     +/-    8.740117     % 
   111680.5     +/-    10.35471     %    98100.43     +/-    13.73463     % 
   109098.2     +/-    9.360559     %    150942.8     +/-    12.15446     % 
   155218.3     +/-    9.206553     %    172577.2     +/-    10.54178     % 
   158026.8     +/-    10.59184     %    211458.0     +/-    12.04396     % 
   250023.2     +/-    12.61733     %    273108.7     +/-    10.92393     % 
   438597.3     +/-    9.331031     %    368379.8     +/-    10.94283     % 
   519218.4     +/-    18.79884     %    386593.4     +/-    20.71682     % 
   494384.7     +/-    12.99041     %    540237.2     +/-    11.71279     % 
   685035.9     +/-    10.85909     %    695739.8     +/-    12.82009     % 
   875012.3     +/-    15.68023     %    593066.8     +/-    14.14150     % 
   620408.0     +/-    13.49471     %    840247.9     +/-    12.21665     % 
   773039.9     +/-    12.89709     %    881987.8     +/-    12.35854     % 
   1000269.     +/-    12.69214     %    1045967.     +/-    16.95594     % 
   1214576.     +/-    16.10105     %    1303323.     +/-    11.14527     % 
   1457868.     +/-    10.56770     %    1519554.     +/-    7.400461     % 
   2134580.     +/-    8.114384     %    2418652.     +/-    8.581881     % 
   3573296.     +/-    9.006923     %    3925960.     +/-    8.411702     % 
   5293382.     +/-    7.558598     %    7473960.     +/-    9.931835     % 
   7896443.     +/-    7.758288     %   1.1301216E+07 +/-    7.909846     % 
  1.2692276E+07 +/-    8.034882     %   2.0980584E+07 +/-    9.440540     % 
  2.0665824E+07 +/-    9.861347     %   2.9146608E+07 +/-    10.28578     % 
  3.9735860E+07 +/-    7.462646     %   4.9963624E+07 +/-    8.470647     % 
  5.6181640E+07 +/-    7.911664     %   8.3609424E+07 +/-    8.082520     % 
  1.2086267E+08 +/-    7.900175     %   1.1514340E+08 +/-    8.758722     % 
  1.6514054E+08 +/-    8.678300     %   2.1677461E+08 +/-    8.815224     % 
  2.2256306E+08 +/-    7.810726     %   3.0781158E+08 +/-    9.253821     % 
  3.7347526E+08 +/-    8.472896     %   6.0067258E+08 +/-    8.935260     % 
  6.6752026E+08 +/-    8.803455     %   6.6070509E+08 +/-    11.78922     % 
  1.2336026E+09 +/-    8.655781     %   1.5964169E+09 +/-    9.601979     % 
  2.6273359E+09 +/-    23.21428     %   1.8866295E+09 +/-    9.045140     % 
  2.2874614E+09 +/-    12.24064     %   2.2503066E+09 +/-    11.09431     % 
  2.9154094E+09 +/-    9.501984     %   4.2792077E+09 +/-    8.389064     % 
  7.0990986E+09 +/-    7.301352     %   1.1883129E+10 +/-    7.426457     % 
  2.2843286E+10 +/-    6.213975     %   3.7351490E+10 +/-    5.819005     % 
  5.6566534E+10 +/-    6.046184     %   6.1035127E+10 +/-    6.657350     % 
  5.8632176E+10 +/-    6.949183     %   4.8754070E+10 +/-    9.104330     % 
  4.0429879E+10 +/-    12.85100     %   3.0375608E+10 +/-    16.79270     % 
  1.3789402E+10 +/-    22.10470     %   7.6630717E+09 +/-    37.31459     % 
  1.1528692E+10 +/-    38.19289     %    0.000000     +/-    0.000000     % 
  4.9466127E+09 +/-    69.07204     %    0.000000     +/-    0.000000     % 
   0.000000     +/-    0.000000     %    0.000000     +/-    0.000000     % 
   0.000000     +/-    0.000000     %    0.000000     +/-    0.000000     % 


  **** Cumulative Fluxes as a function of energy ****
  ****      (integrated over solid angle)        ****


  Energy boundaries (GeV):



  Lowest boundary   (GeV):  2.0000000E-02

  Cumul. Flux (Part/cmq/pr):



  Energy boundaries (GeV):

  2.0000000E-02  1.9640300E-02  1.9155400E-02  1.8682500E-02  1.8221200E-02
  1.7771300E-02  1.7332500E-02  1.6904600E-02  1.6487200E-02  1.6080100E-02
  1.5683100E-02  1.5295900E-02  1.4918300E-02  1.4549900E-02  1.4190700E-02
  1.3840300E-02  1.3498600E-02  1.3165300E-02  1.2840200E-02  1.2523200E-02
  1.2214000E-02  1.1912500E-02  1.1618300E-02  1.1331500E-02  1.1051700E-02
  1.0778800E-02  1.0512700E-02  1.0253200E-02  9.9999998E-03  9.7530996E-03
  9.5122904E-03  9.2774397E-03  9.0483697E-03  8.8249696E-03  8.6070802E-03
  8.3945701E-03  8.1873098E-03  7.9851598E-03  7.7880099E-03  7.5957198E-03
  7.4081798E-03  7.2252699E-03  7.0468802E-03  6.8728901E-03  6.7031998E-03
  6.6475999E-03  6.5923799E-03  6.5377001E-03  6.3762800E-03  6.2188501E-03
  6.0653100E-03  5.9155500E-03  5.7695000E-03  5.4881200E-03  5.2204598E-03
  4.9658502E-03  4.8432499E-03  4.7236700E-03  4.6070400E-03  4.4932901E-03
  4.2741499E-03  4.0656999E-03  3.8674099E-03  3.6787901E-03  3.4993801E-03
  3.3287101E-03  3.2465300E-03  3.1663701E-03  3.0881900E-03  3.0119400E-03
  2.8650500E-03  2.7253199E-03  2.5923999E-03  2.4659701E-03  2.4251300E-03
  2.3852000E-03  2.3652499E-03  2.3457000E-03  2.3068599E-03  2.2688799E-03
  2.2313001E-03  2.1224800E-03  2.0189700E-03  1.9691200E-03  1.9205000E-03
  1.8730800E-03  1.8268300E-03  1.7377400E-03  1.6529900E-03  1.6121800E-03
  1.5723699E-03  1.5335500E-03  1.4956900E-03  1.4227401E-03  1.3533500E-03
  1.2873500E-03  1.2245600E-03  1.1943300E-03  1.1648400E-03  1.1080300E-03
  1.0539900E-03  1.0025901E-03  9.7783399E-04  9.6163998E-04  9.5369201E-04
  9.0717903E-04  8.6293602E-04  8.2085002E-04  7.8081700E-04  7.4273598E-04
  7.0651202E-04  6.7205500E-04  6.3927902E-04  6.0810102E-04  5.7844300E-04
  5.5023201E-04  5.3664698E-04  5.2339700E-04  5.1047403E-04  4.9787102E-04
  4.7358900E-04  4.5049199E-04  4.2852099E-04  4.0762199E-04  3.8774201E-04
  3.6883200E-04  3.5084400E-04  3.3373301E-04  3.1745600E-04  3.0961799E-04
  3.0197401E-04  2.9451799E-04  2.8724599E-04  2.8015400E-04  2.7323700E-04
  2.5991100E-04  2.4723500E-04  2.3517800E-04  2.2370800E-04  2.1279699E-04
  2.0241900E-04  1.9254700E-04  1.8315599E-04  1.7422400E-04  1.6992200E-04
  1.6572700E-04  1.6163501E-04  1.5764400E-04  1.4995600E-04  1.4264201E-04
  1.3568600E-04  1.2906799E-04  1.2277300E-04  1.1678600E-04  1.1109000E-04
  9.8036500E-05  8.6516899E-05  7.6350902E-05  6.7379500E-05  6.2510902E-05
  5.9462200E-05  5.6562199E-05  5.2475199E-05  4.6309200E-05  4.0867701E-05
  3.6065601E-05  3.5175199E-05  3.4306700E-05  3.1827800E-05  2.8087899E-05
  2.6058400E-05  2.4787500E-05  2.4175501E-05  2.3578599E-05  2.1874899E-05
  2.1334799E-05  1.9304500E-05  1.7036200E-05  1.5034400E-05  1.3267800E-05
  1.1708800E-05  1.0333000E-05  9.1188203E-06  8.0473301E-06  7.1017398E-06
  6.2672698E-06  5.5308401E-06  5.0045101E-06  4.5282700E-06  4.3074201E-06
  4.0973500E-06  3.7074401E-06  3.3546301E-06  3.0353899E-06  2.8634900E-06
  2.7465401E-06  2.6125899E-06  2.4851699E-06  2.2486699E-06  2.0346799E-06
  1.8410600E-06  1.6658601E-06  1.5846100E-06  1.5073300E-06  1.3638900E-06
  1.2341000E-06  9.6111603E-07  7.4851800E-07  5.8294700E-07  4.5399901E-07
  3.5357499E-07  2.7536399E-07  2.1445400E-07  1.6701701E-07  1.3007300E-07
  1.0130100E-07  7.8893301E-08  6.1442101E-08  4.7851199E-08  3.7266499E-08
  2.9023200E-08  2.2603301E-08  1.7603501E-08  1.3709600E-08  1.0677000E-08
  8.3152898E-09  6.4759500E-09  5.0434799E-09  3.9278598E-09  3.0590199E-09
  2.3823701E-09  1.8553900E-09  1.4449800E-09  1.1253500E-09  8.7642499E-10
  8.3368101E-10  6.8256001E-10  6.2506200E-10  5.3157900E-10  4.1399401E-10
  2.8261499E-10  1.9292901E-10  1.3170399E-10  8.9908601E-11  6.1376598E-11
  4.1899099E-11  2.8602700E-11  1.9525799E-11  1.3329400E-11  9.0993801E-12
  6.2117499E-12  4.2404799E-12  2.8947901E-12  1.9761499E-12  1.3490300E-12
  9.2092198E-13  6.2867300E-13  4.2916701E-13  2.9297300E-13  2.0000000E-13
  Lowest boundary   (GeV):  1.0000100E-14


  Cumul. Flux (Part/cmq/pr):

  7.1419952E-03 +/-    45.54609     %   2.9143542E-02 +/-    43.75507     % 
  3.6774311E-02 +/-    35.99932     %   5.0720524E-02 +/-    28.47015     % 
  6.0187049E-02 +/-    26.18734     %   7.4493155E-02 +/-    23.03210     % 
  8.0263808E-02 +/-    21.55514     %   8.5680842E-02 +/-    20.62101     % 
  9.1348521E-02 +/-    19.58735     %   0.1020149     +/-    18.05732     % 
  0.1020149     +/-    18.05732     %   0.1057491     +/-    17.50362     % 
  0.1127033     +/-    16.77958     %   0.1283376     +/-    18.07728     % 
  0.1342254     +/-    17.45185     %   0.1408916     +/-    16.76867     % 
  0.1523321     +/-    15.85790     %   0.1605411     +/-    15.35399     % 
  0.1636000     +/-    15.10984     %   0.1676482     +/-    14.77092     % 
  0.1716543     +/-    14.46615     %   0.1750067     +/-    14.21824     % 
  0.1876644     +/-    14.00089     %   0.1888860     +/-    13.90433     % 
  0.1940131     +/-    13.59646     %   0.1975673     +/-    13.34062     % 
  0.2026279     +/-    13.07513     %   0.2055398     +/-    12.88422     % 
  0.2130256     +/-    12.75494     %   0.2196755     +/-    12.49990     % 
  0.2258835     +/-    12.46003     %   0.2316673     +/-    12.24993     % 
  0.2465176     +/-    12.02986     %   0.2495359     +/-    11.86817     % 
  0.2597154     +/-    11.74851     %   0.2645781     +/-    11.64627     % 
  0.2645781     +/-    11.64627     %   0.2819764     +/-    11.17535     % 
  0.2878428     +/-    11.08415     %   0.2956879     +/-    10.90077     % 
  0.2994303     +/-    10.77299     %   0.3014480     +/-    10.68516     % 
  0.3033641     +/-    10.66623     %   0.3120634     +/-    10.53752     % 
  0.3146947     +/-    10.48450     %   0.3146947     +/-    10.48450     % 
  0.3185056     +/-    10.38277     %   0.3255177     +/-    10.22886     % 
  0.3317694     +/-    10.12475     %   0.3373741     +/-    10.00093     % 
  0.3489117     +/-    9.906820     %   0.3573800     +/-    9.683922     % 
  0.3743016     +/-    9.343997     %   0.3866581     +/-    9.120370     % 
  0.4061522     +/-    8.860357     %   0.4155085     +/-    8.760262     % 
  0.4209173     +/-    8.665887     %   0.4401737     +/-    8.343832     % 
  0.4505095     +/-    8.293442     %   0.4703377     +/-    8.156261     % 
  0.5053564     +/-    8.236887     %   0.5166651     +/-    8.029577     % 
  0.5422686     +/-    8.488936     %   0.5653570     +/-    8.339102     % 
  0.5862892     +/-    8.179931     %   0.6075742     +/-    8.151032     % 
  0.6110001     +/-    8.152905     %   0.6243394     +/-    8.015248     % 
  0.6472914     +/-    7.751781     %   0.6777632     +/-    7.609866     % 
  0.7058758     +/-    7.429776     %   0.7354699     +/-    7.521820     % 
  0.7732383     +/-    7.209056     %   0.7816762     +/-    7.109159     % 
  0.7940359     +/-    7.018240     %   0.8034085     +/-    6.981128     % 
  0.8087624     +/-    6.950918     %   0.8249410     +/-    6.912675     % 
  0.8393575     +/-    6.834306     %   0.8601003     +/-    6.722054     % 
  0.9015902     +/-    6.698241     %   0.9572188     +/-    6.688859     % 
  0.9751335     +/-    6.627429     %   0.9861465     +/-    6.676781     % 
   1.022689     +/-    6.659916     %    1.059785     +/-    6.556370     % 
   1.107598     +/-    6.387485     %    1.159461     +/-    6.310549     % 
   1.188624     +/-    6.224032     %    1.212799     +/-    6.189268     % 
   1.235503     +/-    6.205065     %    1.262661     +/-    6.082126     % 
   1.311130     +/-    5.929105     %    1.366315     +/-    5.777218     % 
   1.453929     +/-    5.725194     %    1.529658     +/-    5.644598     % 
   1.584170     +/-    5.589468     %    1.614821     +/-    5.517665     % 
   1.686279     +/-    5.418283     %    1.782017     +/-    5.309585     % 
   1.864211     +/-    5.254758     %    1.912000     +/-    5.166064     % 
   1.932847     +/-    5.159136     %    1.948460     +/-    5.149669     % 
   2.037085     +/-    5.114771     %    2.129784     +/-    5.034796     % 
   2.235989     +/-    4.996505     %    2.322030     +/-    4.900831     % 
   2.406194     +/-    4.815140     %    2.500161     +/-    4.791754     % 
   2.621651     +/-    4.658902     %    2.757751     +/-    4.556106     % 
   2.897287     +/-    4.468313     %    3.060709     +/-    4.506465     % 
   3.172294     +/-    4.459421     %    3.213365     +/-    4.442647     % 
   3.261614     +/-    4.427414     %    3.308410     +/-    4.392128     % 
   3.377802     +/-    4.387252     %    3.471440     +/-    4.309018     % 
   3.575381     +/-    4.259594     %    3.664155     +/-    4.236034     % 
   3.731373     +/-    4.190351     %    3.825144     +/-    4.199807     % 
   3.918749     +/-    4.191703     %    4.065058     +/-    4.148778     % 
   4.212395     +/-    4.069988     %    4.320065     +/-    4.033353     % 
   4.392899     +/-    4.031377     %    4.496295     +/-    3.965201     % 
   4.568432     +/-    3.936570     %    4.610865     +/-    3.929766     % 
   4.658426     +/-    3.944852     %    4.704276     +/-    3.957838     % 
   4.926105     +/-    3.901378     %    5.093886     +/-    3.898461     % 
   5.236891     +/-    3.854012     %    5.355625     +/-    3.852320     % 
   5.456779     +/-    3.819444     %    5.518530     +/-    3.816671     % 
   5.608153     +/-    3.792292     %    5.713333     +/-    3.780157     % 
   5.845364     +/-    3.765402     %    5.875628     +/-    3.758563     % 
   5.913386     +/-    3.748207     %    5.976165     +/-    3.745291     % 
   6.022653     +/-    3.750430     %    6.102543     +/-    3.759773     % 
   6.179929     +/-    3.766739     %    6.238784     +/-    3.753476     % 
   6.345347     +/-    3.744482     %    6.504416     +/-    3.692493     % 
   6.626639     +/-    3.673391     %    6.771885     +/-    3.682055     % 
   6.998884     +/-    3.641088     %    7.151547     +/-    3.650528     % 
   7.371639     +/-    3.578084     %    7.698110     +/-    3.552833     % 
   7.865850     +/-    3.528450     %    7.960953     +/-    3.506546     % 
   8.048912     +/-    3.499826     %    8.232714     +/-    3.511753     % 
   8.447094     +/-    3.498489     %    8.634748     +/-    3.465766     % 
   8.802850     +/-    3.448703     %    8.820195     +/-    3.441170     % 
   8.845780     +/-    3.444349     %    8.916630     +/-    3.438363     % 
   9.223168     +/-    3.408447     %    9.399185     +/-    3.421777     % 
   9.699788     +/-    3.366748     %    9.864695     +/-    3.341673     % 
   9.964675     +/-    3.328793     %    10.18300     +/-    3.304971     % 
   10.25685     +/-    3.311224     %    10.51038     +/-    3.270880     % 
   10.76371     +/-    3.255272     %    10.96008     +/-    3.231242     % 
   11.15282     +/-    3.190192     %    11.38814     +/-    3.156569     % 
   11.60169     +/-    3.122839     %    11.81122     +/-    3.100446     % 
   11.98055     +/-    3.085876     %    12.18050     +/-    3.059140     % 
   12.38914     +/-    3.055818     %    12.59026     +/-    3.032679     % 
   12.82111     +/-    3.012281     %    12.99655     +/-    2.983970     % 
   13.11122     +/-    2.976229     %    13.19243     +/-    2.958211     % 
   13.38519     +/-    2.924654     %    13.57580     +/-    2.914171     % 
   13.79449     +/-    2.891899     %    13.91408     +/-    2.896023     % 
   14.01642     +/-    2.896100     %    14.09586     +/-    2.888641     % 
   14.17491     +/-    2.880435     %    14.37363     +/-    2.883794     % 
   14.53905     +/-    2.880846     %    14.70982     +/-    2.866542     % 
   14.88507     +/-    2.865815     %    14.97005     +/-    2.863448     % 
   15.06392     +/-    2.848471     %    15.25087     +/-    2.838527     % 
   15.44008     +/-    2.826925     %    15.85490     +/-    2.798630     % 
   16.30870     +/-    2.786217     %    16.70916     +/-    2.774312     % 
   17.16993     +/-    2.754887     %    17.56419     +/-    2.712045     % 
   17.97819     +/-    2.680669     %    18.43343     +/-    2.679955     % 
   18.80802     +/-    2.680042     %    19.22553     +/-    2.663892     % 
   19.59071     +/-    2.632088     %    20.06084     +/-    2.627243     % 
   20.42148     +/-    2.640197     %    20.81761     +/-    2.630427     % 
   21.23820     +/-    2.638784     %    21.65007     +/-    2.629412     % 
   22.01075     +/-    2.629110     %    22.42878     +/-    2.614636     % 
   22.89940     +/-    2.601990     %    23.24859     +/-    2.600867     % 
   23.63860     +/-    2.598457     %    24.03732     +/-    2.594979     % 
   24.35614     +/-    2.583107     %    24.69954     +/-    2.570305     % 
   25.02403     +/-    2.570541     %    25.43048     +/-    2.543777     % 
   25.78225     +/-    2.535449     %    26.05341     +/-    2.545088     % 
   26.44770     +/-    2.529564     %    26.84509     +/-    2.520711     % 
   26.95739     +/-    2.537923     %    27.24250     +/-    2.525117     % 
   27.37403     +/-    2.525393     %    27.58439     +/-    2.521678     % 
   27.92720     +/-    2.531242     %    28.48940     +/-    2.519906     % 
   29.12609     +/-    2.507257     %    29.85363     +/-    2.520975     % 
   30.80838     +/-    2.519710     %    31.87409     +/-    2.513091     % 
   32.97586     +/-    2.518793     %    33.78741     +/-    2.506859     % 
   34.31961     +/-    2.502511     %    34.62171     +/-    2.505523     % 
   34.79273     +/-    2.504441     %    34.88044     +/-    2.504053     % 
   34.90762     +/-    2.504048     %    34.91794     +/-    2.504074     % 
   34.92853     +/-    2.503300     %    34.92853     +/-    2.503300     % 
   34.93064     +/-    2.503068     %    34.93064     +/-    2.503068     % 
   34.93064     +/-    2.503068     %    34.93064     +/-    2.503068     % 
   34.93064     +/-    2.503068     %    34.93064     +/-    2.503068     % 

  Detector n:  2  MB1_1_Nhi 
     (Volume:         1. cmc,
      distr. scored: 8   ,
      from reg. 181 )

     Tot. response (p/cmq/pr)  0.8080434      +/-   5.005636     %
     ( --> Track l. (cm/pr)      0.8080434      +/-   5.005636     % )

  **** Different. Fluxes as a function of energy ****
  ****      (integrated over solid angle)        ****


  Energy boundaries (GeV):

   99.99994       91.83538       84.33743       77.45164       71.12806    
   65.32076       59.98761       55.08988       50.59204       46.46142    
   42.66805       39.18439       35.98515       33.04712       30.34897    
   27.87111       25.59556       23.50579       21.58665       19.82419    
   18.20563       16.71922       15.35417       14.10057       12.94932    
   11.89207       10.92113       10.02947       9.210606       8.458600    
   7.767992       7.133770       6.551329       6.016442       5.525226    
   5.074115       4.659836       4.279381       3.929988       3.609122    
   3.314453       3.043842       2.795326       2.567100       2.357507    
   2.165027       1.988262       1.825929       1.676850       1.539943    
   1.414213       1.298749       1.192712       1.095332       1.005903    
  0.9237754      0.8483531      0.7790889      0.7154796      0.6570638    
  0.6034175      0.5541511      0.5089071      0.4673570      0.4291994    
  0.3941571      0.3619759      0.3324222      0.3052814      0.2803565    
  0.2574666      0.2364456      0.2171408      0.1994122      0.1831311    
  0.1681793      0.1544482      0.1418381      0.1302577      0.1196227    
  0.1098560      0.1008868      9.2649810E-02  8.5085362E-02  7.8138515E-02
  7.1758844E-02  6.5900050E-02  6.0519602E-02  5.5578440E-02  5.1040705E-02
  4.6873454E-02  4.3046441E-02  3.9531890E-02  3.6304284E-02  3.3340197E-02
  3.0618116E-02  2.8118281E-02  2.5822546E-02  2.3714250E-02  2.1778084E-02
  Lowest boundary   (GeV):  2.0000000E-02

  Flux (Part/GeV/cmq/pr):

   0.000000     +/-    0.000000     %    0.000000     +/-    0.000000     % 
   0.000000     +/-    0.000000     %    0.000000     +/-    0.000000     % 
   0.000000     +/-    0.000000     %    0.000000     +/-    0.000000     % 
   0.000000     +/-    0.000000     %    0.000000     +/-    0.000000     % 
   0.000000     +/-    0.000000     %    0.000000     +/-    0.000000     % 
   0.000000     +/-    0.000000     %    0.000000     +/-    0.000000     % 
   0.000000     +/-    0.000000     %    0.000000     +/-    0.000000     % 
   0.000000     +/-    0.000000     %    0.000000     +/-    0.000000     % 
   0.000000     +/-    0.000000     %    0.000000     +/-    0.000000     % 
   0.000000     +/-    0.000000     %    0.000000     +/-    0.000000     % 
   0.000000     +/-    0.000000     %    0.000000     +/-    0.000000     % 
   0.000000     +/-    0.000000     %    0.000000     +/-    0.000000     % 
   0.000000     +/-    0.000000     %    0.000000     +/-    0.000000     % 
   0.000000     +/-    0.000000     %    0.000000     +/-    0.000000     % 
   0.000000     +/-    0.000000     %    0.000000     +/-    0.000000     % 
   0.000000     +/-    0.000000     %    0.000000     +/-    0.000000     % 
   0.000000     +/-    0.000000     %    0.000000     +/-    0.000000     % 
   0.000000     +/-    0.000000     %    0.000000     +/-    0.000000     % 
   0.000000     +/-    0.000000     %    0.000000     +/-    0.000000     % 
   0.000000     +/-    0.000000     %    0.000000     +/-    0.000000     % 
   0.000000     +/-    0.000000     %    0.000000     +/-    0.000000     % 
   0.000000     +/-    0.000000     %    0.000000     +/-    0.000000     % 
   0.000000     +/-    0.000000     %    0.000000     +/-    0.000000     % 
   0.000000     +/-    0.000000     %    0.000000     +/-    0.000000     % 
  1.1545610E-02 +/-    94.37989     %    0.000000     +/-    0.000000     % 
   0.000000     +/-    0.000000     %    0.000000     +/-    0.000000     % 
   0.000000     +/-    0.000000     %    0.000000     +/-    0.000000     % 
   0.000000     +/-    0.000000     %    0.000000     +/-    0.000000     % 
   0.000000     +/-    0.000000     %    0.000000     +/-    0.000000     % 
   0.000000     +/-    0.000000     %    0.000000     +/-    0.000000     % 
  1.2580421E-02 +/-    94.37989     %    0.000000     +/-    0.000000     % 
   0.000000     +/-    0.000000     %   3.7522059E-02 +/-    94.37989     % 
  0.2361554     +/-    39.25311     %   1.9933980E-02 +/-    94.37989     % 
  0.1348397     +/-    57.79465     %   0.2822185     +/-    38.95537     % 
  0.1805891     +/-    48.65034     %   0.3602231     +/-    39.33365     % 
  0.4042222     +/-    37.74148     %   0.6945871     +/-    32.47257     % 
  0.6285571     +/-    34.72445     %    1.360326     +/-    22.37336     % 
   1.283581     +/-    24.38992     %    1.795454     +/-    24.93153     % 
   1.319409     +/-    28.16820     %    2.751031     +/-    19.02150     % 
   3.247036     +/-    22.62108     %    4.578912     +/-    18.51108     % 
   4.357609     +/-    19.93707     %    2.927712     +/-    23.00080     % 
   5.255974     +/-    16.99596     %    5.356601     +/-    22.72920     % 
   5.379419     +/-    21.32989     %    5.874857     +/-    19.93385     % 
   5.020646     +/-    26.92111     %    4.150668     +/-    23.67346     % 
   8.301293     +/-    21.13583     %    8.581878     +/-    22.26346     % 
   6.511950     +/-    24.73846     %    5.915379     +/-    24.81141     % 
   6.259796     +/-    27.15871     %    5.429342     +/-    27.87829     % 
   7.385438     +/-    28.06635     %    8.929446     +/-    27.82581     % 
   9.374569     +/-    48.29993     %    10.95963     +/-    26.86137     % 
   16.21469     +/-    25.84666     %    7.869375     +/-    49.12499     % 


  **** Cumulative Fluxes as a function of energy ****
  ****      (integrated over solid angle)        ****


  Energy boundaries (GeV):


   99.99994       91.83538       84.33743       77.45164       71.12806    
   65.32076       59.98761       55.08988       50.59204       46.46142    
   42.66805       39.18439       35.98515       33.04712       30.34897    
   27.87111       25.59556       23.50579       21.58665       19.82419    
   18.20563       16.71922       15.35417       14.10057       12.94932    
   11.89207       10.92113       10.02947       9.210606       8.458600    
   7.767992       7.133770       6.551329       6.016442       5.525226    
   5.074115       4.659836       4.279381       3.929988       3.609122    
   3.314453       3.043842       2.795326       2.567100       2.357507    
   2.165027       1.988262       1.825929       1.676850       1.539943    
   1.414213       1.298749       1.192712       1.095332       1.005903    
  0.9237754      0.8483531      0.7790889      0.7154796      0.6570638    
  0.6034175      0.5541511      0.5089071      0.4673570      0.4291994    
  0.3941571      0.3619759      0.3324222      0.3052814      0.2803565    
  0.2574666      0.2364456      0.2171408      0.1994122      0.1831311    
  0.1681793      0.1544482      0.1418381      0.1302577      0.1196227    
  0.1098560      0.1008868      9.2649810E-02  8.5085362E-02  7.8138515E-02
  7.1758844E-02  6.5900050E-02  6.0519602E-02  5.5578440E-02  5.1040705E-02
  4.6873454E-02  4.3046441E-02  3.9531890E-02  3.6304284E-02  3.3340197E-02
  3.0618116E-02  2.8118281E-02  2.5822546E-02  2.3714250E-02  2.1778084E-02
  Lowest boundary   (GeV):  2.0000000E-02

  Cumul. Flux (Part/cmq/pr):

   0.000000     +/-    0.000000     %    0.000000     +/-    0.000000     % 
   0.000000     +/-    0.000000     %    0.000000     +/-    0.000000     % 
   0.000000     +/-    0.000000     %    0.000000     +/-    0.000000     % 
   0.000000     +/-    0.000000     %    0.000000     +/-    0.000000     % 
   0.000000     +/-    0.000000     %    0.000000     +/-    0.000000     % 
   0.000000     +/-    0.000000     %    0.000000     +/-    0.000000     % 
   0.000000     +/-    0.000000     %    0.000000     +/-    0.000000     % 
   0.000000     +/-    0.000000     %    0.000000     +/-    0.000000     % 
   0.000000     +/-    0.000000     %    0.000000     +/-    0.000000     % 
   0.000000     +/-    0.000000     %    0.000000     +/-    0.000000     % 
   0.000000     +/-    0.000000     %    0.000000     +/-    0.000000     % 
   0.000000     +/-    0.000000     %    0.000000     +/-    0.000000     % 
   0.000000     +/-    0.000000     %    0.000000     +/-    0.000000     % 
   0.000000     +/-    0.000000     %    0.000000     +/-    0.000000     % 
   0.000000     +/-    0.000000     %    0.000000     +/-    0.000000     % 
   0.000000     +/-    0.000000     %    0.000000     +/-    0.000000     % 
   0.000000     +/-    0.000000     %    0.000000     +/-    0.000000     % 
   0.000000     +/-    0.000000     %    0.000000     +/-    0.000000     % 
   0.000000     +/-    0.000000     %    0.000000     +/-    0.000000     % 
   0.000000     +/-    0.000000     %    0.000000     +/-    0.000000     % 
   0.000000     +/-    0.000000     %    0.000000     +/-    0.000000     % 
   0.000000     +/-    0.000000     %    0.000000     +/-    0.000000     % 
   0.000000     +/-    0.000000     %    0.000000     +/-    0.000000     % 
   0.000000     +/-    0.000000     %    0.000000     +/-    0.000000     % 
  1.5806796E-03 +/-    94.37989     %   1.5806796E-03 +/-    94.37989     % 
  1.5806796E-03 +/-    94.37989     %   1.5806796E-03 +/-    94.37989     % 
  1.5806796E-03 +/-    94.37989     %   1.5806796E-03 +/-    94.37989     % 
  1.5806796E-03 +/-    94.37989     %   1.5806796E-03 +/-    94.37989     % 
  1.5806796E-03 +/-    94.37989     %   1.5806796E-03 +/-    94.37989     % 
  1.5806796E-03 +/-    94.37989     %   1.5806796E-03 +/-    94.37989     % 
  2.2004719E-03 +/-    72.70517     %   2.2004719E-03 +/-    72.70517     % 
  2.2004719E-03 +/-    72.70517     %   3.6322253E-03 +/-    57.48081     % 
  1.1907641E-02 +/-    32.15258     %   1.2549140E-02 +/-    30.82204     % 
  1.6534157E-02 +/-    26.94272     %   2.4193797E-02 +/-    22.36297     % 
  2.8694957E-02 +/-    21.60616     %   3.6940418E-02 +/-    19.40438     % 
  4.5437582E-02 +/-    17.20816     %   5.8846410E-02 +/-    14.80269     % 
  6.9989845E-02 +/-    13.26222     %   9.2137486E-02 +/-    11.33032     % 
  0.1113294     +/-    10.67838     %   0.1359830     +/-    9.523631     % 
  0.1526207     +/-    9.132766     %   0.1844789     +/-    8.448174     % 
  0.2190111     +/-    7.974734     %   0.2637318     +/-    7.066386     % 
  0.3028163     +/-    6.922493     %   0.3269318     +/-    6.618808     % 
  0.3666903     +/-    6.208196     %   0.4039018     +/-    6.006886     % 
  0.4382207     +/-    6.039856     %   0.4726403     +/-    5.916101     % 
  0.4996536     +/-    5.851202     %   0.5201628     +/-    5.703627     % 
  0.5578318     +/-    5.627284     %   0.5935947     +/-    5.509522     % 
  0.6185160     +/-    5.398433     %   0.6393059     +/-    5.271687     % 
  0.6595100     +/-    5.190066     %   0.6756031     +/-    5.058298     % 
  0.6957068     +/-    5.000223     %   0.7180290     +/-    4.949996     % 
  0.7395505     +/-    5.028287     %   0.7626567     +/-    5.067623     % 
  0.7940510     +/-    4.964524     %   0.8080434     +/-    5.005636     % 

  Detector n:  3  MB1_1_ph  
     (Volume:         1. cmc,
      distr. scored: 7   ,
      from reg. 181 )

     Tot. response (p/cmq/pr)   15.54137      +/-   2.904899     %
     ( --> Track l. (cm/pr)       15.54137      +/-   2.904899     % )

  **** Different. Fluxes as a function of energy ****
  ****      (integrated over solid angle)        ****


  Energy boundaries (GeV):

   99.99997       85.11378       72.44357       61.65948       52.48073    
   44.66835       38.01893       32.35936       27.54228       23.44228    
   19.95262       16.98243       14.45439       12.30268       10.47128    
   8.912507       7.585774       6.456541       5.495407       4.677350    
   3.981071       3.388441       2.884031       2.454708       2.089296    
   1.778279       1.513561       1.288249       1.096478      0.9332541    
  0.7943280      0.6760828      0.5754398      0.4897787      0.4168693    
  0.3548133      0.3019951      0.2570395      0.2187761      0.1862087    
  0.1584893      0.1348963      0.1148153      9.7723700E-02  8.3176360E-02
  7.0794567E-02  6.0255948E-02  5.1286127E-02  4.3651577E-02  3.7153516E-02
  3.1622771E-02  2.6915343E-02  2.2908673E-02  1.9498443E-02  1.6595867E-02
  1.4125373E-02  1.2022642E-02  1.0232928E-02  8.7096347E-03  7.4131014E-03
  6.3095726E-03  5.3703170E-03  4.5708814E-03  3.8904510E-03  3.3113109E-03
  2.8183826E-03  2.3988327E-03  2.0417378E-03  1.7378007E-03  1.4791082E-03
  1.2589253E-03  1.0715192E-03  9.1201073E-04  7.7624706E-04  6.6069339E-04
  5.6234124E-04  4.7863004E-04  4.0738023E-04  3.4673681E-04  2.9512090E-04
  2.5118861E-04  2.1379619E-04  1.8197007E-04  1.5488165E-04  1.3182567E-04
  1.1220184E-04  9.5499250E-05  8.1283048E-05  6.9183094E-05  5.8884361E-05
  5.0118721E-05  4.2657950E-05  3.6307803E-05  3.0902953E-05  2.6302680E-05
  2.2387210E-05  1.9054607E-05  1.6218100E-05  1.3803842E-05  1.1748975E-05
  Lowest boundary   (GeV):  9.9999997E-06

  Flux (Part/GeV/cmq/pr):

   0.000000     +/-    0.000000     %    0.000000     +/-    0.000000     % 
   0.000000     +/-    0.000000     %    0.000000     +/-    0.000000     % 
   0.000000     +/-    0.000000     %    0.000000     +/-    0.000000     % 
   0.000000     +/-    0.000000     %    0.000000     +/-    0.000000     % 
   0.000000     +/-    0.000000     %    0.000000     +/-    0.000000     % 
   0.000000     +/-    0.000000     %    0.000000     +/-    0.000000     % 
   0.000000     +/-    0.000000     %    0.000000     +/-    0.000000     % 
   0.000000     +/-    0.000000     %    0.000000     +/-    0.000000     % 
   0.000000     +/-    0.000000     %    0.000000     +/-    0.000000     % 
   0.000000     +/-    0.000000     %    0.000000     +/-    0.000000     % 
   0.000000     +/-    0.000000     %    0.000000     +/-    0.000000     % 
   0.000000     +/-    0.000000     %    0.000000     +/-    0.000000     % 
   0.000000     +/-    0.000000     %    0.000000     +/-    0.000000     % 
   0.000000     +/-    0.000000     %    0.000000     +/-    0.000000     % 
   0.000000     +/-    0.000000     %    0.000000     +/-    0.000000     % 
   0.000000     +/-    0.000000     %    0.000000     +/-    0.000000     % 
   0.000000     +/-    0.000000     %    0.000000     +/-    0.000000     % 
   0.000000     +/-    0.000000     %    0.000000     +/-    0.000000     % 
   0.000000     +/-    0.000000     %    0.000000     +/-    0.000000     % 
   0.000000     +/-    0.000000     %    0.000000     +/-    0.000000     % 
   0.000000     +/-    0.000000     %    0.000000     +/-    0.000000     % 
   0.000000     +/-    0.000000     %   5.7145163E-02 +/-    94.37989     % 
  5.2689184E-02 +/-    94.37989     %   6.3243970E-02 +/-    94.37989     % 
  0.1051282     +/-    87.93899     %    0.000000     +/-    0.000000     % 
  0.1260027     +/-    94.37989     %   0.6180694     +/-    66.99762     % 
  0.5439495     +/-    67.50265     %   0.8842829     +/-    78.49480     % 
   1.512472     +/-    72.90881     %    1.223553     +/-    69.64236     % 
   1.952033     +/-    47.90239     %   0.9673661     +/-    94.37989     % 
   3.118100     +/-    49.31191     %    87.70307     +/-    16.92744     % 
   729.6656     +/-    6.909827     %    282.9053     +/-    9.716365     % 
   410.5403     +/-    8.557165     %    369.7306     +/-    10.38593     % 
   533.7521     +/-    10.03677     %    643.8768     +/-    9.556314     % 
   701.5811     +/-    8.392347     %    677.4917     +/-    7.988258     % 
   1238.812     +/-    7.467793     %    1581.129     +/-    8.171423     % 
   1150.973     +/-    10.34631     %    1590.466     +/-    10.72883     % 
   1729.464     +/-    10.07774     %    2689.403     +/-    9.119675     % 
   3321.608     +/-    7.255339     %    2721.577     +/-    8.825538     % 
   3690.930     +/-    7.782179     %    10026.57     +/-    5.251989     % 
   7350.732     +/-    6.900928     %    9559.693     +/-    6.802391     % 
   13635.89     +/-    6.515830     %    15572.62     +/-    5.950653     % 
   18530.82     +/-    6.474084     %    23968.62     +/-    5.829609     % 
   27223.12     +/-    6.256362     %    29441.38     +/-    6.061779     % 
   35512.26     +/-    8.669701     %    34211.30     +/-    6.983690     % 
   33277.02     +/-    7.411771     %    23354.52     +/-    9.410567     % 
   16360.21     +/-    9.051904     %    14032.79     +/-    14.76330     % 
   7155.854     +/-    22.73484     %    3224.751     +/-    33.00095     % 
   1307.109     +/-    38.59860     %    1456.277     +/-    51.80080     % 
   259.8680     +/-    94.37989     %    1901.056     +/-    80.99689     % 
   0.000000     +/-    0.000000     %    837.2974     +/-    77.32092     % 
   0.000000     +/-    0.000000     %    0.000000     +/-    0.000000     % 


  **** Cumulative Fluxes as a function of energy ****
  ****      (integrated over solid angle)        ****


  Energy boundaries (GeV):


   99.99997       85.11378       72.44357       61.65948       52.48073    
   44.66835       38.01893       32.35936       27.54228       23.44228    
   19.95262       16.98243       14.45439       12.30268       10.47128    
   8.912507       7.585774       6.456541       5.495407       4.677350    
   3.981071       3.388441       2.884031       2.454708       2.089296    
   1.778279       1.513561       1.288249       1.096478      0.9332541    
  0.7943280      0.6760828      0.5754398      0.4897787      0.4168693    
  0.3548133      0.3019951      0.2570395      0.2187761      0.1862087    
  0.1584893      0.1348963      0.1148153      9.7723700E-02  8.3176360E-02
  7.0794567E-02  6.0255948E-02  5.1286127E-02  4.3651577E-02  3.7153516E-02
  3.1622771E-02  2.6915343E-02  2.2908673E-02  1.9498443E-02  1.6595867E-02
  1.4125373E-02  1.2022642E-02  1.0232928E-02  8.7096347E-03  7.4131014E-03
  6.3095726E-03  5.3703170E-03  4.5708814E-03  3.8904510E-03  3.3113109E-03
  2.8183826E-03  2.3988327E-03  2.0417378E-03  1.7378007E-03  1.4791082E-03
  1.2589253E-03  1.0715192E-03  9.1201073E-04  7.7624706E-04  6.6069339E-04
  5.6234124E-04  4.7863004E-04  4.0738023E-04  3.4673681E-04  2.9512090E-04
  2.5118861E-04  2.1379619E-04  1.8197007E-04  1.5488165E-04  1.3182567E-04
  1.1220184E-04  9.5499250E-05  8.1283048E-05  6.9183094E-05  5.8884361E-05
  5.0118721E-05  4.2657950E-05  3.6307803E-05  3.0902953E-05  2.6302680E-05
  2.2387210E-05  1.9054607E-05  1.6218100E-05  1.3803842E-05  1.1748975E-05
  Lowest boundary   (GeV):  9.9999997E-06

  Cumul. Flux (Part/cmq/pr):

   0.000000     +/-    0.000000     %    0.000000     +/-    0.000000     % 
   0.000000     +/-    0.000000     %    0.000000     +/-    0.000000     % 
   0.000000     +/-    0.000000     %    0.000000     +/-    0.000000     % 
   0.000000     +/-    0.000000     %    0.000000     +/-    0.000000     % 
   0.000000     +/-    0.000000     %    0.000000     +/-    0.000000     % 
   0.000000     +/-    0.000000     %    0.000000     +/-    0.000000     % 
   0.000000     +/-    0.000000     %    0.000000     +/-    0.000000     % 
   0.000000     +/-    0.000000     %    0.000000     +/-    0.000000     % 
   0.000000     +/-    0.000000     %    0.000000     +/-    0.000000     % 
   0.000000     +/-    0.000000     %    0.000000     +/-    0.000000     % 
   0.000000     +/-    0.000000     %    0.000000     +/-    0.000000     % 
   0.000000     +/-    0.000000     %    0.000000     +/-    0.000000     % 
   0.000000     +/-    0.000000     %    0.000000     +/-    0.000000     % 
   0.000000     +/-    0.000000     %    0.000000     +/-    0.000000     % 
   0.000000     +/-    0.000000     %    0.000000     +/-    0.000000     % 
   0.000000     +/-    0.000000     %    0.000000     +/-    0.000000     % 
   0.000000     +/-    0.000000     %    0.000000     +/-    0.000000     % 
   0.000000     +/-    0.000000     %    0.000000     +/-    0.000000     % 
   0.000000     +/-    0.000000     %    0.000000     +/-    0.000000     % 
   0.000000     +/-    0.000000     %    0.000000     +/-    0.000000     % 
   0.000000     +/-    0.000000     %    0.000000     +/-    0.000000     % 
   0.000000     +/-    0.000000     %   8.3131035E-04 +/-    94.37989     % 
  1.4836970E-03 +/-    67.06600     %   2.1502010E-03 +/-    68.28519     % 
  3.0931816E-03 +/-    65.70472     %   3.0931816E-03 +/-    65.70472     % 
  3.9119548E-03 +/-    65.86674     %   7.3303389E-03 +/-    57.19999     % 
  9.8909419E-03 +/-    49.57223     %   1.3433972E-02 +/-    52.78183     % 
  1.8591851E-02 +/-    56.85684     %   2.2143304E-02 +/-    57.09568     % 
  2.6965789E-02 +/-    53.62190     %   2.8999900E-02 +/-    51.50642     % 
  3.4580410E-02 +/-    47.22117     %   0.1681779     +/-    18.67983     % 
   1.114214     +/-    6.618314     %    1.426408     +/-    5.662764     % 
   1.812010     +/-    4.993883     %    2.107586     +/-    4.679459     % 
   2.470767     +/-    4.535326     %    2.843662     +/-    4.167176     % 
   3.189491     +/-    3.937567     %    3.473732     +/-    3.809768     % 
   3.916106     +/-    3.647249     %    4.396669     +/-    3.483126     % 
   4.694417     +/-    3.465092     %    5.044611     +/-    3.468235     % 
   5.368723     +/-    3.441473     %    5.797705     +/-    3.391364     % 
   6.248659     +/-    3.272105     %    6.563147     +/-    3.236419     % 
   6.926158     +/-    3.208593     %    7.765494     +/-    3.127594     % 
   8.289232     +/-    3.087951     %    8.868965     +/-    3.015763     % 
   9.572794     +/-    2.938039     %    10.25694     +/-    2.872330     % 
   10.94985     +/-    2.870100     %    11.71268     +/-    2.846081     % 
   12.45011     +/-    2.852427     %    13.12891     +/-    2.837089     % 
   13.82579     +/-    2.876989     %    14.39721     +/-    2.885332     % 
   14.87028     +/-    2.883465     %    15.15287     +/-    2.870013     % 
   15.32136     +/-    2.860847     %    15.44437     +/-    2.895152     % 
   15.49776     +/-    2.899246     %    15.51823     +/-    2.902164     % 
   15.52530     +/-    2.904259     %    15.53200     +/-    2.903093     % 
   15.53302     +/-    2.903598     %    15.53935     +/-    2.904825     % 
   15.53935     +/-    2.904825     %    15.54137     +/-    2.904899     % 
   15.54137     +/-    2.904899     %    15.54137     +/-    2.904899     % 

  Detector n:  4  MB1_1_ep  
     (Volume:         1. cmc,
      distr. scored: 213   ,
      from reg. 181 )

     Tot. response (p/cmq/pr)  0.3337376      +/-   14.62849     %
     ( --> Track l. (cm/pr)      0.3337376      +/-   14.62849     % )

  **** Different. Fluxes as a function of energy ****
  ****      (integrated over solid angle)        ****


  Energy boundaries (GeV):

   99.99997       85.11378       72.44357       61.65948       52.48073    
   44.66835       38.01893       32.35936       27.54228       23.44228    
   19.95262       16.98243       14.45439       12.30268       10.47128    
   8.912507       7.585774       6.456541       5.495407       4.677350    
   3.981071       3.388441       2.884031       2.454708       2.089296    
   1.778279       1.513561       1.288249       1.096478      0.9332541    
  0.7943280      0.6760828      0.5754398      0.4897787      0.4168693    
  0.3548133      0.3019951      0.2570395      0.2187761      0.1862087    
  0.1584893      0.1348963      0.1148153      9.7723700E-02  8.3176360E-02
  7.0794567E-02  6.0255948E-02  5.1286127E-02  4.3651577E-02  3.7153516E-02
  3.1622771E-02  2.6915343E-02  2.2908673E-02  1.9498443E-02  1.6595867E-02
  1.4125373E-02  1.2022642E-02  1.0232928E-02  8.7096347E-03  7.4131014E-03
  6.3095726E-03  5.3703170E-03  4.5708814E-03  3.8904510E-03  3.3113109E-03
  2.8183826E-03  2.3988327E-03  2.0417378E-03  1.7378007E-03  1.4791082E-03
  1.2589253E-03  1.0715192E-03  9.1201073E-04  7.7624706E-04  6.6069339E-04
  5.6234124E-04  4.7863004E-04  4.0738023E-04  3.4673681E-04  2.9512090E-04
  2.5118861E-04  2.1379619E-04  1.8197007E-04  1.5488165E-04  1.3182567E-04
  1.1220184E-04  9.5499250E-05  8.1283048E-05  6.9183094E-05  5.8884361E-05
  5.0118721E-05  4.2657950E-05  3.6307803E-05  3.0902953E-05  2.6302680E-05
  2.2387210E-05  1.9054607E-05  1.6218100E-05  1.3803842E-05  1.1748975E-05
  Lowest boundary   (GeV):  9.9999997E-06

  Flux (Part/GeV/cmq/pr):

   0.000000     +/-    0.000000     %    0.000000     +/-    0.000000     % 
   0.000000     +/-    0.000000     %    0.000000     +/-    0.000000     % 
   0.000000     +/-    0.000000     %    0.000000     +/-    0.000000     % 
   0.000000     +/-    0.000000     %    0.000000     +/-    0.000000     % 
   0.000000     +/-    0.000000     %    0.000000     +/-    0.000000     % 
   0.000000     +/-    0.000000     %    0.000000     +/-    0.000000     % 
   0.000000     +/-    0.000000     %    0.000000     +/-    0.000000     % 
   0.000000     +/-    0.000000     %    0.000000     +/-    0.000000     % 
   0.000000     +/-    0.000000     %    0.000000     +/-    0.000000     % 
   0.000000     +/-    0.000000     %    0.000000     +/-    0.000000     % 
   0.000000     +/-    0.000000     %    0.000000     +/-    0.000000     % 
   0.000000     +/-    0.000000     %    0.000000     +/-    0.000000     % 
   0.000000     +/-    0.000000     %    0.000000     +/-    0.000000     % 
   0.000000     +/-    0.000000     %    0.000000     +/-    0.000000     % 
   0.000000     +/-    0.000000     %    0.000000     +/-    0.000000     % 
   0.000000     +/-    0.000000     %    0.000000     +/-    0.000000     % 
   0.000000     +/-    0.000000     %    0.000000     +/-    0.000000     % 
   0.000000     +/-    0.000000     %   1.2559861E-02 +/-    94.37989     % 
  1.7968424E-02 +/-    94.37989     %    0.000000     +/-    0.000000     % 
  2.0407924E-02 +/-    94.37989     %    0.000000     +/-    0.000000     % 
   0.000000     +/-    0.000000     %   3.0738261E-02 +/-    94.37989     % 
  7.8762621E-02 +/-    94.37989     %    0.000000     +/-    0.000000     % 
  0.2175217     +/-    67.47682     %    0.000000     +/-    0.000000     % 
  6.9881648E-02 +/-    94.37989     %   0.1018794     +/-    94.37989     % 
  0.2076075     +/-    99.00000     %    0.000000     +/-    0.000000     % 
  0.4500385     +/-    66.71003     %   0.2268753     +/-    94.37989     % 
  0.1877249     +/-    94.37989     %    2.744432     +/-    81.75407     % 
   2.060122     +/-    57.37638     %    0.000000     +/-    0.000000     % 
   0.000000     +/-    0.000000     %    1.566714     +/-    70.55951     % 
   1.562126     +/-    84.07729     %    3.747229     +/-    41.92229     % 
   11.09051     +/-    35.99679     %    8.267844     +/-    42.45370     % 
   26.64947     +/-    41.48748     %    31.88238     +/-    36.63971     % 
   21.73528     +/-    31.95797     %    30.26730     +/-    29.98647     % 
   33.53378     +/-    41.63615     %    51.01334     +/-    27.78502     % 
   48.43790     +/-    34.62935     %    108.3665     +/-    32.38600     % 
   117.8392     +/-    25.34305     %    91.06516     +/-    34.74366     % 
   87.65589     +/-    39.52492     %    117.5316     +/-    26.36986     % 
   190.7168     +/-    31.07314     %    156.3226     +/-    29.20163     % 
   124.4119     +/-    32.80366     %    139.5293     +/-    33.51469     % 
   133.3993     +/-    30.65634     %    183.9014     +/-    29.61439     % 
   158.8078     +/-    31.93985     %    122.1570     +/-    36.80145     % 
   148.1730     +/-    33.71334     %    130.9095     +/-    51.65037     % 
   127.3498     +/-    32.05302     %    171.9401     +/-    28.02040     % 
   109.1104     +/-    32.32433     %    123.3650     +/-    27.53987     % 
   140.3119     +/-    24.75584     %    181.5925     +/-    23.57517     % 
   137.4364     +/-    28.94151     %    189.7725     +/-    23.87122     % 
   129.3840     +/-    22.06006     %    119.4685     +/-    28.02331     % 
   0.000000     +/-    0.000000     %    0.000000     +/-    0.000000     % 
   0.000000     +/-    0.000000     %    0.000000     +/-    0.000000     % 
   0.000000     +/-    0.000000     %    0.000000     +/-    0.000000     % 


  **** Cumulative Fluxes as a function of energy ****
  ****      (integrated over solid angle)        ****


  Energy boundaries (GeV):


   99.99997       85.11378       72.44357       61.65948       52.48073    
   44.66835       38.01893       32.35936       27.54228       23.44228    
   19.95262       16.98243       14.45439       12.30268       10.47128    
   8.912507       7.585774       6.456541       5.495407       4.677350    
   3.981071       3.388441       2.884031       2.454708       2.089296    
   1.778279       1.513561       1.288249       1.096478      0.9332541    
  0.7943280      0.6760828      0.5754398      0.4897787      0.4168693    
  0.3548133      0.3019951      0.2570395      0.2187761      0.1862087    
  0.1584893      0.1348963      0.1148153      9.7723700E-02  8.3176360E-02
  7.0794567E-02  6.0255948E-02  5.1286127E-02  4.3651577E-02  3.7153516E-02
  3.1622771E-02  2.6915343E-02  2.2908673E-02  1.9498443E-02  1.6595867E-02
  1.4125373E-02  1.2022642E-02  1.0232928E-02  8.7096347E-03  7.4131014E-03
  6.3095726E-03  5.3703170E-03  4.5708814E-03  3.8904510E-03  3.3113109E-03
  2.8183826E-03  2.3988327E-03  2.0417378E-03  1.7378007E-03  1.4791082E-03
  1.2589253E-03  1.0715192E-03  9.1201073E-04  7.7624706E-04  6.6069339E-04
  5.6234124E-04  4.7863004E-04  4.0738023E-04  3.4673681E-04  2.9512090E-04
  2.5118861E-04  2.1379619E-04  1.8197007E-04  1.5488165E-04  1.3182567E-04
  1.1220184E-04  9.5499250E-05  8.1283048E-05  6.9183094E-05  5.8884361E-05
  5.0118721E-05  4.2657950E-05  3.6307803E-05  3.0902953E-05  2.6302680E-05
  2.2387210E-05  1.9054607E-05  1.6218100E-05  1.3803842E-05  1.1748975E-05
  Lowest boundary   (GeV):  9.9999997E-06

  Cumul. Flux (Part/cmq/pr):

   0.000000     +/-    0.000000     %    0.000000     +/-    0.000000     % 
   0.000000     +/-    0.000000     %    0.000000     +/-    0.000000     % 
   0.000000     +/-    0.000000     %    0.000000     +/-    0.000000     % 
   0.000000     +/-    0.000000     %    0.000000     +/-    0.000000     % 
   0.000000     +/-    0.000000     %    0.000000     +/-    0.000000     % 
   0.000000     +/-    0.000000     %    0.000000     +/-    0.000000     % 
   0.000000     +/-    0.000000     %    0.000000     +/-    0.000000     % 
   0.000000     +/-    0.000000     %    0.000000     +/-    0.000000     % 
   0.000000     +/-    0.000000     %    0.000000     +/-    0.000000     % 
   0.000000     +/-    0.000000     %    0.000000     +/-    0.000000     % 
   0.000000     +/-    0.000000     %    0.000000     +/-    0.000000     % 
   0.000000     +/-    0.000000     %    0.000000     +/-    0.000000     % 
   0.000000     +/-    0.000000     %    0.000000     +/-    0.000000     % 
   0.000000     +/-    0.000000     %    0.000000     +/-    0.000000     % 
   0.000000     +/-    0.000000     %    0.000000     +/-    0.000000     % 
   0.000000     +/-    0.000000     %    0.000000     +/-    0.000000     % 
   0.000000     +/-    0.000000     %    0.000000     +/-    0.000000     % 
   0.000000     +/-    0.000000     %   6.6338939E-04 +/-    94.37989     % 
  1.4711705E-03 +/-    94.37989     %   1.4711705E-03 +/-    94.37989     % 
  2.1358044E-03 +/-    71.21016     %   2.1358044E-03 +/-    71.21016     % 
  2.1358044E-03 +/-    71.21016     %   2.7530568E-03 +/-    75.03070     % 
  4.0992391E-03 +/-    80.47360     %   4.0992391E-03 +/-    80.47360     % 
  6.7925476E-03 +/-    58.80869     %   6.7925476E-03 +/-    58.80869     % 
  7.4193734E-03 +/-    60.46395     %   8.1971772E-03 +/-    62.52595     % 
  9.5462231E-03 +/-    56.82456     %   9.5462231E-03 +/-    56.82456     % 
  1.1664746E-02 +/-    57.09291     %   1.2573761E-02 +/-    58.70673     % 
  1.3213946E-02 +/-    56.67043     %   2.1179868E-02 +/-    49.87294     % 
  2.6269386E-02 +/-    47.97242     %   2.6269386E-02 +/-    47.97242     % 
  2.6269386E-02 +/-    47.97242     %   2.8655952E-02 +/-    47.64888     % 
  3.0681301E-02 +/-    46.80179     %   3.4816477E-02 +/-    41.54396     % 
  4.5233302E-02 +/-    35.62277     %   5.1842913E-02 +/-    31.49676     % 
  6.9976017E-02 +/-    31.55638     %   8.8440381E-02 +/-    30.41328     % 
  9.9154316E-02 +/-    28.05809     %   0.1118530     +/-    26.29763     % 
  0.1238277     +/-    26.98397     %   0.1393325     +/-    24.30380     % 
  0.1518631     +/-    22.52573     %   0.1757235     +/-    20.50064     % 
  0.1978073     +/-    18.95970     %   0.2123329     +/-    18.44222     % 
  0.2242334     +/-    18.04427     %   0.2378146     +/-    17.42577     % 
  0.2565720     +/-    16.72532     %   0.2696580     +/-    16.21459     % 
  0.2785223     +/-    16.11960     %   0.2869839     +/-    15.88526     % 
  0.2938694     +/-    15.68376     %   0.3019486     +/-    15.54856     % 
  0.3078868     +/-    15.36206     %   0.3117746     +/-    15.27403     % 
  0.3157884     +/-    15.14897     %   0.3188066     +/-    15.03712     % 
  0.3213057     +/-    14.95117     %   0.3241776     +/-    14.86286     % 
  0.3257287     +/-    14.81836     %   0.3272214     +/-    14.77561     % 
  0.3286664     +/-    14.73618     %   0.3302582     +/-    14.70089     % 
  0.3312836     +/-    14.67859     %   0.3324887     +/-    14.65651     % 
  0.3331880     +/-    14.64460     %   0.3337376     +/-    14.62849     % 
  0.3337376     +/-    14.62849     %   0.3337376     +/-    14.62849     % 
  0.3337376     +/-    14.62849     %   0.3337376     +/-    14.62849     % 
  0.3337376     +/-    14.62849     %   0.3337376     +/-    14.62849     % 
