 # Detector n:  1  ME22a_Nlow
 # N. of energy intervals 260
  1.0000100E-14  2.0000000E-13  1.1876290E+10   94.37989    
  2.0000000E-13  2.9297300E-13  1.9698448E+10   94.37989    
  2.9297300E-13  4.2916701E-13  7.0081339E+10   56.26442    
  4.2916701E-13  6.2867300E-13  8.0106693E+10   65.18436    
  6.2867300E-13  9.2092198E-13  4.5095603E+09   86.79813    
  9.2092198E-13  1.3490300E-12  1.2418360E+11   33.91931    
  1.3490300E-12  1.9761499E-12  1.1465594E+11   33.61172    
  1.9761499E-12  2.8947901E-12  1.9279911E+11   18.02732    
  2.8947901E-12  4.2404799E-12  2.9501574E+11   13.76922    
  4.2404799E-12  6.2117499E-12  4.5330724E+11   8.232586    
  6.2117499E-12  9.0993801E-12  6.7170448E+11   7.512193    
  9.0993801E-12  1.3329400E-11  6.9688944E+11   4.841775    
  1.3329400E-11  1.9525799E-11  8.9565744E+11   3.708050    
  1.9525799E-11  2.8602700E-11  9.9273376E+11   3.351807    
  2.8602700E-11  4.1899099E-11  9.5583837E+11   2.760118    
  4.1899099E-11  6.1376598E-11  7.7695772E+11   2.619598    
  6.1376598E-11  8.9908601E-11  4.8377224E+11   2.594021    
  8.9908601E-11  1.3170399E-10  2.1876023E+11   3.072975    
  1.3170399E-10  1.9292901E-10  8.8514249E+10   4.086695    
  1.9292901E-10  2.8261499E-10  3.5887956E+10   4.895079    
  2.8261499E-10  4.1399401E-10  2.0401338E+10   5.599088    
  4.1399401E-10  5.3157900E-10  1.2976449E+10   6.936534    
  5.3157900E-10  6.2506200E-10  1.0761706E+10   8.529847    
  6.2506200E-10  6.8256001E-10  8.6272389E+09   11.06059    
  6.8256001E-10  8.3368101E-10  8.3126712E+09   8.061679    
  8.3368101E-10  8.7642499E-10  6.2109158E+09   16.23593    
  8.7642499E-10  1.1253500E-09  6.0231900E+09   6.660917    
  1.1253500E-09  1.4449800E-09  5.2810900E+09   6.735025    
  1.4449800E-09  1.8553900E-09  3.4412785E+09   6.390316    
  1.8553900E-09  2.3823701E-09  2.9877394E+09   6.899845    
  2.3823701E-09  3.0590199E-09  2.1662595E+09   7.679019    
  3.0590199E-09  3.9278598E-09  1.8155241E+09   7.167552    
  3.9278598E-09  5.0434799E-09  1.2541014E+09   7.352432    
  5.0434799E-09  6.4759500E-09  1.0062350E+09   8.070734    
  6.4759500E-09  8.3152898E-09  7.2801190E+08   6.600391    
  8.3152898E-09  1.0677000E-08  5.9282566E+08   6.989715    
  1.0677000E-08  1.3709600E-08  4.9071363E+08   7.318321    
  1.3709600E-08  1.7603501E-08  3.2473069E+08   7.538035    
  1.7603501E-08  2.2603301E-08  2.8708109E+08   8.298061    
  2.2603301E-08  2.9023200E-08  2.5300866E+08   7.098467    
  2.9023200E-08  3.7266499E-08  1.6134949E+08   7.504201    
  3.7266499E-08  4.7851199E-08  1.3280202E+08   7.531476    
  4.7851199E-08  6.1442101E-08  1.0309938E+08   7.454770    
  6.1442101E-08  7.8893301E-08  8.1459144E+07   7.029543    
  7.8893301E-08  1.0130100E-07  6.6802476E+07   7.423906    
  1.0130100E-07  1.3007300E-07  5.0358632E+07   6.439317    
  1.3007300E-07  1.6701701E-07  3.6982316E+07   7.892323    
  1.6701701E-07  2.1445400E-07  3.0915050E+07   7.196413    
  2.1445400E-07  2.7536399E-07  2.2617140E+07   7.457413    
  2.7536399E-07  3.5357499E-07  1.6877520E+07   7.508224    
  3.5357499E-07  4.5399901E-07  1.4370304E+07   6.469471    
  4.5399901E-07  5.8294700E-07  1.2361004E+07   8.083261    
  5.8294700E-07  7.4851800E-07   7799176.       7.864214    
  7.4851800E-07  9.6111603E-07   7158375.       6.894884    
  9.6111603E-07  1.2341000E-06   4939320.       8.039587    
  1.2341000E-06  1.3638900E-06   4031307.       11.78676    
  1.3638900E-06  1.5073300E-06   3847581.       12.40914    
  1.5073300E-06  1.5846100E-06   3107949.       15.28872    
  1.5846100E-06  1.6658601E-06   3130603.       15.86747    
  1.6658601E-06  1.8410600E-06   2900702.       13.24478    
  1.8410600E-06  2.0346799E-06   2540304.       11.17978    
  2.0346799E-06  2.2486699E-06   2380385.       13.13626    
  2.2486699E-06  2.4851699E-06   2504901.       10.08115    
  2.4851699E-06  2.6125899E-06   2594052.       17.36649    
  2.6125899E-06  2.7465401E-06   2323322.       14.40709    
  2.7465401E-06  2.8634900E-06   2085687.       16.76200    
  2.8634900E-06  3.0353899E-06   1699020.       13.36131    
  3.0353899E-06  3.3546301E-06   2031700.       10.15802    
  3.3546301E-06  3.7074401E-06   1568993.       11.98185    
  3.7074401E-06  4.0973500E-06   1394335.       10.70335    
  4.0973500E-06  4.3074201E-06   1678924.       17.09360    
  4.3074201E-06  4.5282700E-06   1524368.       14.86085    
  4.5282700E-06  5.0045101E-06   1276066.       11.34290    
  5.0045101E-06  5.5308401E-06   1136939.       11.47504    
  5.5308401E-06  6.2672698E-06   1001757.       11.92720    
  6.2672698E-06  7.1017398E-06   759213.4       11.71845    
  7.1017398E-06  8.0473301E-06   666177.5       11.02413    
  8.0473301E-06  9.1188203E-06   529457.2       10.17644    
  9.1188203E-06  1.0333000E-05   498579.4       10.08826    
  1.0333000E-05  1.1708800E-05   511046.5       10.94259    
  1.1708800E-05  1.3267800E-05   484145.3       11.31008    
  1.3267800E-05  1.5034400E-05   357573.8       10.67412    
  1.5034400E-05  1.7036200E-05   397321.1       10.76224    
  1.7036200E-05  1.9304500E-05   338161.1       10.85471    
  1.9304500E-05  2.1334799E-05   272452.3       10.56250    
  2.1334799E-05  2.1874899E-05   279563.8       23.19203    
  2.1874899E-05  2.3578599E-05   308556.9       13.19109    
  2.3578599E-05  2.4175501E-05   335281.8       18.74096    
  2.4175501E-05  2.4787500E-05   411404.2       13.54912    
  2.4787500E-05  2.6058400E-05   361757.7       14.71592    
  2.6058400E-05  2.8087899E-05   205813.7       12.92693    
  2.8087899E-05  3.1827800E-05   154214.2       11.99292    
  3.1827800E-05  3.4306700E-05   110540.8       15.22399    
  3.4306700E-05  3.5175199E-05   149429.6       20.07433    
  3.5175199E-05  3.6065601E-05   106522.5       33.66244    
  3.6065601E-05  4.0867701E-05   139777.7       10.53157    
  4.0867701E-05  4.6309200E-05   104060.4       10.97419    
  4.6309200E-05  5.2475199E-05   116034.7       10.64197    
  5.2475199E-05  5.6562199E-05   96847.09       16.92769    
  5.6562199E-05  5.9462200E-05   96366.84       17.61574    
  5.9462200E-05  6.2510902E-05   84568.51       16.16479    
  6.2510902E-05  6.7379500E-05   98214.28       15.56361    
  6.7379500E-05  7.6350902E-05   83750.58       10.10038    
  7.6350902E-05  8.6516899E-05   70492.11       11.32799    
  8.6516899E-05  9.8036500E-05   47106.39       9.804227    
  9.8036500E-05  1.1109000E-04   73452.95       10.28822    
  1.1109000E-04  1.1678600E-04   53579.45       16.75709    
  1.1678600E-04  1.2277300E-04   59437.14       14.15640    
  1.2277300E-04  1.2906799E-04   51612.39       12.25682    
  1.2906799E-04  1.3568600E-04   60019.96       14.35770    
  1.3568600E-04  1.4264201E-04   53273.46       17.75303    
  1.4264201E-04  1.4995600E-04   29694.66       15.60707    
  1.4995600E-04  1.5764400E-04   43442.47       15.17520    
  1.5764400E-04  1.6163501E-04   48778.00       32.48599    
  1.6163501E-04  1.6572700E-04   66822.65       20.91572    
  1.6572700E-04  1.6992200E-04   34683.84       17.91741    
  1.6992200E-04  1.7422400E-04   50129.08       16.77092    
  1.7422400E-04  1.8315599E-04   58596.92       16.52390    
  1.8315599E-04  1.9254700E-04   38545.06       19.51723    
  1.9254700E-04  2.0241900E-04   32348.06       17.32875    
  2.0241900E-04  2.1279699E-04   28227.70       13.99517    
  2.1279699E-04  2.2370800E-04   29438.23       15.28021    
  2.2370800E-04  2.3517800E-04   30987.69       13.14978    
  2.3517800E-04  2.4723500E-04   33744.17       11.30785    
  2.4723500E-04  2.5991100E-04   39903.05       14.37459    
  2.5991100E-04  2.7323700E-04   37420.85       14.04790    
  2.7323700E-04  2.8015400E-04   29189.26       24.46150    
  2.8015400E-04  2.8724599E-04   32281.78       18.79040    
  2.8724599E-04  2.9451799E-04   24080.53       18.69570    
  2.9451799E-04  3.0197401E-04   41940.77       17.22620    
  3.0197401E-04  3.0961799E-04   29919.06       21.57852    
  3.0961799E-04  3.1745600E-04   31063.21       22.62581    
  3.1745600E-04  3.3373301E-04   20245.81       15.91003    
  3.3373301E-04  3.5084400E-04   20498.76       14.29344    
  3.5084400E-04  3.6883200E-04   24536.61       13.40506    
  3.6883200E-04  3.8774201E-04   18233.84       13.08391    
  3.8774201E-04  4.0762199E-04   18292.21       17.50153    
  4.0762199E-04  4.2852099E-04   16000.04       18.05973    
  4.2852099E-04  4.5049199E-04   13940.17       14.97966    
  4.5049199E-04  4.7358900E-04   15300.70       15.77741    
  4.7358900E-04  4.9787102E-04   18191.05       13.75623    
  4.9787102E-04  5.1047403E-04   15888.88       16.57755    
  5.1047403E-04  5.2339700E-04   18211.24       19.36509    
  5.2339700E-04  5.3664698E-04   14228.24       17.52897    
  5.3664698E-04  5.5023201E-04   14277.08       15.43150    
  5.5023201E-04  5.7844300E-04   14621.95       14.47645    
  5.7844300E-04  6.0810102E-04   12631.50       15.95180    
  6.0810102E-04  6.3927902E-04   15675.04       12.28809    
  6.3927902E-04  6.7205500E-04   12690.17       16.25559    
  6.7205500E-04  7.0651202E-04   11182.15       17.28993    
  7.0651202E-04  7.4273598E-04   10446.42       17.39051    
  7.4273598E-04  7.8081700E-04   9364.360       20.16108    
  7.8081700E-04  8.2085002E-04   8333.797       16.99983    
  8.2085002E-04  8.6293602E-04   8620.593       17.50223    
  8.6293602E-04  9.0717903E-04   7340.421       20.36188    
  9.0717903E-04  9.5369201E-04   8569.904       18.13067    
  9.5369201E-04  9.6163998E-04   12894.40       50.38147    
  9.6163998E-04  9.7783399E-04   4680.628       25.97033    
  9.7783399E-04  1.0025901E-03   4509.854       22.86279    
  1.0025901E-03  1.0539900E-03   6738.315       16.60241    
  1.0539900E-03  1.1080300E-03   5487.269       16.69781    
  1.1080300E-03  1.1648400E-03   7114.392       13.17751    
  1.1648400E-03  1.1943300E-03   8480.629       21.93211    
  1.1943300E-03  1.2245600E-03   4604.634       17.24542    
  1.2245600E-03  1.2873500E-03   7426.075       15.80475    
  1.2873500E-03  1.3533500E-03   4992.096       17.15814    
  1.3533500E-03  1.4227401E-03   4715.361       15.63864    
  1.4227401E-03  1.4956900E-03   3136.037       17.98739    
  1.4956900E-03  1.5335500E-03   3502.430       19.17274    
  1.5335500E-03  1.5723699E-03   3341.433       19.06534    
  1.5723699E-03  1.6121800E-03   4607.552       21.53781    
  1.6121800E-03  1.6529900E-03   2688.704       25.81535    
  1.6529900E-03  1.7377400E-03   4113.024       15.84596    
  1.7377400E-03  1.8268300E-03   3034.501       17.98583    
  1.8268300E-03  1.8730800E-03   1603.881       23.35962    
  1.8730800E-03  1.9205000E-03   1530.014       27.63224    
  1.9205000E-03  1.9691200E-03   3269.813       24.46846    
  1.9691200E-03  2.0189700E-03   1614.192       29.81498    
  2.0189700E-03  2.1224800E-03   2627.716       17.86293    
  2.1224800E-03  2.2313001E-03   2539.166       18.06622    
  2.2313001E-03  2.2688799E-03   1541.799       25.43828    
  2.2688799E-03  2.3068599E-03   1501.573       25.14215    
  2.3068599E-03  2.3457000E-03   1963.922       38.64935    
  2.3457000E-03  2.3652499E-03   2351.384       38.58541    
  2.3652499E-03  2.3852000E-03   2222.973       36.24240    
  2.3852000E-03  2.4251300E-03   2377.534       23.06628    
  2.4251300E-03  2.4659701E-03   2246.984       28.26926    
  2.4659701E-03  2.5923999E-03   2674.201       18.76690    
  2.5923999E-03  2.7253199E-03   1787.757       18.55312    
  2.7253199E-03  2.8650500E-03   1246.685       18.53346    
  2.8650500E-03  3.0119400E-03   1197.960       19.14209    
  3.0119400E-03  3.0881900E-03   704.0920       26.95375    
  3.0881900E-03  3.1663701E-03   966.4401       37.02298    
  3.1663701E-03  3.2465300E-03   826.8820       24.16971    
  3.2465300E-03  3.3287101E-03   619.7744       47.93148    
  3.3287101E-03  3.4993801E-03   1185.184       24.43369    
  3.4993801E-03  3.6787901E-03   973.6302       22.80536    
  3.6787901E-03  3.8674099E-03   900.1681       19.67891    
  3.8674099E-03  4.0656999E-03   1060.984       23.45363    
  4.0656999E-03  4.2741499E-03   455.4897       22.96581    
  4.2741499E-03  4.4932901E-03   421.7560       25.94396    
  4.4932901E-03  4.6070400E-03   552.6064       31.66772    
  4.6070400E-03  4.7236700E-03   440.2354       38.68791    
  4.7236700E-03  4.8432499E-03   506.1664       31.66822    
  4.8432499E-03  4.9658502E-03   251.8755       36.98105    
  4.9658502E-03  5.2204598E-03   647.0601       30.56062    
  5.2204598E-03  5.4881200E-03   402.7549       29.57889    
  5.4881200E-03  5.7695000E-03   408.1665       23.88819    
  5.7695000E-03  5.9155500E-03   383.1389       41.00331    
  5.9155500E-03  6.0653100E-03   178.7217       52.00916    
  6.0653100E-03  6.2188501E-03   979.8934       39.26109    
  6.2188501E-03  6.3762800E-03   754.0945       42.70386    
  6.3762800E-03  6.5377001E-03   490.9509       40.98998    
  6.5377001E-03  6.5923799E-03   135.2727       59.56422    
  6.5923799E-03  6.6475999E-03   131.5484       50.52289    
  6.6475999E-03  6.7031998E-03   287.4064       67.56243    
  6.7031998E-03  6.8728901E-03   293.6223       46.29539    
  6.8728901E-03  7.0468802E-03   218.4221       38.46662    
  7.0468802E-03  7.2252699E-03   524.0266       37.09271    
  7.2252699E-03  7.4081798E-03   433.1154       39.78568    
  7.4081798E-03  7.5957198E-03   247.8997       33.37135    
  7.5957198E-03  7.7880099E-03   320.7041       41.80248    
  7.7880099E-03  7.9851598E-03   178.5455       49.82338    
  7.9851598E-03  8.1873098E-03   318.7651       39.79649    
  8.1873098E-03  8.3945701E-03   264.3210       40.03462    
  8.3945701E-03  8.6070802E-03   310.0233       43.17739    
  8.6070802E-03  8.8249696E-03   219.5158       46.36876    
  8.8249696E-03  9.0483697E-03   338.7617       34.51279    
  9.0483697E-03  9.2774397E-03   150.0934       49.07875    
  9.2774397E-03  9.5122904E-03   187.5757       47.02658    
  9.5122904E-03  9.7530996E-03   109.3140       47.02584    
  9.7530996E-03  9.9999998E-03   131.0095       44.69656    
  9.9999998E-03  1.0253200E-02   136.8811       64.13441    
  1.0253200E-02  1.0512700E-02   163.5064       47.76539    
  1.0512700E-02  1.0778800E-02   73.46838       43.87539    
  1.0778800E-02  1.1051700E-02   200.2461       39.39269    
  1.1051700E-02  1.1331500E-02   332.8922       46.79853    
  1.1331500E-02  1.1618300E-02   87.27699       43.62347    
  1.1618300E-02  1.1912500E-02   163.1209       48.42851    
  1.1912500E-02  1.2214000E-02   254.0825       37.54248    
  1.2214000E-02  1.2523200E-02   72.93551       65.60069    
  1.2523200E-02  1.2840200E-02   89.83327       57.98254    
  1.2840200E-02  1.3165300E-02   73.70565       74.41531    
  1.3165300E-02  1.3498600E-02   259.5211       58.49200    
  1.3498600E-02  1.3840300E-02   171.3509       40.12853    
  1.3840300E-02  1.4190700E-02   156.9182       40.14038    
  1.4190700E-02  1.4549900E-02   33.15068       61.00756    
  1.4549900E-02  1.4918300E-02   100.7056       54.27825    
  1.4918300E-02  1.5295900E-02   61.01327       70.42390    
  1.5295900E-02  1.5683100E-02   52.12550       41.70390    
  1.5683100E-02  1.6080100E-02   231.6766       49.73085    
  1.6080100E-02  1.6487200E-02   125.5258       40.74088    
  1.6487200E-02  1.6904600E-02   197.2550       35.96932    
  1.6904600E-02  1.7332500E-02   10.32606       83.99780    
  1.7332500E-02  1.7771300E-02   144.3638       37.40472    
  1.7771300E-02  1.8221200E-02   53.31695       67.18814    
  1.8221200E-02  1.8682500E-02   180.2623       47.64376    
  1.8682500E-02  1.9155400E-02   46.40867       32.33529    
  1.9155400E-02  1.9640300E-02   127.5772       41.95737    
  1.9640300E-02  2.0000000E-02   99.44849       49.38367    


 # Detector n:  2  ME22a_Nhi 
 # N. of energy intervals 100
  2.0000000E-02  2.1778084E-02   122.1866       22.19006    
  2.1778084E-02  2.3714250E-02   88.75371       23.26664    
  2.3714250E-02  2.5822546E-02   67.94901       24.56347    
  2.5822546E-02  2.8118281E-02   35.31078       31.74185    
  2.8118281E-02  3.0618116E-02   27.64721       58.53290    
  3.0618116E-02  3.3340197E-02   89.75142       26.83758    
  3.3340197E-02  3.6304284E-02   67.69011       23.96228    
  3.6304284E-02  3.9531890E-02   33.66084       26.71950    
  3.9531890E-02  4.3046441E-02   64.39832       21.24052    
  4.3046441E-02  4.6873454E-02   76.06355       20.03652    
  4.6873454E-02  5.1040705E-02   45.89597       22.66435    
  5.1040705E-02  5.5578440E-02   60.12384       22.79352    
  5.5578440E-02  6.0519602E-02   58.80183       18.48148    
  6.0519602E-02  6.5900050E-02   25.14004       23.16719    
  6.5900050E-02  7.1758844E-02   34.22596       27.48281    
  7.1758844E-02  7.8138515E-02   44.76620       19.16701    
  7.8138515E-02  8.5085362E-02   30.03708       24.66880    
  8.5085362E-02  9.2649810E-02   24.44428       23.15380    
  9.2649810E-02  0.1008868       19.08463       24.34510    
  0.1008868      0.1098560       16.43853       34.07321    
  0.1098560      0.1196227       11.94605       28.91972    
  0.1196227      0.1302577       11.40907       29.13133    
  0.1302577      0.1418381       11.01777       28.45616    
  0.1418381      0.1544482       8.972479       31.54902    
  0.1544482      0.1681793       11.26378       32.81875    
  0.1681793      0.1831311       5.764189       34.85951    
  0.1831311      0.1994122       3.306036       37.58194    
  0.1994122      0.2171408       3.121997       43.91124    
  0.2171408      0.2364456       3.958288       40.77822    
  0.2364456      0.2574666       1.283847       62.66062    
  0.2574666      0.2803565      0.1102312       94.37989    
  0.2803565      0.3052814      0.5223058       66.58065    
  0.3052814      0.3324222       1.465098       57.32693    
  0.3324222      0.3619759      0.9696997       61.03981    
  0.3619759      0.3941571      0.6727404       72.94005    
  0.3941571      0.4291994       0.000000       0.000000    
  0.4291994      0.4673570      8.3895147E-02   99.00000    
  0.4673570      0.5089071      3.8307318E-03   94.37989    
  0.5089071      0.5541511       0.000000       0.000000    
  0.5541511      0.6034175      0.3346290       94.37989    
  0.6034175      0.6570638       0.000000       0.000000    
  0.6570638      0.7154796       0.000000       0.000000    
  0.7154796      0.7790889       0.000000       0.000000    
  0.7790889      0.8483531       0.000000       0.000000    
  0.8483531      0.9237754       0.000000       0.000000    
  0.9237754       1.005903       0.000000       0.000000    
   1.005903       1.095332       0.000000       0.000000    
   1.095332       1.192712       0.000000       0.000000    
   1.192712       1.298749       0.000000       0.000000    
   1.298749       1.414213       0.000000       0.000000    
   1.414213       1.539943       0.000000       0.000000    
   1.539943       1.676850       0.000000       0.000000    
   1.676850       1.825929       0.000000       0.000000    
   1.825929       1.988262       0.000000       0.000000    
   1.988262       2.165027       0.000000       0.000000    
   2.165027       2.357507       0.000000       0.000000    
   2.357507       2.567100       0.000000       0.000000    
   2.567100       2.795326       0.000000       0.000000    
   2.795326       3.043842       0.000000       0.000000    
   3.043842       3.314453       0.000000       0.000000    
   3.314453       3.609122       0.000000       0.000000    
   3.609122       3.929988       0.000000       0.000000    
   3.929988       4.279381       0.000000       0.000000    
   4.279381       4.659836       0.000000       0.000000    
   4.659836       5.074115       0.000000       0.000000    
   5.074115       5.525226       0.000000       0.000000    
   5.525226       6.016442       0.000000       0.000000    
   6.016442       6.551329       0.000000       0.000000    
   6.551329       7.133770       0.000000       0.000000    
   7.133770       7.767992       0.000000       0.000000    
   7.767992       8.458600       0.000000       0.000000    
   8.458600       9.210606       0.000000       0.000000    
   9.210606       10.02947       0.000000       0.000000    
   10.02947       10.92113       0.000000       0.000000    
   10.92113       11.89207       0.000000       0.000000    
   11.89207       12.94932       0.000000       0.000000    
   12.94932       14.10057       0.000000       0.000000    
   14.10057       15.35417       0.000000       0.000000    
   15.35417       16.71922       0.000000       0.000000    
   16.71922       18.20563       0.000000       0.000000    
   18.20563       19.82419       0.000000       0.000000    
   19.82419       21.58665       0.000000       0.000000    
   21.58665       23.50579       0.000000       0.000000    
   23.50579       25.59556       0.000000       0.000000    
   25.59556       27.87111       0.000000       0.000000    
   27.87111       30.34897       0.000000       0.000000    
   30.34897       33.04712       0.000000       0.000000    
   33.04712       35.98515       0.000000       0.000000    
   35.98515       39.18439       0.000000       0.000000    
   39.18439       42.66805       0.000000       0.000000    
   42.66805       46.46142       0.000000       0.000000    
   46.46142       50.59204       0.000000       0.000000    
   50.59204       55.08988       0.000000       0.000000    
   55.08988       59.98761       0.000000       0.000000    
   59.98761       65.32076       0.000000       0.000000    
   65.32076       71.12806       0.000000       0.000000    
   71.12806       77.45164       0.000000       0.000000    
   77.45164       84.33743       0.000000       0.000000    
   84.33743       91.83538       0.000000       0.000000    
   91.83538       99.99994       0.000000       0.000000    


 # Detector n:  3  ME22a_ph  
 # N. of energy intervals 100
  9.9999997E-06  1.1748975E-05   75.92904       94.37989    
  1.1748975E-05  1.3803842E-05   896.6971       89.67592    
  1.3803842E-05  1.6218100E-05   5270.519       36.23670    
  1.6218100E-05  1.9054607E-05   3375.812       41.34779    
  1.9054607E-05  2.2387210E-05   6914.794       39.80692    
  2.2387210E-05  2.6302680E-05   6034.788       39.27848    
  2.6302680E-05  3.0902953E-05   14484.28       34.51790    
  3.0902953E-05  3.6307803E-05   21255.42       18.46344    
  3.6307803E-05  4.2657950E-05   35956.37       13.62525    
  4.2657950E-05  5.0118721E-05   69386.35       11.66758    
  5.0118721E-05  5.8884361E-05   128771.4       8.735823    
  5.8884361E-05  6.9183094E-05   154406.1       8.877355    
  6.9183094E-05  8.1283048E-05   215802.3       6.153957    
  8.1283048E-05  9.5499250E-05   195922.5       4.443890    
  9.5499250E-05  1.1220184E-04   241215.2       4.558425    
  1.1220184E-04  1.3182567E-04   215092.0       4.575736    
  1.3182567E-04  1.5488165E-04   186748.3       3.815014    
  1.5488165E-04  1.8197007E-04   170824.1       4.968795    
  1.8197007E-04  2.1379619E-04   142369.4       4.666511    
  2.1379619E-04  2.5118861E-04   105873.6       4.245891    
  2.5118861E-04  2.9512090E-04   90212.72       4.531304    
  2.9512090E-04  3.4673681E-04   68257.90       4.404263    
  3.4673681E-04  4.0738023E-04   51618.80       5.355805    
  4.0738023E-04  4.7863004E-04   48813.41       4.945923    
  4.7863004E-04  5.6234124E-04   64194.72       4.079134    
  5.6234124E-04  6.6069339E-04   17964.37       6.520648    
  6.6069339E-04  7.7624706E-04   17260.59       7.164425    
  7.7624706E-04  9.1201073E-04   15825.20       5.750224    
  9.1201073E-04  1.0715192E-03   11365.88       6.270050    
  1.0715192E-03  1.2589253E-03   9990.779       6.395267    
  1.2589253E-03  1.4791082E-03   7837.680       7.465313    
  1.4791082E-03  1.7378007E-03   6947.719       6.800727    
  1.7378007E-03  2.0417378E-03   7449.979       6.371933    
  2.0417378E-03  2.3988327E-03   11223.81       4.431018    
  2.3988327E-03  2.8183826E-03   5481.142       6.151186    
  2.8183826E-03  3.3113109E-03   3086.143       7.640885    
  3.3113109E-03  3.8904510E-03   2870.684       7.857088    
  3.8904510E-03  4.5708814E-03   2630.791       6.968997    
  4.5708814E-03  5.3703170E-03   1690.983       8.438274    
  5.3703170E-03  6.3095726E-03   2516.395       6.035605    
  6.3095726E-03  7.4131014E-03   1566.018       7.220726    
  7.4131014E-03  8.7096347E-03   4160.116       3.948270    
  8.7096347E-03  1.0232928E-02   233.2159       16.92814    
  1.0232928E-02  1.2022642E-02   12.50684       61.61795    
  1.2022642E-02  1.4125373E-02   17.84389       59.72739    
  1.4125373E-02  1.6595867E-02   0.000000       0.000000    
  1.6595867E-02  1.9498443E-02   0.000000       0.000000    
  1.9498443E-02  2.2908673E-02   0.000000       0.000000    
  2.2908673E-02  2.6915343E-02   1.042420       94.37989    
  2.6915343E-02  3.1622771E-02   0.000000       0.000000    
  3.1622771E-02  3.7153516E-02   0.000000       0.000000    
  3.7153516E-02  4.3651577E-02  0.1434808       70.02802    
  4.3651577E-02  5.1286127E-02   0.000000       0.000000    
  5.1286127E-02  6.0255948E-02   1.837827       94.37989    
  6.0255948E-02  7.0794567E-02  0.1725593       94.37989    
  7.0794567E-02  8.3176360E-02   0.000000       0.000000    
  8.3176360E-02  9.7723700E-02   0.000000       0.000000    
  9.7723700E-02  0.1148153       0.000000       0.000000    
  0.1148153      0.1348963       0.000000       0.000000    
  0.1348963      0.1584893       0.000000       0.000000    
  0.1584893      0.1862087       0.000000       0.000000    
  0.1862087      0.2187761      6.2630020E-02   94.37989    
  0.2187761      0.2570395       0.000000       0.000000    
  0.2570395      0.3019951       0.000000       0.000000    
  0.3019951      0.3548133       0.000000       0.000000    
  0.3548133      0.4168693       0.000000       0.000000    
  0.4168693      0.4897787       0.000000       0.000000    
  0.4897787      0.5754398       0.000000       0.000000    
  0.5754398      0.6760828       0.000000       0.000000    
  0.6760828      0.7943280       0.000000       0.000000    
  0.7943280      0.9332541       0.000000       0.000000    
  0.9332541       1.096478       0.000000       0.000000    
   1.096478       1.288249       0.000000       0.000000    
   1.288249       1.513561       0.000000       0.000000    
   1.513561       1.778279       0.000000       0.000000    
   1.778279       2.089296       0.000000       0.000000    
   2.089296       2.454708       0.000000       0.000000    
   2.454708       2.884031       0.000000       0.000000    
   2.884031       3.388441       0.000000       0.000000    
   3.388441       3.981071       0.000000       0.000000    
   3.981071       4.677350       0.000000       0.000000    
   4.677350       5.495407       0.000000       0.000000    
   5.495407       6.456541       0.000000       0.000000    
   6.456541       7.585774       0.000000       0.000000    
   7.585774       8.912507       0.000000       0.000000    
   8.912507       10.47128       0.000000       0.000000    
   10.47128       12.30268       0.000000       0.000000    
   12.30268       14.45439       0.000000       0.000000    
   14.45439       16.98243       0.000000       0.000000    
   16.98243       19.95262       0.000000       0.000000    
   19.95262       23.44228       0.000000       0.000000    
   23.44228       27.54228       0.000000       0.000000    
   27.54228       32.35936       0.000000       0.000000    
   32.35936       38.01893       0.000000       0.000000    
   38.01893       44.66835       0.000000       0.000000    
   44.66835       52.48073       0.000000       0.000000    
   52.48073       61.65948       0.000000       0.000000    
   61.65948       72.44357       0.000000       0.000000    
   72.44357       85.11378       0.000000       0.000000    
   85.11378       99.99997       0.000000       0.000000    


 # Detector n:  4  ME22a_ep  
 # N. of energy intervals 100
  9.9999997E-06  1.1748975E-05   0.000000       0.000000    
  1.1748975E-05  1.3803842E-05   0.000000       0.000000    
  1.3803842E-05  1.6218100E-05   0.000000       0.000000    
  1.6218100E-05  1.9054607E-05   0.000000       0.000000    
  1.9054607E-05  2.2387210E-05   0.000000       0.000000    
  2.2387210E-05  2.6302680E-05   12.49192       66.98877    
  2.6302680E-05  3.0902953E-05   601.1674       11.18852    
  3.0902953E-05  3.6307803E-05   970.8757       9.813933    
  3.6307803E-05  4.2657950E-05   862.5932       10.12580    
  4.2657950E-05  5.0118721E-05   1004.943       10.46437    
  5.0118721E-05  5.8884361E-05   989.6337       10.86314    
  5.8884361E-05  6.9183094E-05   935.3898       10.95870    
  6.9183094E-05  8.1283048E-05   1041.004       12.00792    
  8.1283048E-05  9.5499250E-05   809.9932       12.85024    
  9.5499250E-05  1.1220184E-04   999.4897       12.43384    
  1.1220184E-04  1.3182567E-04   877.3823       12.94168    
  1.3182567E-04  1.5488165E-04   980.5109       13.71171    
  1.5488165E-04  1.8197007E-04   883.3732       13.30370    
  1.8197007E-04  2.1379619E-04   849.1407       13.60870    
  2.1379619E-04  2.5118861E-04   748.0616       14.30440    
  2.5118861E-04  2.9512090E-04   636.1397       14.92552    
  2.9512090E-04  3.4673681E-04   626.4182       16.06605    
  3.4673681E-04  4.0738023E-04   561.8367       19.45921    
  4.0738023E-04  4.7863004E-04   481.1481       22.66542    
  4.7863004E-04  5.6234124E-04   534.1259       19.59183    
  5.6234124E-04  6.6069339E-04   521.8770       20.66324    
  6.6069339E-04  7.7624706E-04   485.5241       18.23805    
  7.7624706E-04  9.1201073E-04   547.2484       17.61725    
  9.1201073E-04  1.0715192E-03   517.1544       18.67256    
  1.0715192E-03  1.2589253E-03   402.2422       19.13782    
  1.2589253E-03  1.4791082E-03   318.6057       18.51279    
  1.4791082E-03  1.7378007E-03   229.7696       20.65270    
  1.7378007E-03  2.0417378E-03   225.9283       21.29527    
  2.0417378E-03  2.3988327E-03   231.7015       20.68160    
  2.3988327E-03  2.8183826E-03   154.5512       22.22617    
  2.8183826E-03  3.3113109E-03   117.0347       32.84268    
  3.3113109E-03  3.8904510E-03   142.8028       32.99468    
  3.8904510E-03  4.5708814E-03   61.59283       23.29619    
  4.5708814E-03  5.3703170E-03   82.77661       27.21008    
  5.3703170E-03  6.3095726E-03   27.39396       39.82705    
  6.3095726E-03  7.4131014E-03   16.08660       35.62114    
  7.4131014E-03  8.7096347E-03  1.7560506E-02   94.37989    
  8.7096347E-03  1.0232928E-02   3.195199       94.37989    
  1.0232928E-02  1.2022642E-02   0.000000       0.000000    
  1.2022642E-02  1.4125373E-02   0.000000       0.000000    
  1.4125373E-02  1.6595867E-02   0.000000       0.000000    
  1.6595867E-02  1.9498443E-02   0.000000       0.000000    
  1.9498443E-02  2.2908673E-02   0.000000       0.000000    
  2.2908673E-02  2.6915343E-02   0.000000       0.000000    
  2.6915343E-02  3.1622771E-02   0.000000       0.000000    
  3.1622771E-02  3.7153516E-02   0.000000       0.000000    
  3.7153516E-02  4.3651577E-02   0.000000       0.000000    
  4.3651577E-02  5.1286127E-02   0.000000       0.000000    
  5.1286127E-02  6.0255948E-02   0.000000       0.000000    
  6.0255948E-02  7.0794567E-02   0.000000       0.000000    
  7.0794567E-02  8.3176360E-02   0.000000       0.000000    
  8.3176360E-02  9.7723700E-02   0.000000       0.000000    
  9.7723700E-02  0.1148153       0.000000       0.000000    
  0.1148153      0.1348963       0.000000       0.000000    
  0.1348963      0.1584893      1.7125243E-02   94.37989    
  0.1584893      0.1862087       0.000000       0.000000    
  0.1862087      0.2187761       0.000000       0.000000    
  0.2187761      0.2570395       0.000000       0.000000    
  0.2570395      0.3019951       0.000000       0.000000    
  0.3019951      0.3548133       0.000000       0.000000    
  0.3548133      0.4168693       0.000000       0.000000    
  0.4168693      0.4897787       0.000000       0.000000    
  0.4897787      0.5754398       0.000000       0.000000    
  0.5754398      0.6760828       0.000000       0.000000    
  0.6760828      0.7943280       0.000000       0.000000    
  0.7943280      0.9332541       0.000000       0.000000    
  0.9332541       1.096478       0.000000       0.000000    
   1.096478       1.288249       0.000000       0.000000    
   1.288249       1.513561       0.000000       0.000000    
   1.513561       1.778279       0.000000       0.000000    
   1.778279       2.089296       0.000000       0.000000    
   2.089296       2.454708       0.000000       0.000000    
   2.454708       2.884031       0.000000       0.000000    
   2.884031       3.388441       0.000000       0.000000    
   3.388441       3.981071       0.000000       0.000000    
   3.981071       4.677350       0.000000       0.000000    
   4.677350       5.495407       0.000000       0.000000    
   5.495407       6.456541       0.000000       0.000000    
   6.456541       7.585774       0.000000       0.000000    
   7.585774       8.912507       0.000000       0.000000    
   8.912507       10.47128       0.000000       0.000000    
   10.47128       12.30268       0.000000       0.000000    
   12.30268       14.45439       0.000000       0.000000    
   14.45439       16.98243       0.000000       0.000000    
   16.98243       19.95262       0.000000       0.000000    
   19.95262       23.44228       0.000000       0.000000    
   23.44228       27.54228       0.000000       0.000000    
   27.54228       32.35936       0.000000       0.000000    
   32.35936       38.01893       0.000000       0.000000    
   38.01893       44.66835       0.000000       0.000000    
   44.66835       52.48073       0.000000       0.000000    
   52.48073       61.65948       0.000000       0.000000    
   61.65948       72.44357       0.000000       0.000000    
   72.44357       85.11378       0.000000       0.000000    
   85.11378       99.99997       0.000000       0.000000    
