 # Detector n:  1  ME42a_Nlow
 # N. of energy intervals 260
  1.0000100E-14  2.0000000E-13   0.000000       0.000000    
  2.0000000E-13  2.9297300E-13   0.000000       0.000000    
  2.9297300E-13  4.2916701E-13  2.5180252E+10   66.72424    
  4.2916701E-13  6.2867300E-13  2.0337626E+11   38.21194    
  6.2867300E-13  9.2092198E-13  9.2683837E+10   42.42548    
  9.2092198E-13  1.3490300E-12  1.4745700E+11   27.24397    
  1.3490300E-12  1.9761499E-12  1.9693570E+11   25.68289    
  1.9761499E-12  2.8947901E-12  1.9961700E+11   16.41037    
  2.8947901E-12  4.2404799E-12  4.1340695E+11   11.20934    
  4.2404799E-12  6.2117499E-12  5.2622344E+11   8.699640    
  6.2117499E-12  9.0993801E-12  7.7365058E+11   5.879217    
  9.0993801E-12  1.3329400E-11  9.6881508E+11   4.708961    
  1.3329400E-11  1.9525799E-11  1.2140153E+12   3.475868    
  1.9525799E-11  2.8602700E-11  1.2687239E+12   2.527437    
  2.8602700E-11  4.1899099E-11  1.2381526E+12   2.486636    
  4.1899099E-11  6.1376598E-11  1.0439020E+12   2.116271    
  6.1376598E-11  8.9908601E-11  6.5095310E+11   2.220132    
  8.9908601E-11  1.3170399E-10  3.1732901E+11   2.442172    
  1.3170399E-10  1.9292901E-10  1.3019636E+11   3.095701    
  1.9292901E-10  2.8261499E-10  5.7378607E+10   3.617975    
  2.8261499E-10  4.1399401E-10  3.2948378E+10   3.881106    
  4.1399401E-10  5.3157900E-10  2.1363114E+10   5.096149    
  5.3157900E-10  6.2506200E-10  1.6507813E+10   5.791817    
  6.2506200E-10  6.8256001E-10  1.4989316E+10   7.622729    
  6.8256001E-10  8.3368101E-10  1.2138186E+10   5.252486    
  8.3368101E-10  8.7642499E-10  1.1405126E+10   9.428605    
  8.7642499E-10  1.1253500E-09  9.9689093E+09   4.961719    
  1.1253500E-09  1.4449800E-09  7.8331566E+09   4.990551    
  1.4449800E-09  1.8553900E-09  5.6154988E+09   4.672836    
  1.8553900E-09  2.3823701E-09  4.5096591E+09   5.435875    
  2.3823701E-09  3.0590199E-09  3.7226808E+09   4.728556    
  3.0590199E-09  3.9278598E-09  2.6739602E+09   4.916770    
  3.9278598E-09  5.0434799E-09  2.1733048E+09   4.472601    
  5.0434799E-09  6.4759500E-09  1.5748059E+09   4.770495    
  6.4759500E-09  8.3152898E-09  1.3316978E+09   4.885980    
  8.3152898E-09  1.0677000E-08  1.1088372E+09   4.768279    
  1.0677000E-08  1.3709600E-08  8.3181990E+08   5.254759    
  1.3709600E-08  1.7603501E-08  6.3685747E+08   5.269442    
  1.7603501E-08  2.2603301E-08  5.0362390E+08   4.593912    
  2.2603301E-08  2.9023200E-08  3.7271622E+08   5.653737    
  2.9023200E-08  3.7266499E-08  3.0017690E+08   4.628029    
  3.7266499E-08  4.7851199E-08  2.4130118E+08   5.516927    
  4.7851199E-08  6.1442101E-08  1.9441366E+08   4.915149    
  6.1442101E-08  7.8893301E-08  1.4084098E+08   4.894369    
  7.8893301E-08  1.0130100E-07  1.1334422E+08   4.467190    
  1.0130100E-07  1.3007300E-07  7.6223232E+07   4.507294    
  1.3007300E-07  1.6701701E-07  6.7411672E+07   4.828488    
  1.6701701E-07  2.1445400E-07  5.2275680E+07   4.814682    
  2.1445400E-07  2.7536399E-07  4.5726160E+07   5.110320    
  2.7536399E-07  3.5357499E-07  3.6229204E+07   5.388341    
  3.5357499E-07  4.5399901E-07  2.5625404E+07   5.030521    
  4.5399901E-07  5.8294700E-07  1.7972468E+07   5.220306    
  5.8294700E-07  7.4851800E-07  1.5467313E+07   5.485519    
  7.4851800E-07  9.6111603E-07  1.1244974E+07   4.727208    
  9.6111603E-07  1.2341000E-06   9347138.       4.755691    
  1.2341000E-06  1.3638900E-06   7452316.       7.976752    
  1.3638900E-06  1.5073300E-06   7354184.       7.769465    
  1.5073300E-06  1.5846100E-06   6140346.       11.39682    
  1.5846100E-06  1.6658601E-06   5543858.       8.019463    
  1.6658601E-06  1.8410600E-06   5886726.       7.044166    
  1.8410600E-06  2.0346799E-06   5642427.       8.237325    
  2.0346799E-06  2.2486699E-06   4325619.       6.720264    
  2.2486699E-06  2.4851699E-06   4756499.       8.018939    
  2.4851699E-06  2.6125899E-06   3991310.       11.05748    
  2.6125899E-06  2.7465401E-06   4421998.       9.203832    
  2.7465401E-06  2.8634900E-06   3487562.       10.85027    
  2.8634900E-06  3.0353899E-06   3714774.       9.177526    
  3.0353899E-06  3.3546301E-06   3254192.       8.019616    
  3.3546301E-06  3.7074401E-06   2613432.       7.437248    
  3.7074401E-06  4.0973500E-06   2573856.       6.397183    
  4.0973500E-06  4.3074201E-06   2068727.       8.834252    
  4.3074201E-06  4.5282700E-06   2784778.       9.806312    
  4.5282700E-06  5.0045101E-06   2231803.       8.620953    
  5.0045101E-06  5.5308401E-06   1860029.       7.913702    
  5.5308401E-06  6.2672698E-06   1874177.       6.080559    
  6.2672698E-06  7.1017398E-06   1592267.       6.995480    
  7.1017398E-06  8.0473301E-06   1317537.       6.540293    
  8.0473301E-06  9.1188203E-06   1114204.       6.801334    
  9.1188203E-06  1.0333000E-05   1046694.       6.650855    
  1.0333000E-05  1.1708800E-05   895893.4       7.776580    
  1.1708800E-05  1.3267800E-05   817092.1       6.389775    
  1.3267800E-05  1.5034400E-05   815495.6       6.708536    
  1.5034400E-05  1.7036200E-05   621037.2       6.425620    
  1.7036200E-05  1.9304500E-05   565418.5       5.897285    
  1.9304500E-05  2.1334799E-05   583027.6       6.517394    
  2.1334799E-05  2.1874899E-05   707573.4       16.18235    
  2.1874899E-05  2.3578599E-05   536802.6       8.427766    
  2.3578599E-05  2.4175501E-05   722118.8       11.98578    
  2.4175501E-05  2.4787500E-05   728035.1       9.389885    
  2.4787500E-05  2.6058400E-05   677702.4       6.961068    
  2.6058400E-05  2.8087899E-05   410384.6       7.812294    
  2.8087899E-05  3.1827800E-05   332064.9       7.640891    
  3.1827800E-05  3.4306700E-05   327729.0       8.858852    
  3.4306700E-05  3.5175199E-05   286510.5       13.21839    
  3.5175199E-05  3.6065601E-05   314127.2       13.58205    
  3.6065601E-05  4.0867701E-05   296271.3       5.574538    
  4.0867701E-05  4.6309200E-05   257476.0       5.236558    
  4.6309200E-05  5.2475199E-05   258461.8       5.868531    
  5.2475199E-05  5.6562199E-05   244159.3       7.600157    
  5.6562199E-05  5.9462200E-05   244793.8       9.695367    
  5.9462200E-05  6.2510902E-05   215522.2       8.116090    
  6.2510902E-05  6.7379500E-05   214762.6       7.183394    
  6.7379500E-05  7.6350902E-05   190949.3       5.615872    
  7.6350902E-05  8.6516899E-05   188033.6       5.039821    
  8.6516899E-05  9.8036500E-05   152147.2       5.977231    
  9.8036500E-05  1.1109000E-04   148324.5       6.453685    
  1.1109000E-04  1.1678600E-04   160803.3       7.407403    
  1.1678600E-04  1.2277300E-04   135655.3       6.859146    
  1.2277300E-04  1.2906799E-04   169943.8       7.301325    
  1.2906799E-04  1.3568600E-04   125804.3       7.315870    
  1.3568600E-04  1.4264201E-04   134131.5       9.437480    
  1.4264201E-04  1.4995600E-04   110414.5       8.302099    
  1.4995600E-04  1.5764400E-04   102415.7       8.092960    
  1.5764400E-04  1.6163501E-04   124398.1       10.45762    
  1.6163501E-04  1.6572700E-04   125613.0       8.952299    
  1.6572700E-04  1.6992200E-04   96870.93       9.401091    
  1.6992200E-04  1.7422400E-04   99871.86       13.71447    
  1.7422400E-04  1.8315599E-04   113405.3       7.331416    
  1.8315599E-04  1.9254700E-04   72818.80       8.409036    
  1.9254700E-04  2.0241900E-04   82955.94       8.010811    
  2.0241900E-04  2.1279699E-04   86240.88       6.947617    
  2.1279699E-04  2.2370800E-04   79081.98       7.699095    
  2.2370800E-04  2.3517800E-04   88523.52       8.020363    
  2.3517800E-04  2.4723500E-04   93501.63       7.874465    
  2.4723500E-04  2.5991100E-04   86420.66       6.984566    
  2.5991100E-04  2.7323700E-04   93205.59       6.152135    
  2.7323700E-04  2.8015400E-04   72586.41       10.27921    
  2.8015400E-04  2.8724599E-04   64366.52       9.393961    
  2.8724599E-04  2.9451799E-04   79426.98       9.768950    
  2.9451799E-04  3.0197401E-04   97486.43       7.691798    
  3.0197401E-04  3.0961799E-04   113449.3       9.489388    
  3.0961799E-04  3.1745600E-04   94592.75       8.338107    
  3.1745600E-04  3.3373301E-04   57196.71       8.101521    
  3.3373301E-04  3.5084400E-04   69773.80       6.467999    
  3.5084400E-04  3.6883200E-04   61862.83       6.764827    
  3.6883200E-04  3.8774201E-04   59514.53       6.727586    
  3.8774201E-04  4.0762199E-04   45350.75       8.198196    
  4.0762199E-04  4.2852099E-04   43741.18       7.721590    
  4.2852099E-04  4.5049199E-04   43591.34       7.869903    
  4.5049199E-04  4.7358900E-04   48371.65       7.075154    
  4.7358900E-04  4.9787102E-04   45604.91       7.053348    
  4.9787102E-04  5.1047403E-04   57676.48       8.343552    
  5.1047403E-04  5.2339700E-04   42975.62       8.266521    
  5.2339700E-04  5.3664698E-04   54117.34       7.865080    
  5.3664698E-04  5.5023201E-04   53040.49       7.681540    
  5.5023201E-04  5.7844300E-04   46003.45       6.485116    
  5.7844300E-04  6.0810102E-04   52219.75       5.729755    
  6.0810102E-04  6.3927902E-04   53945.29       6.116826    
  6.3927902E-04  6.7205500E-04   47823.27       6.131514    
  6.7205500E-04  7.0651202E-04   37286.12       6.560370    
  7.0651202E-04  7.4273598E-04   39395.85       6.561702    
  7.4273598E-04  7.8081700E-04   31238.32       6.932978    
  7.8081700E-04  8.2085002E-04   32693.57       7.306691    
  8.2085002E-04  8.6293602E-04   29318.44       7.549266    
  8.6293602E-04  9.0717903E-04   23805.86       6.960564    
  9.0717903E-04  9.5369201E-04   21855.31       7.500706    
  9.5369201E-04  9.6163998E-04   18521.42       16.32077    
  9.6163998E-04  9.7783399E-04   15834.27       13.34622    
  9.7783399E-04  1.0025901E-03   19053.73       9.920911    
  1.0025901E-03  1.0539900E-03   20401.08       8.123583    
  1.0539900E-03  1.1080300E-03   22161.16       7.478241    
  1.1080300E-03  1.1648400E-03   21132.40       6.150667    
  1.1648400E-03  1.1943300E-03   20007.09       11.53956    
  1.1943300E-03  1.2245600E-03   18499.98       8.337366    
  1.2245600E-03  1.2873500E-03   15073.80       6.968398    
  1.2873500E-03  1.3533500E-03   14178.29       8.357518    
  1.3533500E-03  1.4227401E-03   15867.75       6.950494    
  1.4227401E-03  1.4956900E-03   17047.79       9.262847    
  1.4956900E-03  1.5335500E-03   14729.58       9.525537    
  1.5335500E-03  1.5723699E-03   12004.96       10.07220    
  1.5723699E-03  1.6121800E-03   14512.76       10.80893    
  1.6121800E-03  1.6529900E-03   14143.00       15.22482    
  1.6529900E-03  1.7377400E-03   13809.46       7.584925    
  1.7377400E-03  1.8268300E-03   12447.16       8.194405    
  1.8268300E-03  1.8730800E-03   9061.448       10.91978    
  1.8730800E-03  1.9205000E-03   8430.638       14.13853    
  1.9205000E-03  1.9691200E-03   9596.873       12.78834    
  1.9691200E-03  2.0189700E-03   11339.08       10.39511    
  2.0189700E-03  2.1224800E-03   10320.32       7.295355    
  2.1224800E-03  2.2313001E-03   10324.64       7.561942    
  2.2313001E-03  2.2688799E-03   8841.904       12.45195    
  2.2688799E-03  2.3068599E-03   8368.507       12.59923    
  2.3068599E-03  2.3457000E-03   9719.108       13.65114    
  2.3457000E-03  2.3652499E-03   11900.22       23.51947    
  2.3652499E-03  2.3852000E-03   7440.291       16.20485    
  2.3852000E-03  2.4251300E-03   8910.168       13.04711    
  2.4251300E-03  2.4659701E-03   9025.180       14.93629    
  2.4659701E-03  2.5923999E-03   7280.378       8.642209    
  2.5923999E-03  2.7253199E-03   5847.926       7.648844    
  2.7253199E-03  2.8650500E-03   5111.185       9.578672    
  2.8650500E-03  3.0119400E-03   4325.103       10.04560    
  3.0119400E-03  3.0881900E-03   4493.618       11.81405    
  3.0881900E-03  3.1663701E-03   3726.527       17.21239    
  3.1663701E-03  3.2465300E-03   3847.491       14.64678    
  3.2465300E-03  3.3287101E-03   2537.101       12.88859    
  3.3287101E-03  3.4993801E-03   3431.669       13.73170    
  3.4993801E-03  3.6787901E-03   2630.541       12.59782    
  3.6787901E-03  3.8674099E-03   2566.332       9.886752    
  3.8674099E-03  4.0656999E-03   2918.889       14.91022    
  4.0656999E-03  4.2741499E-03   2794.917       11.25292    
  4.2741499E-03  4.4932901E-03   1813.740       12.64768    
  4.4932901E-03  4.6070400E-03   1597.778       14.41692    
  4.6070400E-03  4.7236700E-03   2657.546       13.10566    
  4.7236700E-03  4.8432499E-03   1970.018       15.20179    
  4.8432499E-03  4.9658502E-03   1388.237       18.50479    
  4.9658502E-03  5.2204598E-03   1715.780       16.76309    
  5.2204598E-03  5.4881200E-03   1899.723       12.85284    
  5.4881200E-03  5.7695000E-03   1255.074       11.76486    
  5.7695000E-03  5.9155500E-03   1394.726       15.43493    
  5.9155500E-03  6.0653100E-03   1426.847       15.83114    
  6.0653100E-03  6.2188501E-03   1172.649       19.28172    
  6.2188501E-03  6.3762800E-03   1465.449       18.37116    
  6.3762800E-03  6.5377001E-03   1540.167       14.99542    
  6.5377001E-03  6.5923799E-03   1326.940       27.91091    
  6.5923799E-03  6.6475999E-03   954.7053       34.13073    
  6.6475999E-03  6.7031998E-03   1372.332       25.20132    
  6.7031998E-03  6.8728901E-03   1235.635       14.56911    
  6.8728901E-03  7.0468802E-03   1151.779       16.07903    
  7.0468802E-03  7.2252699E-03   889.8524       18.51249    
  7.2252699E-03  7.4081798E-03   1310.259       19.42780    
  7.4081798E-03  7.5957198E-03   806.2886       18.90808    
  7.5957198E-03  7.7880099E-03   588.1370       16.44465    
  7.7880099E-03  7.9851598E-03   828.9439       24.63174    
  7.9851598E-03  8.1873098E-03   549.7786       17.56874    
  8.1873098E-03  8.3945701E-03   1024.175       18.46932    
  8.3945701E-03  8.6070802E-03   1138.069       16.87873    
  8.6070802E-03  8.8249696E-03   641.1609       17.40468    
  8.8249696E-03  9.0483697E-03   802.3875       17.33565    
  9.0483697E-03  9.2774397E-03   739.7611       17.87051    
  9.2774397E-03  9.5122904E-03   542.0878       18.02712    
  9.5122904E-03  9.7530996E-03   722.4626       18.49056    
  9.7530996E-03  9.9999998E-03   506.4370       22.16735    
  9.9999998E-03  1.0253200E-02   507.3375       23.97609    
  1.0253200E-02  1.0512700E-02   831.9360       24.67186    
  1.0512700E-02  1.0778800E-02   530.4518       22.87249    
  1.0778800E-02  1.1051700E-02   719.4763       18.39812    
  1.1051700E-02  1.1331500E-02   441.9124       30.07321    
  1.1331500E-02  1.1618300E-02   422.5510       19.40550    
  1.1618300E-02  1.1912500E-02   593.9069       22.90343    
  1.1912500E-02  1.2214000E-02   587.5182       17.36516    
  1.2214000E-02  1.2523200E-02   465.5073       19.67596    
  1.2523200E-02  1.2840200E-02   524.1857       20.02660    
  1.2840200E-02  1.3165300E-02   485.8120       18.70905    
  1.3165300E-02  1.3498600E-02   360.5198       17.32984    
  1.3498600E-02  1.3840300E-02   377.2613       15.91318    
  1.3840300E-02  1.4190700E-02   547.5626       17.93537    
  1.4190700E-02  1.4549900E-02   400.5149       27.57073    
  1.4549900E-02  1.4918300E-02   543.6121       17.33045    
  1.4918300E-02  1.5295900E-02   479.7839       29.68217    
  1.5295900E-02  1.5683100E-02   334.1348       18.89899    
  1.5683100E-02  1.6080100E-02   381.7260       19.02990    
  1.6080100E-02  1.6487200E-02   402.1741       23.13299    
  1.6487200E-02  1.6904600E-02   347.1452       17.95595    
  1.6904600E-02  1.7332500E-02   324.1330       19.88170    
  1.7332500E-02  1.7771300E-02   317.1964       23.55904    
  1.7771300E-02  1.8221200E-02   365.7607       17.93364    
  1.8221200E-02  1.8682500E-02   425.8379       17.61715    
  1.8682500E-02  1.9155400E-02   293.8434       15.16589    
  1.9155400E-02  1.9640300E-02   375.1910       17.99673    
  1.9640300E-02  2.0000000E-02   325.3698       24.30097    


 # Detector n:  2  ME42a_Nhi 
 # N. of energy intervals 100
  2.0000000E-02  2.1778084E-02   281.5609       10.97363    
  2.1778084E-02  2.3714250E-02   293.9247       9.087884    
  2.3714250E-02  2.5822546E-02   240.6563       10.10972    
  2.5822546E-02  2.8118281E-02   258.4001       9.873571    
  2.8118281E-02  3.0618116E-02   282.3380       10.37337    
  3.0618116E-02  3.3340197E-02   290.3557       9.981838    
  3.3340197E-02  3.6304284E-02   236.0983       9.603889    
  3.6304284E-02  3.9531890E-02   274.0932       9.489568    
  3.9531890E-02  4.3046441E-02   215.5195       9.279841    
  4.3046441E-02  4.6873454E-02   220.3272       9.453476    
  4.6873454E-02  5.1040705E-02   225.0885       8.832035    
  5.1040705E-02  5.5578440E-02   231.1530       8.083465    
  5.5578440E-02  6.0519602E-02   227.0168       8.472053    
  6.0519602E-02  6.5900050E-02   189.9711       8.191105    
  6.5900050E-02  7.1758844E-02   186.1733       7.984475    
  7.1758844E-02  7.8138515E-02   163.7495       8.360732    
  7.8138515E-02  8.5085362E-02   141.1701       7.902148    
  8.5085362E-02  9.2649810E-02   123.3549       7.975414    
  9.2649810E-02  0.1008868       120.7366       8.520340    
  0.1008868      0.1098560       84.39346       10.48472    
  0.1098560      0.1196227       82.33720       9.744254    
  0.1196227      0.1302577       75.95200       9.397817    
  0.1302577      0.1418381       54.51330       10.52068    
  0.1418381      0.1544482       45.89247       10.90526    
  0.1544482      0.1681793       43.35625       11.14006    
  0.1681793      0.1831311       28.38270       15.95347    
  0.1831311      0.1994122       15.92920       14.26867    
  0.1994122      0.2171408       12.66156       16.67215    
  0.2171408      0.2364456       8.638782       21.04947    
  0.2364456      0.2574666       7.800371       22.10233    
  0.2574666      0.2803565       3.806078       26.65043    
  0.2803565      0.3052814       3.030378       53.49468    
  0.3052814      0.3324222       2.142522       37.22448    
  0.3324222      0.3619759       1.179402       38.82342    
  0.3619759      0.3941571       1.514838       38.75756    
  0.3941571      0.4291994      0.9077262       46.77967    
  0.4291994      0.4673570      0.1267495       69.01572    
  0.4673570      0.5089071       0.000000       0.000000    
  0.5089071      0.5541511      1.9441810E-02   81.61526    
  0.5541511      0.6034175      0.4867480       71.10056    
  0.6034175      0.6570638       0.000000       0.000000    
  0.6570638      0.7154796      1.0920100E-02   70.19599    
  0.7154796      0.7790889      9.6442349E-02   94.37989    
  0.7790889      0.8483531       0.000000       0.000000    
  0.8483531      0.9237754       0.000000       0.000000    
  0.9237754       1.005903       0.000000       0.000000    
   1.005903       1.095332       0.000000       0.000000    
   1.095332       1.192712       0.000000       0.000000    
   1.192712       1.298749       0.000000       0.000000    
   1.298749       1.414213       0.000000       0.000000    
   1.414213       1.539943       0.000000       0.000000    
   1.539943       1.676850       0.000000       0.000000    
   1.676850       1.825929       0.000000       0.000000    
   1.825929       1.988262       0.000000       0.000000    
   1.988262       2.165027       0.000000       0.000000    
   2.165027       2.357507       0.000000       0.000000    
   2.357507       2.567100       0.000000       0.000000    
   2.567100       2.795326       0.000000       0.000000    
   2.795326       3.043842       0.000000       0.000000    
   3.043842       3.314453       0.000000       0.000000    
   3.314453       3.609122       0.000000       0.000000    
   3.609122       3.929988       0.000000       0.000000    
   3.929988       4.279381       0.000000       0.000000    
   4.279381       4.659836       0.000000       0.000000    
   4.659836       5.074115       0.000000       0.000000    
   5.074115       5.525226       0.000000       0.000000    
   5.525226       6.016442       0.000000       0.000000    
   6.016442       6.551329       0.000000       0.000000    
   6.551329       7.133770       0.000000       0.000000    
   7.133770       7.767992       0.000000       0.000000    
   7.767992       8.458600       0.000000       0.000000    
   8.458600       9.210606       0.000000       0.000000    
   9.210606       10.02947       0.000000       0.000000    
   10.02947       10.92113       0.000000       0.000000    
   10.92113       11.89207       0.000000       0.000000    
   11.89207       12.94932       0.000000       0.000000    
   12.94932       14.10057       0.000000       0.000000    
   14.10057       15.35417       0.000000       0.000000    
   15.35417       16.71922       0.000000       0.000000    
   16.71922       18.20563       0.000000       0.000000    
   18.20563       19.82419       0.000000       0.000000    
   19.82419       21.58665       0.000000       0.000000    
   21.58665       23.50579       0.000000       0.000000    
   23.50579       25.59556       0.000000       0.000000    
   25.59556       27.87111       0.000000       0.000000    
   27.87111       30.34897       0.000000       0.000000    
   30.34897       33.04712       0.000000       0.000000    
   33.04712       35.98515       0.000000       0.000000    
   35.98515       39.18439       0.000000       0.000000    
   39.18439       42.66805       0.000000       0.000000    
   42.66805       46.46142       0.000000       0.000000    
   46.46142       50.59204       0.000000       0.000000    
   50.59204       55.08988       0.000000       0.000000    
   55.08988       59.98761       0.000000       0.000000    
   59.98761       65.32076       0.000000       0.000000    
   65.32076       71.12806       0.000000       0.000000    
   71.12806       77.45164       0.000000       0.000000    
   77.45164       84.33743       0.000000       0.000000    
   84.33743       91.83538       0.000000       0.000000    
   91.83538       99.99994       0.000000       0.000000    


 # Detector n:  3  ME42a_ph  
 # N. of energy intervals 100
  9.9999997E-06  1.1748975E-05   4802.344       52.19789    
  1.1748975E-05  1.3803842E-05   10827.83       66.17496    
  1.3803842E-05  1.6218100E-05   8963.137       41.29773    
  1.6218100E-05  1.9054607E-05   3157.196       47.62661    
  1.9054607E-05  2.2387210E-05   7151.437       33.67730    
  2.2387210E-05  2.6302680E-05   11099.46       29.19797    
  2.6302680E-05  3.0902953E-05   17106.04       21.04638    
  3.0902953E-05  3.6307803E-05   32883.23       26.53621    
  3.6307803E-05  4.2657950E-05   58092.68       12.73996    
  4.2657950E-05  5.0118721E-05   129957.9       9.545093    
  5.0118721E-05  5.8884361E-05   184757.4       5.554921    
  5.8884361E-05  6.9183094E-05   290210.7       5.318169    
  6.9183094E-05  8.1283048E-05   364024.3       4.077485    
  8.1283048E-05  9.5499250E-05   425777.0       3.437633    
  9.5499250E-05  1.1220184E-04   449538.7       2.796417    
  1.1220184E-04  1.3182567E-04   426254.4       2.667480    
  1.3182567E-04  1.5488165E-04   397091.4       2.775477    
  1.5488165E-04  1.8197007E-04   340814.3       2.665160    
  1.8197007E-04  2.1379619E-04   295039.8       2.638988    
  2.1379619E-04  2.5118861E-04   231885.0       2.639410    
  2.5118861E-04  2.9512090E-04   184224.0       2.836499    
  2.9512090E-04  3.4673681E-04   148075.5       3.022291    
  3.4673681E-04  4.0738023E-04   114064.0       2.965933    
  4.0738023E-04  4.7863004E-04   101610.0       3.152612    
  4.7863004E-04  5.6234124E-04   118279.4       2.687767    
  5.6234124E-04  6.6069339E-04   45091.28       3.738514    
  6.6069339E-04  7.7624706E-04   38905.32       3.803243    
  7.7624706E-04  9.1201073E-04   42855.11       2.868281    
  9.1201073E-04  1.0715192E-03   33237.99       3.254090    
  1.0715192E-03  1.2589253E-03   20990.75       3.776433    
  1.2589253E-03  1.4791082E-03   20607.70       4.291858    
  1.4791082E-03  1.7378007E-03   14685.87       4.162271    
  1.7378007E-03  2.0417378E-03   15276.86       3.866532    
  2.0417378E-03  2.3988327E-03   20392.07       3.137270    
  2.3988327E-03  2.8183826E-03   10933.20       3.967124    
  2.8183826E-03  3.3113109E-03   6763.737       4.143239    
  3.3113109E-03  3.8904510E-03   5745.057       4.601771    
  3.8904510E-03  4.5708814E-03   5863.895       4.395157    
  4.5708814E-03  5.3703170E-03   3860.556       4.655788    
  5.3703170E-03  6.3095726E-03   4250.247       4.055185    
  6.3095726E-03  7.4131014E-03   2918.235       4.288415    
  7.4131014E-03  8.7096347E-03   5771.563       3.179741    
  8.7096347E-03  1.0232928E-02   1084.141       6.550467    
  1.0232928E-02  1.2022642E-02   31.11100       30.41550    
  1.2022642E-02  1.4125373E-02   10.29137       32.06119    
  1.4125373E-02  1.6595867E-02   5.388252       42.02029    
  1.6595867E-02  1.9498443E-02   8.184846       67.54875    
  1.9498443E-02  2.2908673E-02   1.626011       66.62632    
  2.2908673E-02  2.6915343E-02  0.6576584       94.37989    
  2.6915343E-02  3.1622771E-02   1.407065       55.73916    
  3.1622771E-02  3.7153516E-02  0.6669124       73.06273    
  3.7153516E-02  4.3651577E-02  0.4073236       94.37989    
  4.3651577E-02  5.1286127E-02  0.4863725       72.29948    
  5.1286127E-02  6.0255948E-02  0.6470013       67.00939    
  6.0255948E-02  7.0794567E-02   0.000000       0.000000    
  7.0794567E-02  8.3176360E-02  5.2779727E-02   94.37989    
  8.3176360E-02  9.7723700E-02  5.1160466E-02   94.37989    
  9.7723700E-02  0.1148153       0.000000       0.000000    
  0.1148153      0.1348963      0.1403808       79.67077    
  0.1348963      0.1584893       0.000000       0.000000    
  0.1584893      0.1862087       0.000000       0.000000    
  0.1862087      0.2187761       0.000000       0.000000    
  0.2187761      0.2570395       0.000000       0.000000    
  0.2570395      0.3019951       0.000000       0.000000    
  0.3019951      0.3548133       0.000000       0.000000    
  0.3548133      0.4168693       0.000000       0.000000    
  0.4168693      0.4897787       0.000000       0.000000    
  0.4897787      0.5754398       0.000000       0.000000    
  0.5754398      0.6760828       0.000000       0.000000    
  0.6760828      0.7943280       0.000000       0.000000    
  0.7943280      0.9332541       0.000000       0.000000    
  0.9332541       1.096478       0.000000       0.000000    
   1.096478       1.288249       0.000000       0.000000    
   1.288249       1.513561       0.000000       0.000000    
   1.513561       1.778279       0.000000       0.000000    
   1.778279       2.089296       0.000000       0.000000    
   2.089296       2.454708       0.000000       0.000000    
   2.454708       2.884031       0.000000       0.000000    
   2.884031       3.388441       0.000000       0.000000    
   3.388441       3.981071       0.000000       0.000000    
   3.981071       4.677350       0.000000       0.000000    
   4.677350       5.495407       0.000000       0.000000    
   5.495407       6.456541       0.000000       0.000000    
   6.456541       7.585774       0.000000       0.000000    
   7.585774       8.912507       0.000000       0.000000    
   8.912507       10.47128       0.000000       0.000000    
   10.47128       12.30268       0.000000       0.000000    
   12.30268       14.45439       0.000000       0.000000    
   14.45439       16.98243       0.000000       0.000000    
   16.98243       19.95262       0.000000       0.000000    
   19.95262       23.44228       0.000000       0.000000    
   23.44228       27.54228       0.000000       0.000000    
   27.54228       32.35936       0.000000       0.000000    
   32.35936       38.01893       0.000000       0.000000    
   38.01893       44.66835       0.000000       0.000000    
   44.66835       52.48073       0.000000       0.000000    
   52.48073       61.65948       0.000000       0.000000    
   61.65948       72.44357       0.000000       0.000000    
   72.44357       85.11378       0.000000       0.000000    
   85.11378       99.99997       0.000000       0.000000    


 # Detector n:  4  ME42a_ep  
 # N. of energy intervals 100
  9.9999997E-06  1.1748975E-05   0.000000       0.000000    
  1.1748975E-05  1.3803842E-05   0.000000       0.000000    
  1.3803842E-05  1.6218100E-05   0.000000       0.000000    
  1.6218100E-05  1.9054607E-05   0.000000       0.000000    
  1.9054607E-05  2.2387210E-05   20.97485       67.82684    
  2.2387210E-05  2.6302680E-05   20.09006       54.69054    
  2.6302680E-05  3.0902953E-05   1672.241       6.478492    
  3.0902953E-05  3.6307803E-05   1949.016       6.732182    
  3.6307803E-05  4.2657950E-05   2109.686       6.849276    
  4.2657950E-05  5.0118721E-05   2191.125       7.114221    
  5.0118721E-05  5.8884361E-05   2051.299       7.862051    
  5.8884361E-05  6.9183094E-05   2023.914       8.254219    
  6.9183094E-05  8.1283048E-05   2401.152       7.301280    
  8.1283048E-05  9.5499250E-05   2110.915       9.190814    
  9.5499250E-05  1.1220184E-04   1931.566       9.757145    
  1.1220184E-04  1.3182567E-04   1934.170       9.414850    
  1.3182567E-04  1.5488165E-04   2065.831       10.27619    
  1.5488165E-04  1.8197007E-04   1999.486       9.588204    
  1.8197007E-04  2.1379619E-04   2038.655       9.474787    
  2.1379619E-04  2.5118861E-04   1749.471       10.06474    
  2.5118861E-04  2.9512090E-04   1925.319       9.808765    
  2.9512090E-04  3.4673681E-04   1778.628       10.89692    
  3.4673681E-04  4.0738023E-04   1644.416       10.97424    
  4.0738023E-04  4.7863004E-04   1448.616       12.11340    
  4.7863004E-04  5.6234124E-04   1341.140       12.63112    
  5.6234124E-04  6.6069339E-04   1313.169       11.14894    
  6.6069339E-04  7.7624706E-04   1204.296       12.50857    
  7.7624706E-04  9.1201073E-04   1120.727       12.56965    
  9.1201073E-04  1.0715192E-03   938.6243       15.30206    
  1.0715192E-03  1.2589253E-03   961.8113       11.88317    
  1.2589253E-03  1.4791082E-03   728.3860       14.54011    
  1.4791082E-03  1.7378007E-03   469.6810       15.47122    
  1.7378007E-03  2.0417378E-03   555.4553       13.13578    
  2.0417378E-03  2.3988327E-03   406.5179       13.74729    
  2.3988327E-03  2.8183826E-03   232.2922       14.91136    
  2.8183826E-03  3.3113109E-03   294.1207       14.54671    
  3.3113109E-03  3.8904510E-03   226.4498       15.30477    
  3.8904510E-03  4.5708814E-03   180.2059       20.35667    
  4.5708814E-03  5.3703170E-03   125.4405       26.56433    
  5.3703170E-03  6.3095726E-03   65.28318       16.75676    
  6.3095726E-03  7.4131014E-03   55.17747       27.57000    
  7.4131014E-03  8.7096347E-03   7.897144       43.81764    
  8.7096347E-03  1.0232928E-02   2.010045       74.45168    
  1.0232928E-02  1.2022642E-02   4.936511       82.99989    
  1.2022642E-02  1.4125373E-02   1.166245       82.35736    
  1.4125373E-02  1.6595867E-02  0.3780690       67.23181    
  1.6595867E-02  1.9498443E-02   1.115665       63.33899    
  1.9498443E-02  2.2908673E-02   0.000000       0.000000    
  2.2908673E-02  2.6915343E-02  0.1375329       73.65424    
  2.6915343E-02  3.1622771E-02   0.000000       0.000000    
  3.1622771E-02  3.7153516E-02   0.000000       0.000000    
  3.7153516E-02  4.3651577E-02   0.000000       0.000000    
  4.3651577E-02  5.1286127E-02   0.000000       0.000000    
  5.1286127E-02  6.0255948E-02  0.7088529       94.37989    
  6.0255948E-02  7.0794567E-02   0.000000       0.000000    
  7.0794567E-02  8.3176360E-02   0.000000       0.000000    
  8.3176360E-02  9.7723700E-02   0.000000       0.000000    
  9.7723700E-02  0.1148153      0.3513176       87.69794    
  0.1148153      0.1348963      0.1022982       94.37989    
  0.1348963      0.1584893       0.000000       0.000000    
  0.1584893      0.1862087       0.000000       0.000000    
  0.1862087      0.2187761       0.000000       0.000000    
  0.2187761      0.2570395       0.000000       0.000000    
  0.2570395      0.3019951       0.000000       0.000000    
  0.3019951      0.3548133       0.000000       0.000000    
  0.3548133      0.4168693       0.000000       0.000000    
  0.4168693      0.4897787       0.000000       0.000000    
  0.4897787      0.5754398       0.000000       0.000000    
  0.5754398      0.6760828       0.000000       0.000000    
  0.6760828      0.7943280       0.000000       0.000000    
  0.7943280      0.9332541       0.000000       0.000000    
  0.9332541       1.096478       0.000000       0.000000    
   1.096478       1.288249       0.000000       0.000000    
   1.288249       1.513561       0.000000       0.000000    
   1.513561       1.778279       0.000000       0.000000    
   1.778279       2.089296       0.000000       0.000000    
   2.089296       2.454708       0.000000       0.000000    
   2.454708       2.884031       0.000000       0.000000    
   2.884031       3.388441       0.000000       0.000000    
   3.388441       3.981071       0.000000       0.000000    
   3.981071       4.677350       0.000000       0.000000    
   4.677350       5.495407       0.000000       0.000000    
   5.495407       6.456541       0.000000       0.000000    
   6.456541       7.585774       0.000000       0.000000    
   7.585774       8.912507       0.000000       0.000000    
   8.912507       10.47128       0.000000       0.000000    
   10.47128       12.30268       0.000000       0.000000    
   12.30268       14.45439       0.000000       0.000000    
   14.45439       16.98243       0.000000       0.000000    
   16.98243       19.95262       0.000000       0.000000    
   19.95262       23.44228       0.000000       0.000000    
   23.44228       27.54228       0.000000       0.000000    
   27.54228       32.35936       0.000000       0.000000    
   32.35936       38.01893       0.000000       0.000000    
   38.01893       44.66835       0.000000       0.000000    
   44.66835       52.48073       0.000000       0.000000    
   52.48073       61.65948       0.000000       0.000000    
   61.65948       72.44357       0.000000       0.000000    
   72.44357       85.11378       0.000000       0.000000    
   85.11378       99.99997       0.000000       0.000000    
